%!PS-Adobe-3.0 EPSF-3.0
%%Creator: (MATLAB, The Mathworks, Inc. Version 8.5.0.197613 \(R2015a\). Operating System: Linux)
%%Title: ./adapt_bar.eps
%%CreationDate: 2015-09-25T17:12:49
%%Pages: (atend)
%%BoundingBox: (atend)
%%LanguageLevel: 3
%%EndComments
%%BeginProlog
%%BeginResource: procset (Apache XML Graphics Std ProcSet) 1.2 0
%%Version: 1.2 0
%%Copyright: (Copyright 2001-2003,2010 The Apache Software Foundation. License terms: http://www.apache.org/licenses/LICENSE-2.0)
/bd{bind def}bind def
/ld{load def}bd
/GR/grestore ld
/M/moveto ld
/LJ/setlinejoin ld
/C/curveto ld
/f/fill ld
/LW/setlinewidth ld
/GC/setgray ld
/t/show ld
/N/newpath ld
/CT/concat ld
/cp/closepath ld
/S/stroke ld
/L/lineto ld
/CC/setcmykcolor ld
/A/ashow ld
/GS/gsave ld
/RC/setrgbcolor ld
/RM/rmoveto ld
/ML/setmiterlimit ld
/re {4 2 roll M
1 index 0 rlineto
0 exch rlineto
neg 0 rlineto
cp } bd
/_ctm matrix def
/_tm matrix def
/BT { _ctm currentmatrix pop matrix _tm copy pop 0 0 moveto } bd
/ET { _ctm setmatrix } bd
/iTm { _ctm setmatrix _tm concat } bd
/Tm { _tm astore pop iTm 0 0 moveto } bd
/ux 0.0 def
/uy 0.0 def
/F {
  /Tp exch def
  /Tf exch def
  Tf findfont Tp scalefont setfont
  /cf Tf def  /cs Tp def
} bd
/ULS {currentpoint /uy exch def /ux exch def} bd
/ULE {
  /Tcx currentpoint pop def
  gsave
  newpath
  cf findfont cs scalefont dup
  /FontMatrix get 0 get /Ts exch def /FontInfo get dup
  /UnderlinePosition get Ts mul /To exch def
  /UnderlineThickness get Ts mul /Tt exch def
  ux uy To add moveto  Tcx uy To add lineto
  Tt setlinewidth stroke
  grestore
} bd
/OLE {
  /Tcx currentpoint pop def
  gsave
  newpath
  cf findfont cs scalefont dup
  /FontMatrix get 0 get /Ts exch def /FontInfo get dup
  /UnderlinePosition get Ts mul /To exch def
  /UnderlineThickness get Ts mul /Tt exch def
  ux uy To add cs add moveto Tcx uy To add cs add lineto
  Tt setlinewidth stroke
  grestore
} bd
/SOE {
  /Tcx currentpoint pop def
  gsave
  newpath
  cf findfont cs scalefont dup
  /FontMatrix get 0 get /Ts exch def /FontInfo get dup
  /UnderlinePosition get Ts mul /To exch def
  /UnderlineThickness get Ts mul /Tt exch def
  ux uy To add cs 10 mul 26 idiv add moveto Tcx uy To add cs 10 mul 26 idiv add lineto
  Tt setlinewidth stroke
  grestore
} bd
/QT {
/Y22 exch store
/X22 exch store
/Y21 exch store
/X21 exch store
currentpoint
/Y21 load 2 mul add 3 div exch
/X21 load 2 mul add 3 div exch
/X21 load 2 mul /X22 load add 3 div
/Y21 load 2 mul /Y22 load add 3 div
/X22 load /Y22 load curveto
} bd
/SSPD {
dup length /d exch dict def
{
/v exch def
/k exch def
currentpagedevice k known {
/cpdv currentpagedevice k get def
v cpdv ne {
/upd false def
/nullv v type /nulltype eq def
/nullcpdv cpdv type /nulltype eq def
nullv nullcpdv or
{
/upd true def
} {
/sametype v type cpdv type eq def
sametype {
v type /arraytype eq {
/vlen v length def
/cpdvlen cpdv length def
vlen cpdvlen eq {
0 1 vlen 1 sub {
/i exch def
/obj v i get def
/cpdobj cpdv i get def
obj cpdobj ne {
/upd true def
exit
} if
} for
} {
/upd true def
} ifelse
} {
v type /dicttype eq {
v {
/dv exch def
/dk exch def
/cpddv cpdv dk get def
dv cpddv ne {
/upd true def
exit
} if
} forall
} {
/upd true def
} ifelse
} ifelse
} if
} ifelse
upd true eq {
d k v put
} if
} if
} if
} forall
d length 0 gt {
d setpagedevice
} if
} bd
%%EndResource
%%BeginResource: procset (Apache XML Graphics EPS ProcSet) 1.0 0
%%Version: 1.0 0
%%Copyright: (Copyright 2002-2003 The Apache Software Foundation. License terms: http://www.apache.org/licenses/LICENSE-2.0)
/BeginEPSF { %def
/b4_Inc_state save def         % Save state for cleanup
/dict_count countdictstack def % Count objects on dict stack
/op_count count 1 sub def      % Count objects on operand stack
userdict begin                 % Push userdict on dict stack
/showpage { } def              % Redefine showpage, { } = null proc
0 setgray 0 setlinecap         % Prepare graphics state
1 setlinewidth 0 setlinejoin
10 setmiterlimit [ ] 0 setdash newpath
/languagelevel where           % If level not equal to 1 then
{pop languagelevel             % set strokeadjust and
1 ne                           % overprint to their defaults.
{false setstrokeadjust false setoverprint
} if
} if
} bd
/EndEPSF { %def
count op_count sub {pop} repeat            % Clean up stacks
countdictstack dict_count sub {end} repeat
b4_Inc_state restore
} bd
%%EndResource
%FOPBeginFontDict
%%IncludeResource: font Courier-Bold
%%IncludeResource: font Helvetica
%%IncludeResource: font Courier-BoldOblique
%%IncludeResource: font Courier-Oblique
%%IncludeResource: font Times-Roman
%%IncludeResource: font Helvetica-BoldOblique
%%IncludeResource: font Helvetica-Bold
%%IncludeResource: font Helvetica-Oblique
%%IncludeResource: font Times-BoldItalic
%%IncludeResource: font Courier
%%IncludeResource: font Times-Italic
%%IncludeResource: font Times-Bold
%%IncludeResource: font Symbol
%%IncludeResource: font ZapfDingbats
%FOPEndFontDict
%%BeginResource: encoding WinAnsiEncoding
/WinAnsiEncoding [
/.notdef /.notdef /.notdef /.notdef /.notdef
/.notdef /.notdef /.notdef /.notdef /.notdef
/.notdef /.notdef /.notdef /.notdef /.notdef
/.notdef /.notdef /.notdef /.notdef /.notdef
/.notdef /.notdef /.notdef /.notdef /.notdef
/.notdef /.notdef /.notdef /.notdef /.notdef
/.notdef /.notdef /space /exclam /quotedbl
/numbersign /dollar /percent /ampersand /quotesingle
/parenleft /parenright /asterisk /plus /comma
/hyphen /period /slash /zero /one
/two /three /four /five /six
/seven /eight /nine /colon /semicolon
/less /equal /greater /question /at
/A /B /C /D /E
/F /G /H /I /J
/K /L /M /N /O
/P /Q /R /S /T
/U /V /W /X /Y
/Z /bracketleft /backslash /bracketright /asciicircum
/underscore /quoteleft /a /b /c
/d /e /f /g /h
/i /j /k /l /m
/n /o /p /q /r
/s /t /u /v /w
/x /y /z /braceleft /bar
/braceright /asciitilde /bullet /Euro /bullet
/quotesinglbase /florin /quotedblbase /ellipsis /dagger
/daggerdbl /circumflex /perthousand /Scaron /guilsinglleft
/OE /bullet /Zcaron /bullet /bullet
/quoteleft /quoteright /quotedblleft /quotedblright /bullet
/endash /emdash /asciitilde /trademark /scaron
/guilsinglright /oe /bullet /zcaron /Ydieresis
/space /exclamdown /cent /sterling /currency
/yen /brokenbar /section /dieresis /copyright
/ordfeminine /guillemotleft /logicalnot /sfthyphen /registered
/macron /degree /plusminus /twosuperior /threesuperior
/acute /mu /paragraph /middot /cedilla
/onesuperior /ordmasculine /guillemotright /onequarter /onehalf
/threequarters /questiondown /Agrave /Aacute /Acircumflex
/Atilde /Adieresis /Aring /AE /Ccedilla
/Egrave /Eacute /Ecircumflex /Edieresis /Igrave
/Iacute /Icircumflex /Idieresis /Eth /Ntilde
/Ograve /Oacute /Ocircumflex /Otilde /Odieresis
/multiply /Oslash /Ugrave /Uacute /Ucircumflex
/Udieresis /Yacute /Thorn /germandbls /agrave
/aacute /acircumflex /atilde /adieresis /aring
/ae /ccedilla /egrave /eacute /ecircumflex
/edieresis /igrave /iacute /icircumflex /idieresis
/eth /ntilde /ograve /oacute /ocircumflex
/otilde /odieresis /divide /oslash /ugrave
/uacute /ucircumflex /udieresis /yacute /thorn
/ydieresis
] def
%%EndResource
%FOPBeginFontReencode
/Courier-Bold findfont
dup length dict begin
  {1 index /FID ne {def} {pop pop} ifelse} forall
  /Encoding WinAnsiEncoding def
  currentdict
end
/Courier-Bold exch definefont pop
/Helvetica findfont
dup length dict begin
  {1 index /FID ne {def} {pop pop} ifelse} forall
  /Encoding WinAnsiEncoding def
  currentdict
end
/Helvetica exch definefont pop
/Courier-BoldOblique findfont
dup length dict begin
  {1 index /FID ne {def} {pop pop} ifelse} forall
  /Encoding WinAnsiEncoding def
  currentdict
end
/Courier-BoldOblique exch definefont pop
/Courier-Oblique findfont
dup length dict begin
  {1 index /FID ne {def} {pop pop} ifelse} forall
  /Encoding WinAnsiEncoding def
  currentdict
end
/Courier-Oblique exch definefont pop
/Times-Roman findfont
dup length dict begin
  {1 index /FID ne {def} {pop pop} ifelse} forall
  /Encoding WinAnsiEncoding def
  currentdict
end
/Times-Roman exch definefont pop
/Helvetica-BoldOblique findfont
dup length dict begin
  {1 index /FID ne {def} {pop pop} ifelse} forall
  /Encoding WinAnsiEncoding def
  currentdict
end
/Helvetica-BoldOblique exch definefont pop
/Helvetica-Bold findfont
dup length dict begin
  {1 index /FID ne {def} {pop pop} ifelse} forall
  /Encoding WinAnsiEncoding def
  currentdict
end
/Helvetica-Bold exch definefont pop
/Helvetica-Oblique findfont
dup length dict begin
  {1 index /FID ne {def} {pop pop} ifelse} forall
  /Encoding WinAnsiEncoding def
  currentdict
end
/Helvetica-Oblique exch definefont pop
/Times-BoldItalic findfont
dup length dict begin
  {1 index /FID ne {def} {pop pop} ifelse} forall
  /Encoding WinAnsiEncoding def
  currentdict
end
/Times-BoldItalic exch definefont pop
/Courier findfont
dup length dict begin
  {1 index /FID ne {def} {pop pop} ifelse} forall
  /Encoding WinAnsiEncoding def
  currentdict
end
/Courier exch definefont pop
/Times-Italic findfont
dup length dict begin
  {1 index /FID ne {def} {pop pop} ifelse} forall
  /Encoding WinAnsiEncoding def
  currentdict
end
/Times-Italic exch definefont pop
/Times-Bold findfont
dup length dict begin
  {1 index /FID ne {def} {pop pop} ifelse} forall
  /Encoding WinAnsiEncoding def
  currentdict
end
/Times-Bold exch definefont pop
%FOPEndFontReencode
%%EndProlog
%%Page: 1 1
%%PageBoundingBox: 0 0 576 432
%%BeginPageSetup
[1 0 0 -1 0 432] CT
%%EndPageSetup
GS
[0.75789 0 0 0.75789 0 0] CT
1 GC
N
0 0 760 570 re
f
GR
GS
[0.75789 0 0 0.75789 0 0] CT
1 GC
N
0 0 760 570 re
f
GR
GS
[0.75789 0 0 0.75789 0 0] CT
1 GC
N
99 507 M
688 507 L
688 43 L
99 43 L
cp
f
GR
GS
[0.75789 0 0 0.75789 0 0] CT
0.149 GC
2 setlinecap
10.0 ML
N
99 507 M
688 507 L
S
GR
GS
[0.75789 0 0 0.75789 0 0] CT
0.149 GC
2 setlinecap
10.0 ML
N
99 43 M
688 43 L
S
GR
GS
[0.75789 0 0 0.75789 0 0] CT
0.149 GC
2 setlinecap
10.0 ML
N
134.482 507 M
134.482 501.11 L
S
GR
GS
[0.75789 0 0 0.75789 0 0] CT
0.149 GC
2 setlinecap
10.0 ML
N
162.867 507 M
162.867 501.11 L
S
GR
GS
[0.75789 0 0 0.75789 0 0] CT
0.149 GC
2 setlinecap
10.0 ML
N
191.253 507 M
191.253 501.11 L
S
GR
GS
[0.75789 0 0 0.75789 0 0] CT
0.149 GC
2 setlinecap
10.0 ML
N
212.542 507 M
212.542 501.11 L
S
GR
GS
[0.75789 0 0 0.75789 0 0] CT
0.149 GC
2 setlinecap
10.0 ML
N
233.831 507 M
233.831 501.11 L
S
GR
GS
[0.75789 0 0 0.75789 0 0] CT
0.149 GC
2 setlinecap
10.0 ML
N
262.217 507 M
262.217 501.11 L
S
GR
GS
[0.75789 0 0 0.75789 0 0] CT
0.149 GC
2 setlinecap
10.0 ML
N
283.506 507 M
283.506 501.11 L
S
GR
GS
[0.75789 0 0 0.75789 0 0] CT
0.149 GC
2 setlinecap
10.0 ML
N
304.795 507 M
304.795 501.11 L
S
GR
GS
[0.75789 0 0 0.75789 0 0] CT
0.149 GC
2 setlinecap
10.0 ML
N
333.181 507 M
333.181 501.11 L
S
GR
GS
[0.75789 0 0 0.75789 0 0] CT
0.149 GC
2 setlinecap
10.0 ML
N
354.47 507 M
354.47 501.11 L
S
GR
GS
[0.75789 0 0 0.75789 0 0] CT
0.149 GC
2 setlinecap
10.0 ML
N
375.759 507 M
375.759 501.11 L
S
GR
GS
[0.75789 0 0 0.75789 0 0] CT
0.149 GC
2 setlinecap
10.0 ML
N
446.723 507 M
446.723 501.11 L
S
GR
GS
[0.75789 0 0 0.75789 0 0] CT
0.149 GC
2 setlinecap
10.0 ML
N
475.108 507 M
475.108 501.11 L
S
GR
GS
[0.75789 0 0 0.75789 0 0] CT
0.149 GC
2 setlinecap
10.0 ML
N
496.398 507 M
496.398 501.11 L
S
GR
GS
[0.75789 0 0 0.75789 0 0] CT
0.149 GC
2 setlinecap
10.0 ML
N
517.687 507 M
517.687 501.11 L
S
GR
GS
[0.75789 0 0 0.75789 0 0] CT
0.149 GC
2 setlinecap
10.0 ML
N
546.072 507 M
546.072 501.11 L
S
GR
GS
[0.75789 0 0 0.75789 0 0] CT
0.149 GC
2 setlinecap
10.0 ML
N
567.361 507 M
567.361 501.11 L
S
GR
GS
[0.75789 0 0 0.75789 0 0] CT
0.149 GC
2 setlinecap
10.0 ML
N
588.651 507 M
588.651 501.11 L
S
GR
GS
[0.75789 0 0 0.75789 0 0] CT
0.149 GC
2 setlinecap
10.0 ML
N
617.036 507 M
617.036 501.11 L
S
GR
GS
[0.75789 0 0 0.75789 0 0] CT
0.149 GC
2 setlinecap
10.0 ML
N
638.325 507 M
638.325 501.11 L
S
GR
GS
[0.75789 0 0 0.75789 0 0] CT
0.149 GC
2 setlinecap
10.0 ML
N
659.614 507 M
659.614 501.11 L
S
GR
GS
[0.75789 0 0 0.75789 0 0] CT
0.149 GC
2 setlinecap
10.0 ML
N
134.482 43 M
134.482 48.89 L
S
GR
GS
[0.75789 0 0 0.75789 0 0] CT
0.149 GC
2 setlinecap
10.0 ML
N
162.867 43 M
162.867 48.89 L
S
GR
GS
[0.75789 0 0 0.75789 0 0] CT
0.149 GC
2 setlinecap
10.0 ML
N
191.253 43 M
191.253 48.89 L
S
GR
GS
[0.75789 0 0 0.75789 0 0] CT
0.149 GC
2 setlinecap
10.0 ML
N
212.542 43 M
212.542 48.89 L
S
GR
GS
[0.75789 0 0 0.75789 0 0] CT
0.149 GC
2 setlinecap
10.0 ML
N
233.831 43 M
233.831 48.89 L
S
GR
GS
[0.75789 0 0 0.75789 0 0] CT
0.149 GC
2 setlinecap
10.0 ML
N
262.217 43 M
262.217 48.89 L
S
GR
GS
[0.75789 0 0 0.75789 0 0] CT
0.149 GC
2 setlinecap
10.0 ML
N
283.506 43 M
283.506 48.89 L
S
GR
GS
[0.75789 0 0 0.75789 0 0] CT
0.149 GC
2 setlinecap
10.0 ML
N
304.795 43 M
304.795 48.89 L
S
GR
GS
[0.75789 0 0 0.75789 0 0] CT
0.149 GC
2 setlinecap
10.0 ML
N
333.181 43 M
333.181 48.89 L
S
GR
GS
[0.75789 0 0 0.75789 0 0] CT
0.149 GC
2 setlinecap
10.0 ML
N
354.47 43 M
354.47 48.89 L
S
GR
GS
[0.75789 0 0 0.75789 0 0] CT
0.149 GC
2 setlinecap
10.0 ML
N
375.759 43 M
375.759 48.89 L
S
GR
GS
[0.75789 0 0 0.75789 0 0] CT
0.149 GC
2 setlinecap
10.0 ML
N
446.723 43 M
446.723 48.89 L
S
GR
GS
[0.75789 0 0 0.75789 0 0] CT
0.149 GC
2 setlinecap
10.0 ML
N
475.108 43 M
475.108 48.89 L
S
GR
GS
[0.75789 0 0 0.75789 0 0] CT
0.149 GC
2 setlinecap
10.0 ML
N
496.398 43 M
496.398 48.89 L
S
GR
GS
[0.75789 0 0 0.75789 0 0] CT
0.149 GC
2 setlinecap
10.0 ML
N
517.687 43 M
517.687 48.89 L
S
GR
GS
[0.75789 0 0 0.75789 0 0] CT
0.149 GC
2 setlinecap
10.0 ML
N
546.072 43 M
546.072 48.89 L
S
GR
GS
[0.75789 0 0 0.75789 0 0] CT
0.149 GC
2 setlinecap
10.0 ML
N
567.361 43 M
567.361 48.89 L
S
GR
GS
[0.75789 0 0 0.75789 0 0] CT
0.149 GC
2 setlinecap
10.0 ML
N
588.651 43 M
588.651 48.89 L
S
GR
GS
[0.75789 0 0 0.75789 0 0] CT
0.149 GC
2 setlinecap
10.0 ML
N
617.036 43 M
617.036 48.89 L
S
GR
GS
[0.75789 0 0 0.75789 0 0] CT
0.149 GC
2 setlinecap
10.0 ML
N
638.325 43 M
638.325 48.89 L
S
GR
GS
[0.75789 0 0 0.75789 0 0] CT
0.149 GC
2 setlinecap
10.0 ML
N
659.614 43 M
659.614 48.89 L
S
GR
GS
[0.75789 0 0 0.75789 101.92315 389.45261] CT
0.149 GC
/Helvetica 21 F
GS
[1 0 0 1 0 0] CT
-7 20 moveto 
1 -1 scale
(0) t 
GR
GR
GS
[0.75789 0 0 0.75789 123.43639 389.45261] CT
0.149 GC
/Helvetica 21 F
GS
[1 0 0 1 0 0] CT
-7 20 moveto 
1 -1 scale
(0) t 
GR
GR
GS
[0.75789 0 0 0.75789 144.94966 389.45261] CT
0.149 GC
/Helvetica 21 F
GS
[1 0 0 1 0 0] CT
-7 20 moveto 
1 -1 scale
(1) t 
GR
GR
GS
[0.75789 0 0 0.75789 161.0846 389.45261] CT
0.149 GC
/Helvetica 21 F
GS
[1 0 0 1 0 0] CT
-7 20 moveto 
1 -1 scale
(2) t 
GR
GR
GS
[0.75789 0 0 0.75789 177.21953 389.45261] CT
0.149 GC
/Helvetica 21 F
GS
[1 0 0 1 0 0] CT
-7 20 moveto 
1 -1 scale
(3) t 
GR
GR
GS
[0.75789 0 0 0.75789 198.73278 389.45261] CT
0.149 GC
/Helvetica 21 F
GS
[1 0 0 1 0 0] CT
-7 20 moveto 
1 -1 scale
(1) t 
GR
GR
GS
[0.75789 0 0 0.75789 214.86771 389.45261] CT
0.149 GC
/Helvetica 21 F
GS
[1 0 0 1 0 0] CT
-7 20 moveto 
1 -1 scale
(2) t 
GR
GR
GS
[0.75789 0 0 0.75789 231.00265 389.45261] CT
0.149 GC
/Helvetica 21 F
GS
[1 0 0 1 0 0] CT
-7 20 moveto 
1 -1 scale
(3) t 
GR
GR
GS
[0.75789 0 0 0.75789 252.51592 389.45261] CT
0.149 GC
/Helvetica 21 F
GS
[1 0 0 1 0 0] CT
-7 20 moveto 
1 -1 scale
(1) t 
GR
GR
GS
[0.75789 0 0 0.75789 268.65086 389.45261] CT
0.149 GC
/Helvetica 21 F
GS
[1 0 0 1 0 0] CT
-7 20 moveto 
1 -1 scale
(2) t 
GR
GR
GS
[0.75789 0 0 0.75789 284.78582 389.45261] CT
0.149 GC
/Helvetica 21 F
GS
[1 0 0 1 0 0] CT
-7 20 moveto 
1 -1 scale
(3) t 
GR
GR
GS
[0.75789 0 0 0.75789 338.56894 389.45261] CT
0.149 GC
/Helvetica 21 F
GS
[1 0 0 1 0 0] CT
-7 20 moveto 
1 -1 scale
(0) t 
GR
GR
GS
[0.75789 0 0 0.75789 360.08218 389.45261] CT
0.149 GC
/Helvetica 21 F
GS
[1 0 0 1 0 0] CT
-7 20 moveto 
1 -1 scale
(1) t 
GR
GR
GS
[0.75789 0 0 0.75789 376.21712 389.45261] CT
0.149 GC
/Helvetica 21 F
GS
[1 0 0 1 0 0] CT
-7 20 moveto 
1 -1 scale
(2) t 
GR
GR
GS
[0.75789 0 0 0.75789 392.35208 389.45261] CT
0.149 GC
/Helvetica 21 F
GS
[1 0 0 1 0 0] CT
-7 20 moveto 
1 -1 scale
(3) t 
GR
GR
GS
[0.75789 0 0 0.75789 413.8653 389.45261] CT
0.149 GC
/Helvetica 21 F
GS
[1 0 0 1 0 0] CT
-7 20 moveto 
1 -1 scale
(1) t 
GR
GR
GS
[0.75789 0 0 0.75789 430.00026 389.45261] CT
0.149 GC
/Helvetica 21 F
GS
[1 0 0 1 0 0] CT
-7 20 moveto 
1 -1 scale
(2) t 
GR
GR
GS
[0.75789 0 0 0.75789 446.13522 389.45261] CT
0.149 GC
/Helvetica 21 F
GS
[1 0 0 1 0 0] CT
-7 20 moveto 
1 -1 scale
(3) t 
GR
GR
GS
[0.75789 0 0 0.75789 467.64844 389.45261] CT
0.149 GC
/Helvetica 21 F
GS
[1 0 0 1 0 0] CT
-7 20 moveto 
1 -1 scale
(1) t 
GR
GR
GS
[0.75789 0 0 0.75789 483.7834 389.45261] CT
0.149 GC
/Helvetica 21 F
GS
[1 0 0 1 0 0] CT
-7 20 moveto 
1 -1 scale
(2) t 
GR
GR
GS
[0.75789 0 0 0.75789 499.91831 389.45261] CT
0.149 GC
/Helvetica 21 F
GS
[1 0 0 1 0 0] CT
-7 20 moveto 
1 -1 scale
(3) t 
GR
GR
GS
[0 -0.75789 0.75789 0 46.36842 208.42087] CT
0.149 GC
/Helvetica 23 F
GS
[1 0 0 1 0 0] CT
-76.5 -6 moveto 
1 -1 scale
(Accuracy \(%\)) t 
GR
GR
GS
[0.75789 0 0 0.75789 0 0] CT
0.149 GC
2 setlinecap
10.0 ML
N
99 507 M
99 43 L
S
GR
GS
[0.75789 0 0 0.75789 0 0] CT
0.149 GC
2 setlinecap
10.0 ML
N
688 507 M
688 43 L
S
GR
GS
[0.75789 0 0 0.75789 0 0] CT
0.149 GC
2 setlinecap
10.0 ML
N
99 473.857 M
104.89 473.857 L
S
GR
GS
[0.75789 0 0 0.75789 0 0] CT
0.149 GC
2 setlinecap
10.0 ML
N
99 418.619 M
104.89 418.619 L
S
GR
GS
[0.75789 0 0 0.75789 0 0] CT
0.149 GC
2 setlinecap
10.0 ML
N
99 363.381 M
104.89 363.381 L
S
GR
GS
[0.75789 0 0 0.75789 0 0] CT
0.149 GC
2 setlinecap
10.0 ML
N
99 308.143 M
104.89 308.143 L
S
GR
GS
[0.75789 0 0 0.75789 0 0] CT
0.149 GC
2 setlinecap
10.0 ML
N
99 252.905 M
104.89 252.905 L
S
GR
GS
[0.75789 0 0 0.75789 0 0] CT
0.149 GC
2 setlinecap
10.0 ML
N
99 197.667 M
104.89 197.667 L
S
GR
GS
[0.75789 0 0 0.75789 0 0] CT
0.149 GC
2 setlinecap
10.0 ML
N
99 142.429 M
104.89 142.429 L
S
GR
GS
[0.75789 0 0 0.75789 0 0] CT
0.149 GC
2 setlinecap
10.0 ML
N
99 87.19 M
104.89 87.19 L
S
GR
GS
[0.75789 0 0 0.75789 0 0] CT
0.149 GC
2 setlinecap
10.0 ML
N
688 473.857 M
682.11 473.857 L
S
GR
GS
[0.75789 0 0 0.75789 0 0] CT
0.149 GC
2 setlinecap
10.0 ML
N
688 418.619 M
682.11 418.619 L
S
GR
GS
[0.75789 0 0 0.75789 0 0] CT
0.149 GC
2 setlinecap
10.0 ML
N
688 363.381 M
682.11 363.381 L
S
GR
GS
[0.75789 0 0 0.75789 0 0] CT
0.149 GC
2 setlinecap
10.0 ML
N
688 308.143 M
682.11 308.143 L
S
GR
GS
[0.75789 0 0 0.75789 0 0] CT
0.149 GC
2 setlinecap
10.0 ML
N
688 252.905 M
682.11 252.905 L
S
GR
GS
[0.75789 0 0 0.75789 0 0] CT
0.149 GC
2 setlinecap
10.0 ML
N
688 197.667 M
682.11 197.667 L
S
GR
GS
[0.75789 0 0 0.75789 0 0] CT
0.149 GC
2 setlinecap
10.0 ML
N
688 142.429 M
682.11 142.429 L
S
GR
GS
[0.75789 0 0 0.75789 0 0] CT
0.149 GC
2 setlinecap
10.0 ML
N
688 87.19 M
682.11 87.19 L
S
GR
GS
[0.75789 0 0 0.75789 69.83158 359.13384] CT
0.149 GC
/Helvetica 21 F
GS
[1 0 0 1 0 0] CT
-27 7.5 moveto 
1 -1 scale
(60) t 
GR
GR
GS
[0.75789 0 0 0.75789 69.83158 317.26917] CT
0.149 GC
/Helvetica 21 F
GS
[1 0 0 1 0 0] CT
-27 7.5 moveto 
1 -1 scale
(65) t 
GR
GR
GS
[0.75789 0 0 0.75789 69.83158 275.40451] CT
0.149 GC
/Helvetica 21 F
GS
[1 0 0 1 0 0] CT
-27 7.5 moveto 
1 -1 scale
(70) t 
GR
GR
GS
[0.75789 0 0 0.75789 69.83158 233.53985] CT
0.149 GC
/Helvetica 21 F
GS
[1 0 0 1 0 0] CT
-27 7.5 moveto 
1 -1 scale
(75) t 
GR
GR
GS
[0.75789 0 0 0.75789 69.83158 191.67518] CT
0.149 GC
/Helvetica 21 F
GS
[1 0 0 1 0 0] CT
-27 7.5 moveto 
1 -1 scale
(80) t 
GR
GR
GS
[0.75789 0 0 0.75789 69.83158 149.81053] CT
0.149 GC
/Helvetica 21 F
GS
[1 0 0 1 0 0] CT
-27 7.5 moveto 
1 -1 scale
(85) t 
GR
GR
GS
[0.75789 0 0 0.75789 69.83158 107.94587] CT
0.149 GC
/Helvetica 21 F
GS
[1 0 0 1 0 0] CT
-27 7.5 moveto 
1 -1 scale
(90) t 
GR
GR
GS
[0.75789 0 0 0.75789 69.83158 66.0812] CT
0.149 GC
/Helvetica 21 F
GS
[1 0 0 1 0 0] CT
-27 7.5 moveto 
1 -1 scale
(95) t 
GR
GR
GS
[0.75789 0 0 0.75789 0 0] CT
1 1 0 RC
N
125.02 507 M
143.944 507 L
143.944 417.211 L
125.02 417.211 L
cp
f
GR
GS
[0.75789 0 0 0.75789 0 0] CT
2 setlinecap
10.0 ML
N
125.02 507 M
125.02 417.211 L
143.944 417.211 L
143.944 507 L
125.02 507 L
S
GR
GS
[0.75789 0 0 0.75789 0 0] CT
2 setlinecap
10.0 ML
2.639 LW
N
134.482 490.106 M
134.482 344.315 L
S
GR
GS
[0.75789 0 0 0.75789 0 0] CT
2 setlinecap
10.0 ML
2.639 LW
N
133.843 490.106 M
135.121 490.106 L
S
GR
GS
[0.75789 0 0 0.75789 0 0] CT
2 setlinecap
10.0 ML
2.639 LW
N
133.843 344.315 M
135.121 344.315 L
S
GR
GS
[0.75789 0 0 0.75789 101.92315 316.20174] CT
N
1.319 0 M
1.319 0.729 0.729 1.319 0 1.319 C
-0.729 1.319 -1.319 0.729 -1.319 0 C
-1.319 -0.729 -0.729 -1.319 0 -1.319 C
0.729 -1.319 1.319 -0.729 1.319 0 C
cp
f
GR
GS
[0.75789 0 0 0.75789 0 0] CT
0 1 1 RC
N
153.406 507 M
172.329 507 L
172.329 405.362 L
153.406 405.362 L
cp
f
GR
GS
[0.75789 0 0 0.75789 0 0] CT
2 setlinecap
10.0 ML
N
153.406 507 M
153.406 405.362 L
172.329 405.362 L
172.329 507 L
153.406 507 L
S
GR
GS
[0.75789 0 0 0.75789 0 0] CT
2 setlinecap
10.0 ML
2.639 LW
N
162.867 479.817 M
162.867 330.907 L
S
GR
GS
[0.75789 0 0 0.75789 0 0] CT
2 setlinecap
10.0 ML
2.639 LW
N
161.945 479.817 M
163.79 479.817 L
S
GR
GS
[0.75789 0 0 0.75789 0 0] CT
2 setlinecap
10.0 ML
2.639 LW
N
161.945 330.907 M
163.79 330.907 L
S
GR
GS
[0.75789 0 0 0.75789 123.43639 307.22168] CT
N
1.319 0 M
1.319 0.729 0.729 1.319 0 1.319 C
-0.729 1.319 -1.319 0.729 -1.319 0 C
-1.319 -0.729 -0.729 -1.319 0 -1.319 C
0.729 -1.319 1.319 -0.729 1.319 0 C
cp
f
GR
GS
[0.75789 0 0 0.75789 0 0] CT
0 0 1 RC
N
182.737 507 M
199.769 507 L
199.769 280.18 L
182.737 280.18 L
cp
f
GR
GS
[0.75789 0 0 0.75789 0 0] CT
0 0 1 RC
N
204.027 507 M
221.058 507 L
221.058 268.286 L
204.027 268.286 L
cp
f
GR
GS
[0.75789 0 0 0.75789 0 0] CT
0 0 1 RC
N
225.316 507 M
242.347 507 L
242.347 257.161 L
225.316 257.161 L
cp
f
GR
GS
[0.75789 0 0 0.75789 0 0] CT
2 setlinecap
10.0 ML
N
182.737 507 M
182.737 280.18 L
199.769 280.18 L
199.769 507 L
182.737 507 L
S
GR
GS
[0.75789 0 0 0.75789 0 0] CT
2 setlinecap
10.0 ML
N
204.027 507 M
204.027 268.286 L
221.058 268.286 L
221.058 507 L
204.027 507 L
S
GR
GS
[0.75789 0 0 0.75789 0 0] CT
2 setlinecap
10.0 ML
N
225.316 507 M
225.316 257.161 L
242.347 257.161 L
242.347 507 L
225.316 507 L
S
GR
GS
[0.75789 0 0 0.75789 0 0] CT
2 setlinecap
10.0 ML
2.639 LW
N
191.253 314.961 M
191.253 245.399 L
S
GR
GS
[0.75789 0 0 0.75789 0 0] CT
2 setlinecap
10.0 ML
2.639 LW
N
212.542 303.727 M
212.542 232.846 L
S
GR
GS
[0.75789 0 0 0.75789 0 0] CT
2 setlinecap
10.0 ML
2.639 LW
N
233.831 287.821 M
233.831 226.5 L
S
GR
GS
[0.75789 0 0 0.75789 0 0] CT
2 setlinecap
10.0 ML
2.639 LW
N
190.827 314.961 M
191.679 314.961 L
S
GR
GS
[0.75789 0 0 0.75789 0 0] CT
2 setlinecap
10.0 ML
2.639 LW
N
212.116 303.727 M
212.968 303.727 L
S
GR
GS
[0.75789 0 0 0.75789 0 0] CT
2 setlinecap
10.0 ML
2.639 LW
N
233.406 287.821 M
234.257 287.821 L
S
GR
GS
[0.75789 0 0 0.75789 0 0] CT
2 setlinecap
10.0 ML
2.639 LW
N
190.827 245.399 M
191.679 245.399 L
S
GR
GS
[0.75789 0 0 0.75789 0 0] CT
2 setlinecap
10.0 ML
2.639 LW
N
212.116 232.846 M
212.968 232.846 L
S
GR
GS
[0.75789 0 0 0.75789 0 0] CT
2 setlinecap
10.0 ML
2.639 LW
N
233.406 226.5 M
234.257 226.5 L
S
GR
GS
[0.75789 0 0 0.75789 144.94966 212.34683] CT
N
1.319 0 M
1.319 0.729 0.729 1.319 0 1.319 C
-0.729 1.319 -1.319 0.729 -1.319 0 C
-1.319 -0.729 -0.729 -1.319 0 -1.319 C
0.729 -1.319 1.319 -0.729 1.319 0 C
cp
f
GR
GS
[0.75789 0 0 0.75789 161.0846 203.33272] CT
N
1.319 0 M
1.319 0.729 0.729 1.319 0 1.319 C
-0.729 1.319 -1.319 0.729 -1.319 0 C
-1.319 -0.729 -0.729 -1.319 0 -1.319 C
0.729 -1.319 1.319 -0.729 1.319 0 C
cp
f
GR
GS
[0.75789 0 0 0.75789 177.21953 194.90063] CT
N
1.319 0 M
1.319 0.729 0.729 1.319 0 1.319 C
-0.729 1.319 -1.319 0.729 -1.319 0 C
-1.319 -0.729 -0.729 -1.319 0 -1.319 C
0.729 -1.319 1.319 -0.729 1.319 0 C
cp
f
GR
GS
[0.75789 0 0 0.75789 0 0] CT
1 0 0 RC
N
253.701 507 M
270.733 507 L
270.733 229.887 L
253.701 229.887 L
cp
f
GR
GS
[0.75789 0 0 0.75789 0 0] CT
1 0 0 RC
N
274.99 507 M
292.022 507 L
292.022 195.369 L
274.99 195.369 L
cp
f
GR
GS
[0.75789 0 0 0.75789 0 0] CT
1 0 0 RC
N
296.28 507 M
313.311 507 L
313.311 178.861 L
296.28 178.861 L
cp
f
GR
GS
[0.75789 0 0 0.75789 0 0] CT
2 setlinecap
10.0 ML
N
253.701 507 M
253.701 229.887 L
270.733 229.887 L
270.733 507 L
253.701 507 L
S
GR
GS
[0.75789 0 0 0.75789 0 0] CT
2 setlinecap
10.0 ML
N
274.99 507 M
274.99 195.369 L
292.022 195.369 L
292.022 507 L
274.99 507 L
S
GR
GS
[0.75789 0 0 0.75789 0 0] CT
2 setlinecap
10.0 ML
N
296.28 507 M
296.28 178.861 L
313.311 178.861 L
313.311 507 L
296.28 507 L
S
GR
GS
[0.75789 0 0 0.75789 0 0] CT
2 setlinecap
10.0 ML
2.639 LW
N
262.217 258.561 M
262.217 201.213 L
S
GR
GS
[0.75789 0 0 0.75789 0 0] CT
2 setlinecap
10.0 ML
2.639 LW
N
283.506 226.329 M
283.506 164.409 L
S
GR
GS
[0.75789 0 0 0.75789 0 0] CT
2 setlinecap
10.0 ML
2.639 LW
N
304.795 201.502 M
304.795 156.219 L
S
GR
GS
[0.75789 0 0 0.75789 0 0] CT
2 setlinecap
10.0 ML
2.639 LW
N
261.791 258.561 M
262.643 258.561 L
S
GR
GS
[0.75789 0 0 0.75789 0 0] CT
2 setlinecap
10.0 ML
2.639 LW
N
283.08 226.329 M
283.932 226.329 L
S
GR
GS
[0.75789 0 0 0.75789 0 0] CT
2 setlinecap
10.0 ML
2.639 LW
N
304.369 201.502 M
305.221 201.502 L
S
GR
GS
[0.75789 0 0 0.75789 0 0] CT
2 setlinecap
10.0 ML
2.639 LW
N
261.791 201.213 M
262.643 201.213 L
S
GR
GS
[0.75789 0 0 0.75789 0 0] CT
2 setlinecap
10.0 ML
2.639 LW
N
283.08 164.409 M
283.932 164.409 L
S
GR
GS
[0.75789 0 0 0.75789 0 0] CT
2 setlinecap
10.0 ML
2.639 LW
N
304.369 156.219 M
305.221 156.219 L
S
GR
GS
[0.75789 0 0 0.75789 198.73278 174.23003] CT
N
1.319 0 M
1.319 0.729 0.729 1.319 0 1.319 C
-0.729 1.319 -1.319 0.729 -1.319 0 C
-1.319 -0.729 -0.729 -1.319 0 -1.319 C
0.729 -1.319 1.319 -0.729 1.319 0 C
cp
f
GR
GS
[0.75789 0 0 0.75789 214.86771 148.06921] CT
N
1.319 0 M
1.319 0.729 0.729 1.319 0 1.319 C
-0.729 1.319 -1.319 0.729 -1.319 0 C
-1.319 -0.729 -0.729 -1.319 0 -1.319 C
0.729 -1.319 1.319 -0.729 1.319 0 C
cp
f
GR
GS
[0.75789 0 0 0.75789 231.00265 135.55765] CT
N
1.319 0 M
1.319 0.729 0.729 1.319 0 1.319 C
-0.729 1.319 -1.319 0.729 -1.319 0 C
-1.319 -0.729 -0.729 -1.319 0 -1.319 C
0.729 -1.319 1.319 -0.729 1.319 0 C
cp
f
GR
GS
[0.75789 0 0 0.75789 0 0] CT
0 1 0 RC
N
324.665 507 M
341.696 507 L
341.696 243.801 L
324.665 243.801 L
cp
f
GR
GS
[0.75789 0 0 0.75789 0 0] CT
0 1 0 RC
N
345.954 507 M
362.986 507 L
362.986 215.759 L
345.954 215.759 L
cp
f
GR
GS
[0.75789 0 0 0.75789 0 0] CT
0 1 0 RC
N
367.243 507 M
384.275 507 L
384.275 189.169 L
367.243 189.169 L
cp
f
GR
GS
[0.75789 0 0 0.75789 0 0] CT
2 setlinecap
10.0 ML
N
324.665 507 M
324.665 243.801 L
341.696 243.801 L
341.696 507 L
324.665 507 L
S
GR
GS
[0.75789 0 0 0.75789 0 0] CT
2 setlinecap
10.0 ML
N
345.954 507 M
345.954 215.759 L
362.986 215.759 L
362.986 507 L
345.954 507 L
S
GR
GS
[0.75789 0 0 0.75789 0 0] CT
2 setlinecap
10.0 ML
N
367.243 507 M
367.243 189.169 L
384.275 189.169 L
384.275 507 L
367.243 507 L
S
GR
GS
[0.75789 0 0 0.75789 0 0] CT
2 setlinecap
10.0 ML
2.639 LW
N
333.181 281.046 M
333.181 206.555 L
S
GR
GS
[0.75789 0 0 0.75789 0 0] CT
2 setlinecap
10.0 ML
2.639 LW
N
354.47 246.603 M
354.47 184.914 L
S
GR
GS
[0.75789 0 0 0.75789 0 0] CT
2 setlinecap
10.0 ML
2.639 LW
N
375.759 215.075 M
375.759 163.263 L
S
GR
GS
[0.75789 0 0 0.75789 0 0] CT
2 setlinecap
10.0 ML
2.639 LW
N
332.755 281.046 M
333.607 281.046 L
S
GR
GS
[0.75789 0 0 0.75789 0 0] CT
2 setlinecap
10.0 ML
2.639 LW
N
354.044 246.603 M
354.896 246.603 L
S
GR
GS
[0.75789 0 0 0.75789 0 0] CT
2 setlinecap
10.0 ML
2.639 LW
N
375.333 215.075 M
376.185 215.075 L
S
GR
GS
[0.75789 0 0 0.75789 0 0] CT
2 setlinecap
10.0 ML
2.639 LW
N
332.755 206.555 M
333.607 206.555 L
S
GR
GS
[0.75789 0 0 0.75789 0 0] CT
2 setlinecap
10.0 ML
2.639 LW
N
354.044 184.914 M
354.896 184.914 L
S
GR
GS
[0.75789 0 0 0.75789 0 0] CT
2 setlinecap
10.0 ML
2.639 LW
N
375.333 163.263 M
376.185 163.263 L
S
GR
GS
[0.75789 0 0 0.75789 252.51592 184.77527] CT
N
1.319 0 M
1.319 0.729 0.729 1.319 0 1.319 C
-0.729 1.319 -1.319 0.729 -1.319 0 C
-1.319 -0.729 -0.729 -1.319 0 -1.319 C
0.729 -1.319 1.319 -0.729 1.319 0 C
cp
f
GR
GS
[0.75789 0 0 0.75789 268.65086 163.52252] CT
N
1.319 0 M
1.319 0.729 0.729 1.319 0 1.319 C
-0.729 1.319 -1.319 0.729 -1.319 0 C
-1.319 -0.729 -0.729 -1.319 0 -1.319 C
0.729 -1.319 1.319 -0.729 1.319 0 C
cp
f
GR
GS
[0.75789 0 0 0.75789 284.78582 143.37043] CT
N
1.319 0 M
1.319 0.729 0.729 1.319 0 1.319 C
-0.729 1.319 -1.319 0.729 -1.319 0 C
-1.319 -0.729 -0.729 -1.319 0 -1.319 C
0.729 -1.319 1.319 -0.729 1.319 0 C
cp
f
GR
GS
[0.75789 0 0 0.75789 0 0] CT
1 1 0 RC
N
437.261 507 M
456.185 507 L
456.185 262.212 L
437.261 262.212 L
cp
f
GR
GS
[0.75789 0 0 0.75789 0 0] CT
2 setlinecap
10.0 ML
N
437.261 507 M
437.261 262.212 L
456.185 262.212 L
456.185 507 L
437.261 507 L
S
GR
GS
[0.75789 0 0 0.75789 0 0] CT
2 setlinecap
10.0 ML
2.639 LW
N
446.723 287.663 M
446.723 236.761 L
S
GR
GS
[0.75789 0 0 0.75789 0 0] CT
2 setlinecap
10.0 ML
2.639 LW
N
442.962 287.663 M
450.484 287.663 L
S
GR
GS
[0.75789 0 0 0.75789 0 0] CT
2 setlinecap
10.0 ML
2.639 LW
N
442.962 236.761 M
450.484 236.761 L
S
GR
GS
[0.75789 0 0 0.75789 338.56894 198.72894] CT
N
1.319 0 M
1.319 0.729 0.729 1.319 0 1.319 C
-0.729 1.319 -1.319 0.729 -1.319 0 C
-1.319 -0.729 -0.729 -1.319 0 -1.319 C
0.729 -1.319 1.319 -0.729 1.319 0 C
cp
f
GR
GS
[0.75789 0 0 0.75789 0 0] CT
0 0 1 RC
N
466.593 507 M
483.624 507 L
483.624 189.336 L
466.593 189.336 L
cp
f
GR
GS
[0.75789 0 0 0.75789 0 0] CT
0 0 1 RC
N
487.882 507 M
504.913 507 L
504.913 178.122 L
487.882 178.122 L
cp
f
GR
GS
[0.75789 0 0 0.75789 0 0] CT
0 0 1 RC
N
509.171 507 M
526.202 507 L
526.202 172.745 L
509.171 172.745 L
cp
f
GR
GS
[0.75789 0 0 0.75789 0 0] CT
2 setlinecap
10.0 ML
N
466.593 507 M
466.593 189.336 L
483.624 189.336 L
483.624 507 L
466.593 507 L
S
GR
GS
[0.75789 0 0 0.75789 0 0] CT
2 setlinecap
10.0 ML
N
487.882 507 M
487.882 178.122 L
504.913 178.122 L
504.913 507 L
487.882 507 L
S
GR
GS
[0.75789 0 0 0.75789 0 0] CT
2 setlinecap
10.0 ML
N
509.171 507 M
509.171 172.745 L
526.202 172.745 L
526.202 507 L
509.171 507 L
S
GR
GS
[0.75789 0 0 0.75789 0 0] CT
2 setlinecap
10.0 ML
2.639 LW
N
475.108 212.221 M
475.108 166.451 L
S
GR
GS
[0.75789 0 0 0.75789 0 0] CT
2 setlinecap
10.0 ML
2.639 LW
N
496.398 201.532 M
496.398 154.712 L
S
GR
GS
[0.75789 0 0 0.75789 0 0] CT
2 setlinecap
10.0 ML
2.639 LW
N
517.687 192.943 M
517.687 152.547 L
S
GR
GS
[0.75789 0 0 0.75789 0 0] CT
2 setlinecap
10.0 ML
2.639 LW
N
474.683 212.221 M
475.534 212.221 L
S
GR
GS
[0.75789 0 0 0.75789 0 0] CT
2 setlinecap
10.0 ML
2.639 LW
N
495.972 201.532 M
496.823 201.532 L
S
GR
GS
[0.75789 0 0 0.75789 0 0] CT
2 setlinecap
10.0 ML
2.639 LW
N
517.261 192.943 M
518.113 192.943 L
S
GR
GS
[0.75789 0 0 0.75789 0 0] CT
2 setlinecap
10.0 ML
2.639 LW
N
474.683 166.451 M
475.534 166.451 L
S
GR
GS
[0.75789 0 0 0.75789 0 0] CT
2 setlinecap
10.0 ML
2.639 LW
N
495.972 154.712 M
496.823 154.712 L
S
GR
GS
[0.75789 0 0 0.75789 0 0] CT
2 setlinecap
10.0 ML
2.639 LW
N
517.261 152.547 M
518.113 152.547 L
S
GR
GS
[0.75789 0 0 0.75789 360.08218 143.49646] CT
N
1.319 0 M
1.319 0.729 0.729 1.319 0 1.319 C
-0.729 1.319 -1.319 0.729 -1.319 0 C
-1.319 -0.729 -0.729 -1.319 0 -1.319 C
0.729 -1.319 1.319 -0.729 1.319 0 C
cp
f
GR
GS
[0.75789 0 0 0.75789 376.21712 134.99769] CT
N
1.319 0 M
1.319 0.729 0.729 1.319 0 1.319 C
-0.729 1.319 -1.319 0.729 -1.319 0 C
-1.319 -0.729 -0.729 -1.319 0 -1.319 C
0.729 -1.319 1.319 -0.729 1.319 0 C
cp
f
GR
GS
[0.75789 0 0 0.75789 392.35208 130.92256] CT
N
1.319 0 M
1.319 0.729 0.729 1.319 0 1.319 C
-0.729 1.319 -1.319 0.729 -1.319 0 C
-1.319 -0.729 -0.729 -1.319 0 -1.319 C
0.729 -1.319 1.319 -0.729 1.319 0 C
cp
f
GR
GS
[0.75789 0 0 0.75789 0 0] CT
1 0 0 RC
N
537.557 507 M
554.588 507 L
554.588 155.392 L
537.557 155.392 L
cp
f
GR
GS
[0.75789 0 0 0.75789 0 0] CT
1 0 0 RC
N
558.846 507 M
575.877 507 L
575.877 130.759 L
558.846 130.759 L
cp
f
GR
GS
[0.75789 0 0 0.75789 0 0] CT
1 0 0 RC
N
580.135 507 M
597.166 507 L
597.166 121.652 L
580.135 121.652 L
cp
f
GR
GS
[0.75789 0 0 0.75789 0 0] CT
2 setlinecap
10.0 ML
N
537.557 507 M
537.557 155.392 L
554.588 155.392 L
554.588 507 L
537.557 507 L
S
GR
GS
[0.75789 0 0 0.75789 0 0] CT
2 setlinecap
10.0 ML
N
558.846 507 M
558.846 130.759 L
575.877 130.759 L
575.877 507 L
558.846 507 L
S
GR
GS
[0.75789 0 0 0.75789 0 0] CT
2 setlinecap
10.0 ML
N
580.135 507 M
580.135 121.652 L
597.166 121.652 L
597.166 507 L
580.135 507 L
S
GR
GS
[0.75789 0 0 0.75789 0 0] CT
2 setlinecap
10.0 ML
2.639 LW
N
546.072 172.637 M
546.072 138.147 L
S
GR
GS
[0.75789 0 0 0.75789 0 0] CT
2 setlinecap
10.0 ML
2.639 LW
N
567.361 141.174 M
567.361 120.344 L
S
GR
GS
[0.75789 0 0 0.75789 0 0] CT
2 setlinecap
10.0 ML
2.639 LW
N
588.651 130.483 M
588.651 112.82 L
S
GR
GS
[0.75789 0 0 0.75789 0 0] CT
2 setlinecap
10.0 ML
2.639 LW
N
545.646 172.637 M
546.498 172.637 L
S
GR
GS
[0.75789 0 0 0.75789 0 0] CT
2 setlinecap
10.0 ML
2.639 LW
N
566.936 141.174 M
567.787 141.174 L
S
GR
GS
[0.75789 0 0 0.75789 0 0] CT
2 setlinecap
10.0 ML
2.639 LW
N
588.225 130.483 M
589.076 130.483 L
S
GR
GS
[0.75789 0 0 0.75789 0 0] CT
2 setlinecap
10.0 ML
2.639 LW
N
545.646 138.147 M
546.498 138.147 L
S
GR
GS
[0.75789 0 0 0.75789 0 0] CT
2 setlinecap
10.0 ML
2.639 LW
N
566.936 120.344 M
567.787 120.344 L
S
GR
GS
[0.75789 0 0 0.75789 0 0] CT
2 setlinecap
10.0 ML
2.639 LW
N
588.225 112.82 M
589.076 112.82 L
S
GR
GS
[0.75789 0 0 0.75789 413.8653 117.77099] CT
N
1.319 0 M
1.319 0.729 0.729 1.319 0 1.319 C
-0.729 1.319 -1.319 0.729 -1.319 0 C
-1.319 -0.729 -0.729 -1.319 0 -1.319 C
0.729 -1.319 1.319 -0.729 1.319 0 C
cp
f
GR
GS
[0.75789 0 0 0.75789 430.00026 99.10169] CT
N
1.319 0 M
1.319 0.729 0.729 1.319 0 1.319 C
-0.729 1.319 -1.319 0.729 -1.319 0 C
-1.319 -0.729 -0.729 -1.319 0 -1.319 C
0.729 -1.319 1.319 -0.729 1.319 0 C
cp
f
GR
GS
[0.75789 0 0 0.75789 446.13522 92.19909] CT
N
1.319 0 M
1.319 0.729 0.729 1.319 0 1.319 C
-0.729 1.319 -1.319 0.729 -1.319 0 C
-1.319 -0.729 -0.729 -1.319 0 -1.319 C
0.729 -1.319 1.319 -0.729 1.319 0 C
cp
f
GR
GS
[0.75789 0 0 0.75789 0 0] CT
0 1 0 RC
N
608.52 507 M
625.552 507 L
625.552 155.652 L
608.52 155.652 L
cp
f
GR
GS
[0.75789 0 0 0.75789 0 0] CT
0 1 0 RC
N
629.81 507 M
646.841 507 L
646.841 134.133 L
629.81 134.133 L
cp
f
GR
GS
[0.75789 0 0 0.75789 0 0] CT
0 1 0 RC
N
651.099 507 M
668.13 507 L
668.13 124.372 L
651.099 124.372 L
cp
f
GR
GS
[0.75789 0 0 0.75789 0 0] CT
2 setlinecap
10.0 ML
N
608.52 507 M
608.52 155.652 L
625.552 155.652 L
625.552 507 L
608.52 507 L
S
GR
GS
[0.75789 0 0 0.75789 0 0] CT
2 setlinecap
10.0 ML
N
629.81 507 M
629.81 134.133 L
646.841 134.133 L
646.841 507 L
629.81 507 L
S
GR
GS
[0.75789 0 0 0.75789 0 0] CT
2 setlinecap
10.0 ML
N
651.099 507 M
651.099 124.372 L
668.13 124.372 L
668.13 507 L
651.099 507 L
S
GR
GS
[0.75789 0 0 0.75789 0 0] CT
2 setlinecap
10.0 ML
2.639 LW
N
617.036 169.353 M
617.036 141.952 L
S
GR
GS
[0.75789 0 0 0.75789 0 0] CT
2 setlinecap
10.0 ML
2.639 LW
N
638.325 144.506 M
638.325 123.76 L
S
GR
GS
[0.75789 0 0 0.75789 0 0] CT
2 setlinecap
10.0 ML
2.639 LW
N
659.614 133.156 M
659.614 115.588 L
S
GR
GS
[0.75789 0 0 0.75789 0 0] CT
2 setlinecap
10.0 ML
2.639 LW
N
616.61 169.353 M
617.462 169.353 L
S
GR
GS
[0.75789 0 0 0.75789 0 0] CT
2 setlinecap
10.0 ML
2.639 LW
N
637.9 144.506 M
638.751 144.506 L
S
GR
GS
[0.75789 0 0 0.75789 0 0] CT
2 setlinecap
10.0 ML
2.639 LW
N
659.189 133.156 M
660.04 133.156 L
S
GR
GS
[0.75789 0 0 0.75789 0 0] CT
2 setlinecap
10.0 ML
2.639 LW
N
616.61 141.952 M
617.462 141.952 L
S
GR
GS
[0.75789 0 0 0.75789 0 0] CT
2 setlinecap
10.0 ML
2.639 LW
N
637.9 123.76 M
638.751 123.76 L
S
GR
GS
[0.75789 0 0 0.75789 0 0] CT
2 setlinecap
10.0 ML
2.639 LW
N
659.189 115.588 M
660.04 115.588 L
S
GR
GS
[0.75789 0 0 0.75789 467.64844 117.96813] CT
N
1.319 0 M
1.319 0.729 0.729 1.319 0 1.319 C
-0.729 1.319 -1.319 0.729 -1.319 0 C
-1.319 -0.729 -0.729 -1.319 0 -1.319 C
0.729 -1.319 1.319 -0.729 1.319 0 C
cp
f
GR
GS
[0.75789 0 0 0.75789 483.7834 101.65862] CT
N
1.319 0 M
1.319 0.729 0.729 1.319 0 1.319 C
-0.729 1.319 -1.319 0.729 -1.319 0 C
-1.319 -0.729 -0.729 -1.319 0 -1.319 C
0.729 -1.319 1.319 -0.729 1.319 0 C
cp
f
GR
GS
[0.75789 0 0 0.75789 499.91831 94.26089] CT
N
1.319 0 M
1.319 0.729 0.729 1.319 0 1.319 C
-0.729 1.319 -1.319 0.729 -1.319 0 C
-1.319 -0.729 -0.729 -1.319 0 -1.319 C
0.729 -1.319 1.319 -0.729 1.319 0 C
cp
f
GR
GS
[0.75789 0 0 0.75789 101.92315 158.18345] CT
/Helvetica 24 F
GS
[1 0 0 1 0 0] CT
0 8.5 moveto 
1 -1 scale
(letter DNN) t 
GR
GR
GS
[0.75789 0 0 0.75789 349.32554 70.26767] CT
/Helvetica 24 F
GS
[1 0 0 1 0 0] CT
0 8.5 moveto 
1 -1 scale
(phon. feature DNN) t 
GR
GR
GS
[0.75789 0 0 0.75789 0 0] CT
0.149 GC
2 setlinecap
10.0 ML
N
99 507 M
688 507 L
S
GR
GS
[0.75789 0 0 0.75789 114.91628 46.34411] CT
/Helvetica 19 F
GS
[1 0 0 1 0 0] CT
0 6.5 moveto 
1 -1 scale
(No Adapt.) t 
GR
GR
GS
[0.75789 0 0 0.75789 0 0] CT
1 1 0 RC
N
107.942 70.025 M
107.942 52.272 L
147.654 52.272 L
147.654 70.025 L
cp
f
GR
GS
[0.75789 0 0 0.75789 0 0] CT
2 setlinecap
10.0 ML
N
107.942 70.025 M
107.942 52.272 L
147.654 52.272 L
147.654 70.025 L
107.942 70.025 L
S
GR
GS
[0.75789 0 0 0.75789 114.91628 64.28785] CT
/Helvetica 19 F
GS
[1 0 0 1 0 0] CT
0 6.5 moveto 
1 -1 scale
(Speed Norm.) t 
GR
GR
GS
[0.75789 0 0 0.75789 0 0] CT
0 1 1 RC
N
107.942 93.7 M
107.942 75.948 L
147.654 75.948 L
147.654 93.7 L
cp
f
GR
GS
[0.75789 0 0 0.75789 0 0] CT
2 setlinecap
10.0 ML
N
107.942 93.7 M
107.942 75.948 L
147.654 75.948 L
147.654 93.7 L
107.942 93.7 L
S
GR
GS
[0.75789 0 0 0.75789 114.91628 82.23158] CT
/Helvetica 19 F
GS
[1 0 0 1 0 0] CT
0 6.5 moveto 
1 -1 scale
(LIN+UP FA) t 
GR
GR
GS
[0.75789 0 0 0.75789 0 0] CT
0 0 1 RC
N
107.942 117.376 M
107.942 99.624 L
147.654 99.624 L
147.654 117.376 L
cp
f
GR
GS
[0.75789 0 0 0.75789 0 0] CT
2 setlinecap
10.0 ML
N
107.942 117.376 M
107.942 99.624 L
147.654 99.624 L
147.654 117.376 L
107.942 117.376 L
S
GR
GS
[0.75789 0 0 0.75789 114.91628 100.17532] CT
/Helvetica 19 F
GS
[1 0 0 1 0 0] CT
0 6.5 moveto 
1 -1 scale
(LIN+UP GT) t 
GR
GR
GS
[0.75789 0 0 0.75789 0 0] CT
1 0 0 RC
N
107.942 141.052 M
107.942 123.3 L
147.654 123.3 L
147.654 141.052 L
cp
f
GR
GS
[0.75789 0 0 0.75789 0 0] CT
2 setlinecap
10.0 ML
N
107.942 141.052 M
107.942 123.3 L
147.654 123.3 L
147.654 141.052 L
107.942 141.052 L
S
GR
GS
[0.75789 0 0 0.75789 114.91628 118.11906] CT
/Helvetica 19 F
GS
[1 0 0 1 0 0] CT
0 6.5 moveto 
1 -1 scale
(LIN+LON GT) t 
GR
GR
GS
[0.75789 0 0 0.75789 0 0] CT
0 1 0 RC
N
107.942 164.728 M
107.942 146.975 L
147.654 146.975 L
147.654 164.728 L
cp
f
GR
GS
[0.75789 0 0 0.75789 0 0] CT
2 setlinecap
10.0 ML
N
107.942 164.728 M
107.942 146.975 L
147.654 146.975 L
147.654 164.728 L
107.942 164.728 L
S
GR
%%Trailer
%%BoundingBox: 25 23 521 399
%%Pages: 1
%%EOF
