%!PS-Adobe-3.0 EPSF-3.0
%%Creator: (MATLAB, The Mathworks, Inc. Version 8.6.0.267246 \(R2015b\). Operating System: Mac OS X)
%%Title: ./adapt_fer_ph_fe.eps
%%CreationDate: 2016-04-25T19:14:39
%%Pages: (atend)
%%BoundingBox:    29    26   522   408
%%LanguageLevel: 3
%%EndComments
%%BeginProlog
%%BeginResource: procset (Apache XML Graphics Std ProcSet) 1.2 0
%%Version: 1.2 0
%%Copyright: (Copyright 2001-2003,2010 The Apache Software Foundation. License terms: http://www.apache.org/licenses/LICENSE-2.0)
/bd{bind def}bind def
/ld{load def}bd
/GR/grestore ld
/M/moveto ld
/LJ/setlinejoin ld
/C/curveto ld
/f/fill ld
/LW/setlinewidth ld
/GC/setgray ld
/t/show ld
/N/newpath ld
/CT/concat ld
/cp/closepath ld
/S/stroke ld
/L/lineto ld
/CC/setcmykcolor ld
/A/ashow ld
/GS/gsave ld
/RC/setrgbcolor ld
/RM/rmoveto ld
/ML/setmiterlimit ld
/re {4 2 roll M
1 index 0 rlineto
0 exch rlineto
neg 0 rlineto
cp } bd
/_ctm matrix def
/_tm matrix def
/BT { _ctm currentmatrix pop matrix _tm copy pop 0 0 moveto } bd
/ET { _ctm setmatrix } bd
/iTm { _ctm setmatrix _tm concat } bd
/Tm { _tm astore pop iTm 0 0 moveto } bd
/ux 0.0 def
/uy 0.0 def
/F {
  /Tp exch def
  /Tf exch def
  Tf findfont Tp scalefont setfont
  /cf Tf def  /cs Tp def
} bd
/ULS {currentpoint /uy exch def /ux exch def} bd
/ULE {
  /Tcx currentpoint pop def
  gsave
  newpath
  cf findfont cs scalefont dup
  /FontMatrix get 0 get /Ts exch def /FontInfo get dup
  /UnderlinePosition get Ts mul /To exch def
  /UnderlineThickness get Ts mul /Tt exch def
  ux uy To add moveto  Tcx uy To add lineto
  Tt setlinewidth stroke
  grestore
} bd
/OLE {
  /Tcx currentpoint pop def
  gsave
  newpath
  cf findfont cs scalefont dup
  /FontMatrix get 0 get /Ts exch def /FontInfo get dup
  /UnderlinePosition get Ts mul /To exch def
  /UnderlineThickness get Ts mul /Tt exch def
  ux uy To add cs add moveto Tcx uy To add cs add lineto
  Tt setlinewidth stroke
  grestore
} bd
/SOE {
  /Tcx currentpoint pop def
  gsave
  newpath
  cf findfont cs scalefont dup
  /FontMatrix get 0 get /Ts exch def /FontInfo get dup
  /UnderlinePosition get Ts mul /To exch def
  /UnderlineThickness get Ts mul /Tt exch def
  ux uy To add cs 10 mul 26 idiv add moveto Tcx uy To add cs 10 mul 26 idiv add lineto
  Tt setlinewidth stroke
  grestore
} bd
/QT {
/Y22 exch store
/X22 exch store
/Y21 exch store
/X21 exch store
currentpoint
/Y21 load 2 mul add 3 div exch
/X21 load 2 mul add 3 div exch
/X21 load 2 mul /X22 load add 3 div
/Y21 load 2 mul /Y22 load add 3 div
/X22 load /Y22 load curveto
} bd
/SSPD {
dup length /d exch dict def
{
/v exch def
/k exch def
currentpagedevice k known {
/cpdv currentpagedevice k get def
v cpdv ne {
/upd false def
/nullv v type /nulltype eq def
/nullcpdv cpdv type /nulltype eq def
nullv nullcpdv or
{
/upd true def
} {
/sametype v type cpdv type eq def
sametype {
v type /arraytype eq {
/vlen v length def
/cpdvlen cpdv length def
vlen cpdvlen eq {
0 1 vlen 1 sub {
/i exch def
/obj v i get def
/cpdobj cpdv i get def
obj cpdobj ne {
/upd true def
exit
} if
} for
} {
/upd true def
} ifelse
} {
v type /dicttype eq {
v {
/dv exch def
/dk exch def
/cpddv cpdv dk get def
dv cpddv ne {
/upd true def
exit
} if
} forall
} {
/upd true def
} ifelse
} ifelse
} if
} ifelse
upd true eq {
d k v put
} if
} if
} if
} forall
d length 0 gt {
d setpagedevice
} if
} bd
%%EndResource
%%BeginResource: procset (Apache XML Graphics EPS ProcSet) 1.0 0
%%Version: 1.0 0
%%Copyright: (Copyright 2002-2003 The Apache Software Foundation. License terms: http://www.apache.org/licenses/LICENSE-2.0)
/BeginEPSF { %def
/b4_Inc_state save def         % Save state for cleanup
/dict_count countdictstack def % Count objects on dict stack
/op_count count 1 sub def      % Count objects on operand stack
userdict begin                 % Push userdict on dict stack
/showpage { } def              % Redefine showpage, { } = null proc
0 setgray 0 setlinecap         % Prepare graphics state
1 setlinewidth 0 setlinejoin
10 setmiterlimit [ ] 0 setdash newpath
/languagelevel where           % If level not equal to 1 then
{pop languagelevel             % set strokeadjust and
1 ne                           % overprint to their defaults.
{false setstrokeadjust false setoverprint
} if
} if
} bd
/EndEPSF { %def
count op_count sub {pop} repeat            % Clean up stacks
countdictstack dict_count sub {end} repeat
b4_Inc_state restore
} bd
%%EndResource
%FOPBeginFontDict
%%IncludeResource: font Courier-Bold
%%IncludeResource: font Helvetica
%%IncludeResource: font Courier-BoldOblique
%%IncludeResource: font Courier-Oblique
%%IncludeResource: font Times-Roman
%%IncludeResource: font Helvetica-BoldOblique
%%IncludeResource: font Helvetica-Bold
%%IncludeResource: font Helvetica-Oblique
%%IncludeResource: font Times-BoldItalic
%%IncludeResource: font Courier
%%IncludeResource: font Times-Italic
%%IncludeResource: font Times-Bold
%%IncludeResource: font Symbol
%%IncludeResource: font ZapfDingbats
%FOPEndFontDict
%%BeginResource: encoding WinAnsiEncoding
/WinAnsiEncoding [
/.notdef /.notdef /.notdef /.notdef /.notdef
/.notdef /.notdef /.notdef /.notdef /.notdef
/.notdef /.notdef /.notdef /.notdef /.notdef
/.notdef /.notdef /.notdef /.notdef /.notdef
/.notdef /.notdef /.notdef /.notdef /.notdef
/.notdef /.notdef /.notdef /.notdef /.notdef
/.notdef /.notdef /space /exclam /quotedbl
/numbersign /dollar /percent /ampersand /quotesingle
/parenleft /parenright /asterisk /plus /comma
/hyphen /period /slash /zero /one
/two /three /four /five /six
/seven /eight /nine /colon /semicolon
/less /equal /greater /question /at
/A /B /C /D /E
/F /G /H /I /J
/K /L /M /N /O
/P /Q /R /S /T
/U /V /W /X /Y
/Z /bracketleft /backslash /bracketright /asciicircum
/underscore /quoteleft /a /b /c
/d /e /f /g /h
/i /j /k /l /m
/n /o /p /q /r
/s /t /u /v /w
/x /y /z /braceleft /bar
/braceright /asciitilde /bullet /Euro /bullet
/quotesinglbase /florin /quotedblbase /ellipsis /dagger
/daggerdbl /circumflex /perthousand /Scaron /guilsinglleft
/OE /bullet /Zcaron /bullet /bullet
/quoteleft /quoteright /quotedblleft /quotedblright /bullet
/endash /emdash /asciitilde /trademark /scaron
/guilsinglright /oe /bullet /zcaron /Ydieresis
/space /exclamdown /cent /sterling /currency
/yen /brokenbar /section /dieresis /copyright
/ordfeminine /guillemotleft /logicalnot /sfthyphen /registered
/macron /degree /plusminus /twosuperior /threesuperior
/acute /mu /paragraph /middot /cedilla
/onesuperior /ordmasculine /guillemotright /onequarter /onehalf
/threequarters /questiondown /Agrave /Aacute /Acircumflex
/Atilde /Adieresis /Aring /AE /Ccedilla
/Egrave /Eacute /Ecircumflex /Edieresis /Igrave
/Iacute /Icircumflex /Idieresis /Eth /Ntilde
/Ograve /Oacute /Ocircumflex /Otilde /Odieresis
/multiply /Oslash /Ugrave /Uacute /Ucircumflex
/Udieresis /Yacute /Thorn /germandbls /agrave
/aacute /acircumflex /atilde /adieresis /aring
/ae /ccedilla /egrave /eacute /ecircumflex
/edieresis /igrave /iacute /icircumflex /idieresis
/eth /ntilde /ograve /oacute /ocircumflex
/otilde /odieresis /divide /oslash /ugrave
/uacute /ucircumflex /udieresis /yacute /thorn
/ydieresis
] def
%%EndResource
%FOPBeginFontReencode
/Courier-Bold findfont
dup length dict begin
  {1 index /FID ne {def} {pop pop} ifelse} forall
  /Encoding WinAnsiEncoding def
  currentdict
end
/Courier-Bold exch definefont pop
/Helvetica findfont
dup length dict begin
  {1 index /FID ne {def} {pop pop} ifelse} forall
  /Encoding WinAnsiEncoding def
  currentdict
end
/Helvetica exch definefont pop
/Courier-BoldOblique findfont
dup length dict begin
  {1 index /FID ne {def} {pop pop} ifelse} forall
  /Encoding WinAnsiEncoding def
  currentdict
end
/Courier-BoldOblique exch definefont pop
/Courier-Oblique findfont
dup length dict begin
  {1 index /FID ne {def} {pop pop} ifelse} forall
  /Encoding WinAnsiEncoding def
  currentdict
end
/Courier-Oblique exch definefont pop
/Times-Roman findfont
dup length dict begin
  {1 index /FID ne {def} {pop pop} ifelse} forall
  /Encoding WinAnsiEncoding def
  currentdict
end
/Times-Roman exch definefont pop
/Helvetica-BoldOblique findfont
dup length dict begin
  {1 index /FID ne {def} {pop pop} ifelse} forall
  /Encoding WinAnsiEncoding def
  currentdict
end
/Helvetica-BoldOblique exch definefont pop
/Helvetica-Bold findfont
dup length dict begin
  {1 index /FID ne {def} {pop pop} ifelse} forall
  /Encoding WinAnsiEncoding def
  currentdict
end
/Helvetica-Bold exch definefont pop
/Helvetica-Oblique findfont
dup length dict begin
  {1 index /FID ne {def} {pop pop} ifelse} forall
  /Encoding WinAnsiEncoding def
  currentdict
end
/Helvetica-Oblique exch definefont pop
/Times-BoldItalic findfont
dup length dict begin
  {1 index /FID ne {def} {pop pop} ifelse} forall
  /Encoding WinAnsiEncoding def
  currentdict
end
/Times-BoldItalic exch definefont pop
/Courier findfont
dup length dict begin
  {1 index /FID ne {def} {pop pop} ifelse} forall
  /Encoding WinAnsiEncoding def
  currentdict
end
/Courier exch definefont pop
/Times-Italic findfont
dup length dict begin
  {1 index /FID ne {def} {pop pop} ifelse} forall
  /Encoding WinAnsiEncoding def
  currentdict
end
/Times-Italic exch definefont pop
/Times-Bold findfont
dup length dict begin
  {1 index /FID ne {def} {pop pop} ifelse} forall
  /Encoding WinAnsiEncoding def
  currentdict
end
/Times-Bold exch definefont pop
%FOPEndFontReencode
%%EndProlog
%%Page: 1 1
%%PageBoundingBox: 0 0 576 432
%%BeginPageSetup
[1 0 0 -1 0 432] CT
%%EndPageSetup
GS
1 GC
N
0 0 576 432 re
f
GR
GS
1 GC
N
0 0 576 432 re
f
GR
GS
1 GC
N
75 384 M
521 384 L
521 32 L
75 32 L
cp
f
GR
GS
0.149 GC
2 setlinecap
1 LJ
0.5 LW
N
75 384 M
521 384 L
S
GR
GS
0.149 GC
2 setlinecap
1 LJ
0.5 LW
N
75 32 M
521 32 L
S
GR
GS
0.149 GC
2 setlinecap
1 LJ
0.5 LW
N
123.361 384 M
123.361 379.54 L
S
GR
GS
0.149 GC
2 setlinecap
1 LJ
0.5 LW
N
144.855 384 M
144.855 379.54 L
S
GR
GS
0.149 GC
2 setlinecap
1 LJ
0.5 LW
N
160.976 384 M
160.976 379.54 L
S
GR
GS
0.149 GC
2 setlinecap
1 LJ
0.5 LW
N
177.096 384 M
177.096 379.54 L
S
GR
GS
0.149 GC
2 setlinecap
1 LJ
0.5 LW
N
198.59 384 M
198.59 379.54 L
S
GR
GS
0.149 GC
2 setlinecap
1 LJ
0.5 LW
N
214.711 384 M
214.711 379.54 L
S
GR
GS
0.149 GC
2 setlinecap
1 LJ
0.5 LW
N
230.831 384 M
230.831 379.54 L
S
GR
GS
0.149 GC
2 setlinecap
1 LJ
0.5 LW
N
252.325 384 M
252.325 379.54 L
S
GR
GS
0.149 GC
2 setlinecap
1 LJ
0.5 LW
N
268.446 384 M
268.446 379.54 L
S
GR
GS
0.149 GC
2 setlinecap
1 LJ
0.5 LW
N
284.566 384 M
284.566 379.54 L
S
GR
GS
0.149 GC
2 setlinecap
1 LJ
0.5 LW
N
306.06 384 M
306.06 379.54 L
S
GR
GS
0.149 GC
2 setlinecap
1 LJ
0.5 LW
N
322.181 384 M
322.181 379.54 L
S
GR
GS
0.149 GC
2 setlinecap
1 LJ
0.5 LW
N
338.301 384 M
338.301 379.54 L
S
GR
GS
0.149 GC
2 setlinecap
1 LJ
0.5 LW
N
359.795 384 M
359.795 379.54 L
S
GR
GS
0.149 GC
2 setlinecap
1 LJ
0.5 LW
N
375.916 384 M
375.916 379.54 L
S
GR
GS
0.149 GC
2 setlinecap
1 LJ
0.5 LW
N
392.036 384 M
392.036 379.54 L
S
GR
GS
0.149 GC
2 setlinecap
1 LJ
0.5 LW
N
413.53 384 M
413.53 379.54 L
S
GR
GS
0.149 GC
2 setlinecap
1 LJ
0.5 LW
N
429.651 384 M
429.651 379.54 L
S
GR
GS
0.149 GC
2 setlinecap
1 LJ
0.5 LW
N
445.771 384 M
445.771 379.54 L
S
GR
GS
0.149 GC
2 setlinecap
1 LJ
0.5 LW
N
467.265 384 M
467.265 379.54 L
S
GR
GS
0.149 GC
2 setlinecap
1 LJ
0.5 LW
N
488.759 384 M
488.759 379.54 L
S
GR
GS
0.149 GC
2 setlinecap
1 LJ
0.5 LW
N
123.361 32 M
123.361 36.46 L
S
GR
GS
0.149 GC
2 setlinecap
1 LJ
0.5 LW
N
144.855 32 M
144.855 36.46 L
S
GR
GS
0.149 GC
2 setlinecap
1 LJ
0.5 LW
N
160.976 32 M
160.976 36.46 L
S
GR
GS
0.149 GC
2 setlinecap
1 LJ
0.5 LW
N
177.096 32 M
177.096 36.46 L
S
GR
GS
0.149 GC
2 setlinecap
1 LJ
0.5 LW
N
198.59 32 M
198.59 36.46 L
S
GR
GS
0.149 GC
2 setlinecap
1 LJ
0.5 LW
N
214.711 32 M
214.711 36.46 L
S
GR
GS
0.149 GC
2 setlinecap
1 LJ
0.5 LW
N
230.831 32 M
230.831 36.46 L
S
GR
GS
0.149 GC
2 setlinecap
1 LJ
0.5 LW
N
252.325 32 M
252.325 36.46 L
S
GR
GS
0.149 GC
2 setlinecap
1 LJ
0.5 LW
N
268.446 32 M
268.446 36.46 L
S
GR
GS
0.149 GC
2 setlinecap
1 LJ
0.5 LW
N
284.566 32 M
284.566 36.46 L
S
GR
GS
0.149 GC
2 setlinecap
1 LJ
0.5 LW
N
306.06 32 M
306.06 36.46 L
S
GR
GS
0.149 GC
2 setlinecap
1 LJ
0.5 LW
N
322.181 32 M
322.181 36.46 L
S
GR
GS
0.149 GC
2 setlinecap
1 LJ
0.5 LW
N
338.301 32 M
338.301 36.46 L
S
GR
GS
0.149 GC
2 setlinecap
1 LJ
0.5 LW
N
359.795 32 M
359.795 36.46 L
S
GR
GS
0.149 GC
2 setlinecap
1 LJ
0.5 LW
N
375.916 32 M
375.916 36.46 L
S
GR
GS
0.149 GC
2 setlinecap
1 LJ
0.5 LW
N
392.036 32 M
392.036 36.46 L
S
GR
GS
0.149 GC
2 setlinecap
1 LJ
0.5 LW
N
413.53 32 M
413.53 36.46 L
S
GR
GS
0.149 GC
2 setlinecap
1 LJ
0.5 LW
N
429.651 32 M
429.651 36.46 L
S
GR
GS
0.149 GC
2 setlinecap
1 LJ
0.5 LW
N
445.771 32 M
445.771 36.46 L
S
GR
GS
0.149 GC
2 setlinecap
1 LJ
0.5 LW
N
467.265 32 M
467.265 36.46 L
S
GR
GS
0.149 GC
2 setlinecap
1 LJ
0.5 LW
N
488.759 32 M
488.759 36.46 L
S
GR
GS
[1 0 0 1 123.36144 389.20001] CT
0.149 GC
/Helvetica 16 F
GS
[1 0 0 1 0 0] CT
-4.5 13 moveto 
1 -1 scale
(0) t 
GR
GR
GS
[1 0 0 1 144.85542 389.20001] CT
0.149 GC
/Helvetica 16 F
GS
[1 0 0 1 0 0] CT
-4.5 13 moveto 
1 -1 scale
(1) t 
GR
GR
GS
[1 0 0 1 160.97591 389.20001] CT
0.149 GC
/Helvetica 16 F
GS
[1 0 0 1 0 0] CT
-4.5 13 moveto 
1 -1 scale
(2) t 
GR
GR
GS
[1 0 0 1 177.09639 389.20001] CT
0.149 GC
/Helvetica 16 F
GS
[1 0 0 1 0 0] CT
-4.5 13 moveto 
1 -1 scale
(3) t 
GR
GR
GS
[1 0 0 1 198.59036 389.20001] CT
0.149 GC
/Helvetica 16 F
GS
[1 0 0 1 0 0] CT
-4.5 13 moveto 
1 -1 scale
(1) t 
GR
GR
GS
[1 0 0 1 214.71085 389.20001] CT
0.149 GC
/Helvetica 16 F
GS
[1 0 0 1 0 0] CT
-4.5 13 moveto 
1 -1 scale
(2) t 
GR
GR
GS
[1 0 0 1 230.83133 389.20001] CT
0.149 GC
/Helvetica 16 F
GS
[1 0 0 1 0 0] CT
-4.5 13 moveto 
1 -1 scale
(3) t 
GR
GR
GS
[1 0 0 1 252.3253 389.20001] CT
0.149 GC
/Helvetica 16 F
GS
[1 0 0 1 0 0] CT
-4.5 13 moveto 
1 -1 scale
(1) t 
GR
GR
GS
[1 0 0 1 268.44577 389.20001] CT
0.149 GC
/Helvetica 16 F
GS
[1 0 0 1 0 0] CT
-4.5 13 moveto 
1 -1 scale
(2) t 
GR
GR
GS
[1 0 0 1 284.56628 389.20001] CT
0.149 GC
/Helvetica 16 F
GS
[1 0 0 1 0 0] CT
-4.5 13 moveto 
1 -1 scale
(3) t 
GR
GR
GS
[1 0 0 1 306.06024 389.20001] CT
0.149 GC
/Helvetica 16 F
GS
[1 0 0 1 0 0] CT
-4.5 13 moveto 
1 -1 scale
(1) t 
GR
GR
GS
[1 0 0 1 322.18073 389.20001] CT
0.149 GC
/Helvetica 16 F
GS
[1 0 0 1 0 0] CT
-4.5 13 moveto 
1 -1 scale
(2) t 
GR
GR
GS
[1 0 0 1 338.30121 389.20001] CT
0.149 GC
/Helvetica 16 F
GS
[1 0 0 1 0 0] CT
-4.5 13 moveto 
1 -1 scale
(3) t 
GR
GR
GS
[1 0 0 1 359.79517 389.20001] CT
0.149 GC
/Helvetica 16 F
GS
[1 0 0 1 0 0] CT
-4.5 13 moveto 
1 -1 scale
(1) t 
GR
GR
GS
[1 0 0 1 375.91565 389.20001] CT
0.149 GC
/Helvetica 16 F
GS
[1 0 0 1 0 0] CT
-4.5 13 moveto 
1 -1 scale
(2) t 
GR
GR
GS
[1 0 0 1 392.03616 389.20001] CT
0.149 GC
/Helvetica 16 F
GS
[1 0 0 1 0 0] CT
-4.5 13 moveto 
1 -1 scale
(3) t 
GR
GR
GS
[1 0 0 1 413.53012 389.20001] CT
0.149 GC
/Helvetica 16 F
GS
[1 0 0 1 0 0] CT
-4.5 13 moveto 
1 -1 scale
(1) t 
GR
GR
GS
[1 0 0 1 429.6506 389.20001] CT
0.149 GC
/Helvetica 16 F
GS
[1 0 0 1 0 0] CT
-4.5 13 moveto 
1 -1 scale
(2) t 
GR
GR
GS
[1 0 0 1 445.77109 389.20001] CT
0.149 GC
/Helvetica 16 F
GS
[1 0 0 1 0 0] CT
-4.5 13 moveto 
1 -1 scale
(3) t 
GR
GR
GS
[1 0 0 1 467.26505 389.20001] CT
0.149 GC
/Helvetica 16 F
GS
[1 0 0 1 0 0] CT
-4.5 13 moveto 
1 -1 scale
(3) t 
GR
GR
GS
[1 0 0 1 488.75906 389.20001] CT
0.149 GC
/Helvetica 16 F
GS
[1 0 0 1 0 0] CT
-9 13 moveto 
1 -1 scale
(All) t 
GR
GR
GS
0.149 GC
2 setlinecap
1 LJ
0.5 LW
N
75 384 M
75 32 L
S
GR
GS
0.149 GC
2 setlinecap
1 LJ
0.5 LW
N
521 384 M
521 32 L
S
GR
GS
0.149 GC
2 setlinecap
1 LJ
0.5 LW
N
75 384 M
79.46 384 L
S
GR
GS
0.149 GC
2 setlinecap
1 LJ
0.5 LW
N
75 325.333 M
79.46 325.333 L
S
GR
GS
0.149 GC
2 setlinecap
1 LJ
0.5 LW
N
75 266.667 M
79.46 266.667 L
S
GR
GS
0.149 GC
2 setlinecap
1 LJ
0.5 LW
N
75 208 M
79.46 208 L
S
GR
GS
0.149 GC
2 setlinecap
1 LJ
0.5 LW
N
75 149.333 M
79.46 149.333 L
S
GR
GS
0.149 GC
2 setlinecap
1 LJ
0.5 LW
N
75 90.667 M
79.46 90.667 L
S
GR
GS
0.149 GC
2 setlinecap
1 LJ
0.5 LW
N
75 32 M
79.46 32 L
S
GR
GS
0.149 GC
2 setlinecap
1 LJ
0.5 LW
N
521 384 M
516.54 384 L
S
GR
GS
0.149 GC
2 setlinecap
1 LJ
0.5 LW
N
521 325.333 M
516.54 325.333 L
S
GR
GS
0.149 GC
2 setlinecap
1 LJ
0.5 LW
N
521 266.667 M
516.54 266.667 L
S
GR
GS
0.149 GC
2 setlinecap
1 LJ
0.5 LW
N
521 208 M
516.54 208 L
S
GR
GS
0.149 GC
2 setlinecap
1 LJ
0.5 LW
N
521 149.333 M
516.54 149.333 L
S
GR
GS
0.149 GC
2 setlinecap
1 LJ
0.5 LW
N
521 90.667 M
516.54 90.667 L
S
GR
GS
0.149 GC
2 setlinecap
1 LJ
0.5 LW
N
521 32 M
516.54 32 L
S
GR
GS
[1 0 0 1 69.8 384] CT
0.149 GC
/Helvetica 16 F
GS
[1 0 0 1 0 0] CT
-9 4.5 moveto 
1 -1 scale
(0) t 
GR
GR
GS
[1 0 0 1 69.8 325.33334] CT
0.149 GC
/Helvetica 16 F
GS
[1 0 0 1 0 0] CT
-9 4.5 moveto 
1 -1 scale
(5) t 
GR
GR
GS
[1 0 0 1 69.8 266.66666] CT
0.149 GC
/Helvetica 16 F
GS
[1 0 0 1 0 0] CT
-18 4.5 moveto 
1 -1 scale
(10) t 
GR
GR
GS
[1 0 0 1 69.8 208] CT
0.149 GC
/Helvetica 16 F
GS
[1 0 0 1 0 0] CT
-18 4.5 moveto 
1 -1 scale
(15) t 
GR
GR
GS
[1 0 0 1 69.8 149.33333] CT
0.149 GC
/Helvetica 16 F
GS
[1 0 0 1 0 0] CT
-18 4.5 moveto 
1 -1 scale
(20) t 
GR
GR
GS
[1 0 0 1 69.8 90.66666] CT
0.149 GC
/Helvetica 16 F
GS
[1 0 0 1 0 0] CT
-18 4.5 moveto 
1 -1 scale
(25) t 
GR
GR
GS
[1 0 0 1 69.8 32] CT
0.149 GC
/Helvetica 16 F
GS
[1 0 0 1 0 0] CT
-18 4.5 moveto 
1 -1 scale
(30) t 
GR
GR
GS
[0 -1 1 0 48.8 207.99983] CT
0.149 GC
/Helvetica 18 F
GS
[1 0 0 1 0 0] CT
-82.5 -5 moveto 
1 -1 scale
(Frame error rate \(%\)) t 
GR
GR
GS
0.149 GC
1 LJ
0.5 LW
N
75 384 M
521 384 L
S
GR
GS
1 1 0 RC
N
116.197 384 M
130.526 384 L
130.526 139.449 L
116.197 139.449 L
cp
f
GR
GS
10.0 ML
0.5 LW
N
116.197 384 M
116.197 139.449 L
130.526 139.449 L
130.526 384 L
cp
S
GR
GS
1 LJ
2 LW
N
123.361 166.48 M
123.361 112.418 L
S
GR
GS
1 LJ
2 LW
N
122.663 166.48 M
124.06 166.48 L
S
GR
GS
1 LJ
2 LW
N
122.663 112.418 M
124.06 112.418 L
S
GR
GS
[1 0 0 1 123.36144 139.44864] CT
N
1 0 M
1 0.552 0.552 1 0 1 C
-0.552 1 -1 0.552 -1 0 C
-1 -0.552 -0.552 -1 0 -1 C
0.552 -1 1 -0.552 1 0 C
cp
f
GR
GS
0.502 0.502 0 RC
N
138.407 384 M
151.304 384 L
151.304 176.318 L
138.407 176.318 L
cp
f
GR
GS
0.502 0.502 0 RC
N
154.528 384 M
167.424 384 L
167.424 209.234 L
154.528 209.234 L
cp
f
GR
GS
0.502 0.502 0 RC
N
170.648 384 M
183.545 384 L
183.545 223.817 L
170.648 223.817 L
cp
f
GR
GS
10.0 ML
0.5 LW
N
138.407 384 M
138.407 176.318 L
151.304 176.318 L
151.304 384 L
cp
S
GR
GS
10.0 ML
0.5 LW
N
154.528 384 M
154.528 209.234 L
167.424 209.234 L
167.424 384 L
cp
S
GR
GS
10.0 ML
0.5 LW
N
170.648 384 M
170.648 223.817 L
183.545 223.817 L
183.545 384 L
cp
S
GR
GS
1 LJ
2 LW
N
144.855 230.969 M
144.855 121.668 L
S
GR
GS
1 LJ
2 LW
N
160.976 241.331 M
160.976 177.138 L
S
GR
GS
1 LJ
2 LW
N
177.096 247.532 M
177.096 200.102 L
S
GR
GS
1 LJ
2 LW
N
144.533 230.969 M
145.178 230.969 L
S
GR
GS
1 LJ
2 LW
N
160.653 241.331 M
161.298 241.331 L
S
GR
GS
1 LJ
2 LW
N
176.774 247.532 M
177.419 247.532 L
S
GR
GS
1 LJ
2 LW
N
144.533 121.668 M
145.178 121.668 L
S
GR
GS
1 LJ
2 LW
N
160.653 177.138 M
161.298 177.138 L
S
GR
GS
1 LJ
2 LW
N
176.774 200.102 M
177.419 200.102 L
S
GR
GS
[1 0 0 1 144.85542 176.31847] CT
N
1 0 M
1 0.552 0.552 1 0 1 C
-0.552 1 -1 0.552 -1 0 C
-1 -0.552 -0.552 -1 0 -1 C
0.552 -1 1 -0.552 1 0 C
cp
f
GR
GS
[1 0 0 1 160.97591 209.23421] CT
N
1 0 M
1 0.552 0.552 1 0 1 C
-0.552 1 -1 0.552 -1 0 C
-1 -0.552 -0.552 -1 0 -1 C
0.552 -1 1 -0.552 1 0 C
cp
f
GR
GS
[1 0 0 1 177.09639 223.81683] CT
N
1 0 M
1 0.552 0.552 1 0 1 C
-0.552 1 -1 0.552 -1 0 C
-1 -0.552 -0.552 -1 0 -1 C
0.552 -1 1 -0.552 1 0 C
cp
f
GR
GS
0 0 1 RC
N
192.142 384 M
205.039 384 L
205.039 177.434 L
192.142 177.434 L
cp
f
GR
GS
0 0 1 RC
N
208.263 384 M
221.159 384 L
221.159 216.848 L
208.263 216.848 L
cp
f
GR
GS
0 0 1 RC
N
224.383 384 M
237.28 384 L
237.28 228.758 L
224.383 228.758 L
cp
f
GR
GS
10.0 ML
0.5 LW
N
192.142 384 M
192.142 177.434 L
205.039 177.434 L
205.039 384 L
cp
S
GR
GS
10.0 ML
0.5 LW
N
208.263 384 M
208.263 216.848 L
221.159 216.848 L
221.159 384 L
cp
S
GR
GS
10.0 ML
0.5 LW
N
224.383 384 M
224.383 228.758 L
237.28 228.758 L
237.28 384 L
cp
S
GR
GS
1 LJ
2 LW
N
198.59 231.823 M
198.59 123.046 L
S
GR
GS
1 LJ
2 LW
N
214.711 241.154 M
214.711 192.543 L
S
GR
GS
1 LJ
2 LW
N
230.831 253.621 M
230.831 203.894 L
S
GR
GS
1 LJ
2 LW
N
198.268 231.823 M
198.913 231.823 L
S
GR
GS
1 LJ
2 LW
N
214.388 241.154 M
215.033 241.154 L
S
GR
GS
1 LJ
2 LW
N
230.509 253.621 M
231.154 253.621 L
S
GR
GS
1 LJ
2 LW
N
198.268 123.046 M
198.913 123.046 L
S
GR
GS
1 LJ
2 LW
N
214.388 192.543 M
215.033 192.543 L
S
GR
GS
1 LJ
2 LW
N
230.509 203.894 M
231.154 203.894 L
S
GR
GS
[1 0 0 1 198.59036 177.43445] CT
N
1 0 M
1 0.552 0.552 1 0 1 C
-0.552 1 -1 0.552 -1 0 C
-1 -0.552 -0.552 -1 0 -1 C
0.552 -1 1 -0.552 1 0 C
cp
f
GR
GS
[1 0 0 1 214.71085 216.84821] CT
N
1 0 M
1 0.552 0.552 1 0 1 C
-0.552 1 -1 0.552 -1 0 C
-1 -0.552 -0.552 -1 0 -1 C
0.552 -1 1 -0.552 1 0 C
cp
f
GR
GS
[1 0 0 1 230.83133 228.75781] CT
N
1 0 M
1 0.552 0.552 1 0 1 C
-0.552 1 -1 0.552 -1 0 C
-1 -0.552 -0.552 -1 0 -1 C
0.552 -1 1 -0.552 1 0 C
cp
f
GR
GS
1 0.502 0 RC
N
245.877 384 M
258.773 384 L
258.773 204.064 L
245.877 204.064 L
cp
f
GR
GS
1 0.502 0 RC
N
261.998 384 M
274.894 384 L
274.894 233.656 L
261.998 233.656 L
cp
f
GR
GS
1 0.502 0 RC
N
278.118 384 M
291.014 384 L
291.014 242.028 L
278.118 242.028 L
cp
f
GR
GS
10.0 ML
0.5 LW
N
245.877 384 M
245.877 204.064 L
258.773 204.064 L
258.773 384 L
cp
S
GR
GS
10.0 ML
0.5 LW
N
261.998 384 M
261.998 233.656 L
274.894 233.656 L
274.894 384 L
cp
S
GR
GS
10.0 ML
0.5 LW
N
278.118 384 M
278.118 242.028 L
291.014 242.028 L
291.014 384 L
cp
S
GR
GS
1 LJ
2 LW
N
252.325 254.914 M
252.325 153.213 L
S
GR
GS
1 LJ
2 LW
N
268.446 271.04 M
268.446 196.272 L
S
GR
GS
1 LJ
2 LW
N
284.566 278.252 M
284.566 205.805 L
S
GR
GS
1 LJ
2 LW
N
252.003 254.914 M
252.648 254.914 L
S
GR
GS
1 LJ
2 LW
N
268.123 271.04 M
268.768 271.04 L
S
GR
GS
1 LJ
2 LW
N
284.244 278.252 M
284.889 278.252 L
S
GR
GS
1 LJ
2 LW
N
252.003 153.213 M
252.648 153.213 L
S
GR
GS
1 LJ
2 LW
N
268.123 196.272 M
268.768 196.272 L
S
GR
GS
1 LJ
2 LW
N
284.244 205.805 M
284.889 205.805 L
S
GR
GS
[1 0 0 1 252.3253 204.06374] CT
N
1 0 M
1 0.552 0.552 1 0 1 C
-0.552 1 -1 0.552 -1 0 C
-1 -0.552 -0.552 -1 0 -1 C
0.552 -1 1 -0.552 1 0 C
cp
f
GR
GS
[1 0 0 1 268.44577 233.65593] CT
N
1 0 M
1 0.552 0.552 1 0 1 C
-0.552 1 -1 0.552 -1 0 C
-1 -0.552 -0.552 -1 0 -1 C
0.552 -1 1 -0.552 1 0 C
cp
f
GR
GS
[1 0 0 1 284.56628 242.02846] CT
N
1 0 M
1 0.552 0.552 1 0 1 C
-0.552 1 -1 0.552 -1 0 C
-1 -0.552 -0.552 -1 0 -1 C
0.552 -1 1 -0.552 1 0 C
cp
f
GR
GS
1 0 0 RC
N
299.612 384 M
312.508 384 L
312.508 218.324 L
299.612 218.324 L
cp
f
GR
GS
1 0 0 RC
N
315.733 384 M
328.629 384 L
328.629 252.622 L
315.733 252.622 L
cp
f
GR
GS
1 0 0 RC
N
331.853 384 M
344.749 384 L
344.749 275.477 L
331.853 275.477 L
cp
f
GR
GS
10.0 ML
0.5 LW
N
299.612 384 M
299.612 218.324 L
312.508 218.324 L
312.508 384 L
cp
S
GR
GS
10.0 ML
0.5 LW
N
315.733 384 M
315.733 252.622 L
328.629 252.622 L
328.629 384 L
cp
S
GR
GS
10.0 ML
0.5 LW
N
331.853 384 M
331.853 275.477 L
344.749 275.477 L
344.749 384 L
cp
S
GR
GS
1 LJ
2 LW
N
306.06 257.252 M
306.06 179.395 L
S
GR
GS
1 LJ
2 LW
N
322.181 267.173 M
322.181 238.071 L
S
GR
GS
1 LJ
2 LW
N
338.301 286.494 M
338.301 264.46 L
S
GR
GS
1 LJ
2 LW
N
305.738 257.252 M
306.383 257.252 L
S
GR
GS
1 LJ
2 LW
N
321.858 267.173 M
322.503 267.173 L
S
GR
GS
1 LJ
2 LW
N
337.979 286.494 M
338.624 286.494 L
S
GR
GS
1 LJ
2 LW
N
305.738 179.395 M
306.383 179.395 L
S
GR
GS
1 LJ
2 LW
N
321.858 238.071 M
322.503 238.071 L
S
GR
GS
1 LJ
2 LW
N
337.979 264.46 M
338.624 264.46 L
S
GR
GS
[1 0 0 1 306.06024 218.32381] CT
N
1 0 M
1 0.552 0.552 1 0 1 C
-0.552 1 -1 0.552 -1 0 C
-1 -0.552 -0.552 -1 0 -1 C
0.552 -1 1 -0.552 1 0 C
cp
f
GR
GS
[1 0 0 1 322.18073 252.62202] CT
N
1 0 M
1 0.552 0.552 1 0 1 C
-0.552 1 -1 0.552 -1 0 C
-1 -0.552 -0.552 -1 0 -1 C
0.552 -1 1 -0.552 1 0 C
cp
f
GR
GS
[1 0 0 1 338.30121 275.4772] CT
N
1 0 M
1 0.552 0.552 1 0 1 C
-0.552 1 -1 0.552 -1 0 C
-1 -0.552 -0.552 -1 0 -1 C
0.552 -1 1 -0.552 1 0 C
cp
f
GR
GS
0 1 0 RC
N
353.347 384 M
366.243 384 L
366.243 221.37 L
353.347 221.37 L
cp
f
GR
GS
0 1 0 RC
N
369.467 384 M
382.364 384 L
382.364 252.898 L
369.467 252.898 L
cp
f
GR
GS
0 1 0 RC
N
385.588 384 M
398.484 384 L
398.484 279.06 L
385.588 279.06 L
cp
f
GR
GS
10.0 ML
0.5 LW
N
353.347 384 M
353.347 221.37 L
366.243 221.37 L
366.243 384 L
cp
S
GR
GS
10.0 ML
0.5 LW
N
369.467 384 M
369.467 252.898 L
382.364 252.898 L
382.364 384 L
cp
S
GR
GS
10.0 ML
0.5 LW
N
385.588 384 M
385.588 279.06 L
398.484 279.06 L
398.484 384 L
cp
S
GR
GS
1 LJ
2 LW
N
359.795 256.424 M
359.795 186.316 L
S
GR
GS
1 LJ
2 LW
N
375.916 271.214 M
375.916 234.583 L
S
GR
GS
1 LJ
2 LW
N
392.036 290.122 M
392.036 267.999 L
S
GR
GS
1 LJ
2 LW
N
359.473 256.424 M
360.118 256.424 L
S
GR
GS
1 LJ
2 LW
N
375.593 271.214 M
376.238 271.214 L
S
GR
GS
1 LJ
2 LW
N
391.714 290.122 M
392.359 290.122 L
S
GR
GS
1 LJ
2 LW
N
359.473 186.316 M
360.118 186.316 L
S
GR
GS
1 LJ
2 LW
N
375.593 234.583 M
376.238 234.583 L
S
GR
GS
1 LJ
2 LW
N
391.714 267.999 M
392.359 267.999 L
S
GR
GS
[1 0 0 1 359.79517 221.37015] CT
N
1 0 M
1 0.552 0.552 1 0 1 C
-0.552 1 -1 0.552 -1 0 C
-1 -0.552 -0.552 -1 0 -1 C
0.552 -1 1 -0.552 1 0 C
cp
f
GR
GS
[1 0 0 1 375.91565 252.89833] CT
N
1 0 M
1 0.552 0.552 1 0 1 C
-0.552 1 -1 0.552 -1 0 C
-1 -0.552 -0.552 -1 0 -1 C
0.552 -1 1 -0.552 1 0 C
cp
f
GR
GS
[1 0 0 1 392.03616 279.06033] CT
N
1 0 M
1 0.552 0.552 1 0 1 C
-0.552 1 -1 0.552 -1 0 C
-1 -0.552 -0.552 -1 0 -1 C
0.552 -1 1 -0.552 1 0 C
cp
f
GR
GS
1 0 1 RC
N
407.082 384 M
419.978 384 L
419.978 243.903 L
407.082 243.903 L
cp
f
GR
GS
1 0 1 RC
N
423.202 384 M
436.099 384 L
436.099 271.158 L
423.202 271.158 L
cp
f
GR
GS
1 0 1 RC
N
439.323 384 M
452.219 384 L
452.219 294.594 L
439.323 294.594 L
cp
f
GR
GS
10.0 ML
0.5 LW
N
407.082 384 M
407.082 243.903 L
419.978 243.903 L
419.978 384 L
cp
S
GR
GS
10.0 ML
0.5 LW
N
423.202 384 M
423.202 271.158 L
436.099 271.158 L
436.099 384 L
cp
S
GR
GS
10.0 ML
0.5 LW
N
439.323 384 M
439.323 294.594 L
452.219 294.594 L
452.219 384 L
cp
S
GR
GS
1 LJ
2 LW
N
413.53 283.255 M
413.53 204.55 L
S
GR
GS
1 LJ
2 LW
N
429.651 301.406 M
429.651 240.909 L
S
GR
GS
1 LJ
2 LW
N
445.771 318.076 M
445.771 271.113 L
S
GR
GS
1 LJ
2 LW
N
413.208 283.255 M
413.853 283.255 L
S
GR
GS
1 LJ
2 LW
N
429.328 301.406 M
429.973 301.406 L
S
GR
GS
1 LJ
2 LW
N
445.449 318.076 M
446.094 318.076 L
S
GR
GS
1 LJ
2 LW
N
413.208 204.55 M
413.853 204.55 L
S
GR
GS
1 LJ
2 LW
N
429.328 240.909 M
429.973 240.909 L
S
GR
GS
1 LJ
2 LW
N
445.449 271.113 M
446.094 271.113 L
S
GR
GS
[1 0 0 1 413.53012 243.90271] CT
N
1 0 M
1 0.552 0.552 1 0 1 C
-0.552 1 -1 0.552 -1 0 C
-1 -0.552 -0.552 -1 0 -1 C
0.552 -1 1 -0.552 1 0 C
cp
f
GR
GS
[1 0 0 1 429.6506 271.15778] CT
N
1 0 M
1 0.552 0.552 1 0 1 C
-0.552 1 -1 0.552 -1 0 C
-1 -0.552 -0.552 -1 0 -1 C
0.552 -1 1 -0.552 1 0 C
cp
f
GR
GS
[1 0 0 1 445.77109 294.59415] CT
N
1 0 M
1 0.552 0.552 1 0 1 C
-0.552 1 -1 0.552 -1 0 C
-1 -0.552 -0.552 -1 0 -1 C
0.552 -1 1 -0.552 1 0 C
cp
f
GR
GS
0.502 0.502 1 RC
N
460.817 384 M
473.713 384 L
473.713 289.195 L
460.817 289.195 L
cp
f
GR
GS
10.0 ML
0.5 LW
N
460.817 384 M
460.817 289.195 L
473.713 289.195 L
473.713 384 L
cp
S
GR
GS
1 LJ
2 LW
N
467.265 300.032 M
467.265 278.358 L
S
GR
GS
1 LJ
2 LW
N
466.405 300.032 M
468.125 300.032 L
S
GR
GS
1 LJ
2 LW
N
466.405 278.358 M
468.125 278.358 L
S
GR
GS
[1 0 0 1 467.26505 289.19467] CT
N
1 0 M
1 0.552 0.552 1 0 1 C
-0.552 1 -1 0.552 -1 0 C
-1 -0.552 -0.552 -1 0 -1 C
0.552 -1 1 -0.552 1 0 C
cp
f
GR
GS
0 0.502 0.502 RC
N
482.311 384 M
495.207 384 L
495.207 321.491 L
482.311 321.491 L
cp
f
GR
GS
10.0 ML
0.5 LW
N
482.311 384 M
482.311 321.491 L
495.207 321.491 L
495.207 384 L
cp
S
GR
GS
1 LJ
2 LW
N
488.759 330.796 M
488.759 312.186 L
S
GR
GS
1 LJ
2 LW
N
488.114 330.796 M
489.404 330.796 L
S
GR
GS
1 LJ
2 LW
N
488.114 312.186 M
489.404 312.186 L
S
GR
GS
[1 0 0 1 488.75906 321.49066] CT
N
1 0 M
1 0.552 0.552 1 0 1 C
-0.552 1 -1 0.552 -1 0 C
-1 -0.552 -0.552 -1 0 -1 C
0.552 -1 1 -0.552 1 0 C
cp
f
GR
GS
[1 0 0 1 382 51.5] CT
/Helvetica 14 F
GS
[1 0 0 1 0 0] CT
0 3.5 moveto 
1 -1 scale
(Signer-indep.) t 
GR
GR
GS
1 1 0 RC
N
349 57.25 M
349 45.75 L
379 45.75 L
379 57.25 L
cp
f
GR
GS
10.0 ML
0.5 LW
N
349 57.25 M
349 45.75 L
379 45.75 L
379 57.25 L
cp
S
GR
GS
[1 0 0 1 382 67] CT
/Helvetica 14 F
GS
[1 0 0 1 0 0] CT
0 3.5 moveto 
1 -1 scale
(LIN+LON FA) t 
GR
GR
GS
0.502 0.502 0 RC
N
349 72.75 M
349 61.25 L
379 61.25 L
379 72.75 L
cp
f
GR
GS
10.0 ML
0.5 LW
N
349 72.75 M
349 61.25 L
379 61.25 L
379 72.75 L
cp
S
GR
GS
[1 0 0 1 382 82.5] CT
/Helvetica 14 F
GS
[1 0 0 1 0 0] CT
0 3.5 moveto 
1 -1 scale
(LIN+UP FA) t 
GR
GR
GS
0 0 1 RC
N
349 88.25 M
349 76.75 L
379 76.75 L
379 88.25 L
cp
f
GR
GS
10.0 ML
0.5 LW
N
349 88.25 M
349 76.75 L
379 76.75 L
379 88.25 L
cp
S
GR
GS
[1 0 0 1 382 98] CT
/Helvetica 14 F
GS
[1 0 0 1 0 0] CT
0 3.5 moveto 
1 -1 scale
(FT FA) t 
GR
GR
GS
1 0.502 0 RC
N
349 103.75 M
349 92.25 L
379 92.25 L
379 103.75 L
cp
f
GR
GS
10.0 ML
0.5 LW
N
349 103.75 M
349 92.25 L
379 92.25 L
379 103.75 L
cp
S
GR
GS
[1 0 0 1 382 113.5] CT
/Helvetica 14 F
GS
[1 0 0 1 0 0] CT
0 3.5 moveto 
1 -1 scale
(LIN+LON GT) t 
GR
GR
GS
1 0 0 RC
N
349 119.25 M
349 107.75 L
379 107.75 L
379 119.25 L
cp
f
GR
GS
10.0 ML
0.5 LW
N
349 119.25 M
349 107.75 L
379 107.75 L
379 119.25 L
cp
S
GR
GS
[1 0 0 1 382 129] CT
/Helvetica 14 F
GS
[1 0 0 1 0 0] CT
0 3.5 moveto 
1 -1 scale
(LIN+UP GT) t 
GR
GR
GS
0 1 0 RC
N
349 134.75 M
349 123.25 L
379 123.25 L
379 134.75 L
cp
f
GR
GS
10.0 ML
0.5 LW
N
349 134.75 M
349 123.25 L
379 123.25 L
379 134.75 L
cp
S
GR
GS
[1 0 0 1 382 144.5] CT
/Helvetica 14 F
GS
[1 0 0 1 0 0] CT
0 3.5 moveto 
1 -1 scale
(FT GT) t 
GR
GR
GS
1 0 1 RC
N
349 150.25 M
349 138.75 L
379 138.75 L
379 150.25 L
cp
f
GR
GS
10.0 ML
0.5 LW
N
349 150.25 M
349 138.75 L
379 138.75 L
379 150.25 L
cp
S
GR
GS
[1 0 0 1 382 160] CT
/Helvetica 14 F
GS
[1 0 0 1 0 0] CT
0 3.5 moveto 
1 -1 scale
(Train on adapt. data) t 
GR
GR
GS
0.502 0.502 1 RC
N
349 165.75 M
349 154.25 L
379 154.25 L
379 165.75 L
cp
f
GR
GS
10.0 ML
0.5 LW
N
349 165.75 M
349 154.25 L
379 154.25 L
379 165.75 L
cp
S
GR
GS
[1 0 0 1 382 175.5] CT
/Helvetica 14 F
GS
[1 0 0 1 0 0] CT
0 3.5 moveto 
1 -1 scale
(Signer-dep.) t 
GR
GR
GS
0 0.502 0.502 RC
N
349 181.25 M
349 169.75 L
379 169.75 L
379 181.25 L
cp
f
GR
GS
10.0 ML
0.5 LW
N
349 181.25 M
349 169.75 L
379 169.75 L
379 181.25 L
cp
S
GR
%%Trailer
%%Pages: 1
%%EOF
