%!PS-Adobe-3.0 EPSF-3.0
%%Creator: (MATLAB, The Mathworks, Inc. Version 8.6.0.267246 \(R2015b\). Operating System: Mac OS X)
%%Title: ./adapt_fer_le.eps
%%CreationDate: 2016-04-25T19:14:38
%%Pages: (atend)
%%BoundingBox:    29    26   522   401
%%LanguageLevel: 3
%%EndComments
%%BeginProlog
%%BeginResource: procset (Apache XML Graphics Std ProcSet) 1.2 0
%%Version: 1.2 0
%%Copyright: (Copyright 2001-2003,2010 The Apache Software Foundation. License terms: http://www.apache.org/licenses/LICENSE-2.0)
/bd{bind def}bind def
/ld{load def}bd
/GR/grestore ld
/M/moveto ld
/LJ/setlinejoin ld
/C/curveto ld
/f/fill ld
/LW/setlinewidth ld
/GC/setgray ld
/t/show ld
/N/newpath ld
/CT/concat ld
/cp/closepath ld
/S/stroke ld
/L/lineto ld
/CC/setcmykcolor ld
/A/ashow ld
/GS/gsave ld
/RC/setrgbcolor ld
/RM/rmoveto ld
/ML/setmiterlimit ld
/re {4 2 roll M
1 index 0 rlineto
0 exch rlineto
neg 0 rlineto
cp } bd
/_ctm matrix def
/_tm matrix def
/BT { _ctm currentmatrix pop matrix _tm copy pop 0 0 moveto } bd
/ET { _ctm setmatrix } bd
/iTm { _ctm setmatrix _tm concat } bd
/Tm { _tm astore pop iTm 0 0 moveto } bd
/ux 0.0 def
/uy 0.0 def
/F {
  /Tp exch def
  /Tf exch def
  Tf findfont Tp scalefont setfont
  /cf Tf def  /cs Tp def
} bd
/ULS {currentpoint /uy exch def /ux exch def} bd
/ULE {
  /Tcx currentpoint pop def
  gsave
  newpath
  cf findfont cs scalefont dup
  /FontMatrix get 0 get /Ts exch def /FontInfo get dup
  /UnderlinePosition get Ts mul /To exch def
  /UnderlineThickness get Ts mul /Tt exch def
  ux uy To add moveto  Tcx uy To add lineto
  Tt setlinewidth stroke
  grestore
} bd
/OLE {
  /Tcx currentpoint pop def
  gsave
  newpath
  cf findfont cs scalefont dup
  /FontMatrix get 0 get /Ts exch def /FontInfo get dup
  /UnderlinePosition get Ts mul /To exch def
  /UnderlineThickness get Ts mul /Tt exch def
  ux uy To add cs add moveto Tcx uy To add cs add lineto
  Tt setlinewidth stroke
  grestore
} bd
/SOE {
  /Tcx currentpoint pop def
  gsave
  newpath
  cf findfont cs scalefont dup
  /FontMatrix get 0 get /Ts exch def /FontInfo get dup
  /UnderlinePosition get Ts mul /To exch def
  /UnderlineThickness get Ts mul /Tt exch def
  ux uy To add cs 10 mul 26 idiv add moveto Tcx uy To add cs 10 mul 26 idiv add lineto
  Tt setlinewidth stroke
  grestore
} bd
/QT {
/Y22 exch store
/X22 exch store
/Y21 exch store
/X21 exch store
currentpoint
/Y21 load 2 mul add 3 div exch
/X21 load 2 mul add 3 div exch
/X21 load 2 mul /X22 load add 3 div
/Y21 load 2 mul /Y22 load add 3 div
/X22 load /Y22 load curveto
} bd
/SSPD {
dup length /d exch dict def
{
/v exch def
/k exch def
currentpagedevice k known {
/cpdv currentpagedevice k get def
v cpdv ne {
/upd false def
/nullv v type /nulltype eq def
/nullcpdv cpdv type /nulltype eq def
nullv nullcpdv or
{
/upd true def
} {
/sametype v type cpdv type eq def
sametype {
v type /arraytype eq {
/vlen v length def
/cpdvlen cpdv length def
vlen cpdvlen eq {
0 1 vlen 1 sub {
/i exch def
/obj v i get def
/cpdobj cpdv i get def
obj cpdobj ne {
/upd true def
exit
} if
} for
} {
/upd true def
} ifelse
} {
v type /dicttype eq {
v {
/dv exch def
/dk exch def
/cpddv cpdv dk get def
dv cpddv ne {
/upd true def
exit
} if
} forall
} {
/upd true def
} ifelse
} ifelse
} if
} ifelse
upd true eq {
d k v put
} if
} if
} if
} forall
d length 0 gt {
d setpagedevice
} if
} bd
%%EndResource
%%BeginResource: procset (Apache XML Graphics EPS ProcSet) 1.0 0
%%Version: 1.0 0
%%Copyright: (Copyright 2002-2003 The Apache Software Foundation. License terms: http://www.apache.org/licenses/LICENSE-2.0)
/BeginEPSF { %def
/b4_Inc_state save def         % Save state for cleanup
/dict_count countdictstack def % Count objects on dict stack
/op_count count 1 sub def      % Count objects on operand stack
userdict begin                 % Push userdict on dict stack
/showpage { } def              % Redefine showpage, { } = null proc
0 setgray 0 setlinecap         % Prepare graphics state
1 setlinewidth 0 setlinejoin
10 setmiterlimit [ ] 0 setdash newpath
/languagelevel where           % If level not equal to 1 then
{pop languagelevel             % set strokeadjust and
1 ne                           % overprint to their defaults.
{false setstrokeadjust false setoverprint
} if
} if
} bd
/EndEPSF { %def
count op_count sub {pop} repeat            % Clean up stacks
countdictstack dict_count sub {end} repeat
b4_Inc_state restore
} bd
%%EndResource
%FOPBeginFontDict
%%IncludeResource: font Courier-Bold
%%IncludeResource: font Helvetica
%%IncludeResource: font Courier-BoldOblique
%%IncludeResource: font Courier-Oblique
%%IncludeResource: font Times-Roman
%%IncludeResource: font Helvetica-BoldOblique
%%IncludeResource: font Helvetica-Bold
%%IncludeResource: font Helvetica-Oblique
%%IncludeResource: font Times-BoldItalic
%%IncludeResource: font Courier
%%IncludeResource: font Times-Italic
%%IncludeResource: font Times-Bold
%%IncludeResource: font Symbol
%%IncludeResource: font ZapfDingbats
%FOPEndFontDict
%%BeginResource: encoding WinAnsiEncoding
/WinAnsiEncoding [
/.notdef /.notdef /.notdef /.notdef /.notdef
/.notdef /.notdef /.notdef /.notdef /.notdef
/.notdef /.notdef /.notdef /.notdef /.notdef
/.notdef /.notdef /.notdef /.notdef /.notdef
/.notdef /.notdef /.notdef /.notdef /.notdef
/.notdef /.notdef /.notdef /.notdef /.notdef
/.notdef /.notdef /space /exclam /quotedbl
/numbersign /dollar /percent /ampersand /quotesingle
/parenleft /parenright /asterisk /plus /comma
/hyphen /period /slash /zero /one
/two /three /four /five /six
/seven /eight /nine /colon /semicolon
/less /equal /greater /question /at
/A /B /C /D /E
/F /G /H /I /J
/K /L /M /N /O
/P /Q /R /S /T
/U /V /W /X /Y
/Z /bracketleft /backslash /bracketright /asciicircum
/underscore /quoteleft /a /b /c
/d /e /f /g /h
/i /j /k /l /m
/n /o /p /q /r
/s /t /u /v /w
/x /y /z /braceleft /bar
/braceright /asciitilde /bullet /Euro /bullet
/quotesinglbase /florin /quotedblbase /ellipsis /dagger
/daggerdbl /circumflex /perthousand /Scaron /guilsinglleft
/OE /bullet /Zcaron /bullet /bullet
/quoteleft /quoteright /quotedblleft /quotedblright /bullet
/endash /emdash /asciitilde /trademark /scaron
/guilsinglright /oe /bullet /zcaron /Ydieresis
/space /exclamdown /cent /sterling /currency
/yen /brokenbar /section /dieresis /copyright
/ordfeminine /guillemotleft /logicalnot /sfthyphen /registered
/macron /degree /plusminus /twosuperior /threesuperior
/acute /mu /paragraph /middot /cedilla
/onesuperior /ordmasculine /guillemotright /onequarter /onehalf
/threequarters /questiondown /Agrave /Aacute /Acircumflex
/Atilde /Adieresis /Aring /AE /Ccedilla
/Egrave /Eacute /Ecircumflex /Edieresis /Igrave
/Iacute /Icircumflex /Idieresis /Eth /Ntilde
/Ograve /Oacute /Ocircumflex /Otilde /Odieresis
/multiply /Oslash /Ugrave /Uacute /Ucircumflex
/Udieresis /Yacute /Thorn /germandbls /agrave
/aacute /acircumflex /atilde /adieresis /aring
/ae /ccedilla /egrave /eacute /ecircumflex
/edieresis /igrave /iacute /icircumflex /idieresis
/eth /ntilde /ograve /oacute /ocircumflex
/otilde /odieresis /divide /oslash /ugrave
/uacute /ucircumflex /udieresis /yacute /thorn
/ydieresis
] def
%%EndResource
%FOPBeginFontReencode
/Courier-Bold findfont
dup length dict begin
  {1 index /FID ne {def} {pop pop} ifelse} forall
  /Encoding WinAnsiEncoding def
  currentdict
end
/Courier-Bold exch definefont pop
/Helvetica findfont
dup length dict begin
  {1 index /FID ne {def} {pop pop} ifelse} forall
  /Encoding WinAnsiEncoding def
  currentdict
end
/Helvetica exch definefont pop
/Courier-BoldOblique findfont
dup length dict begin
  {1 index /FID ne {def} {pop pop} ifelse} forall
  /Encoding WinAnsiEncoding def
  currentdict
end
/Courier-BoldOblique exch definefont pop
/Courier-Oblique findfont
dup length dict begin
  {1 index /FID ne {def} {pop pop} ifelse} forall
  /Encoding WinAnsiEncoding def
  currentdict
end
/Courier-Oblique exch definefont pop
/Times-Roman findfont
dup length dict begin
  {1 index /FID ne {def} {pop pop} ifelse} forall
  /Encoding WinAnsiEncoding def
  currentdict
end
/Times-Roman exch definefont pop
/Helvetica-BoldOblique findfont
dup length dict begin
  {1 index /FID ne {def} {pop pop} ifelse} forall
  /Encoding WinAnsiEncoding def
  currentdict
end
/Helvetica-BoldOblique exch definefont pop
/Helvetica-Bold findfont
dup length dict begin
  {1 index /FID ne {def} {pop pop} ifelse} forall
  /Encoding WinAnsiEncoding def
  currentdict
end
/Helvetica-Bold exch definefont pop
/Helvetica-Oblique findfont
dup length dict begin
  {1 index /FID ne {def} {pop pop} ifelse} forall
  /Encoding WinAnsiEncoding def
  currentdict
end
/Helvetica-Oblique exch definefont pop
/Times-BoldItalic findfont
dup length dict begin
  {1 index /FID ne {def} {pop pop} ifelse} forall
  /Encoding WinAnsiEncoding def
  currentdict
end
/Times-BoldItalic exch definefont pop
/Courier findfont
dup length dict begin
  {1 index /FID ne {def} {pop pop} ifelse} forall
  /Encoding WinAnsiEncoding def
  currentdict
end
/Courier exch definefont pop
/Times-Italic findfont
dup length dict begin
  {1 index /FID ne {def} {pop pop} ifelse} forall
  /Encoding WinAnsiEncoding def
  currentdict
end
/Times-Italic exch definefont pop
/Times-Bold findfont
dup length dict begin
  {1 index /FID ne {def} {pop pop} ifelse} forall
  /Encoding WinAnsiEncoding def
  currentdict
end
/Times-Bold exch definefont pop
%FOPEndFontReencode
%%EndProlog
%%Page: 1 1
%%PageBoundingBox: 0 0 576 432
%%BeginPageSetup
[1 0 0 -1 0 432] CT
%%EndPageSetup
GS
1 GC
N
0 0 576 432 re
f
GR
GS
1 GC
N
0 0 576 432 re
f
GR
GS
1 GC
N
75 384 M
521 384 L
521 32 L
75 32 L
cp
f
GR
GS
0.149 GC
2 setlinecap
1 LJ
0.5 LW
N
75 384 M
521 384 L
S
GR
GS
0.149 GC
2 setlinecap
1 LJ
0.5 LW
N
75 32 M
521 32 L
S
GR
GS
0.149 GC
2 setlinecap
1 LJ
0.5 LW
N
123.361 384 M
123.361 379.54 L
S
GR
GS
0.149 GC
2 setlinecap
1 LJ
0.5 LW
N
144.855 384 M
144.855 379.54 L
S
GR
GS
0.149 GC
2 setlinecap
1 LJ
0.5 LW
N
160.976 384 M
160.976 379.54 L
S
GR
GS
0.149 GC
2 setlinecap
1 LJ
0.5 LW
N
177.096 384 M
177.096 379.54 L
S
GR
GS
0.149 GC
2 setlinecap
1 LJ
0.5 LW
N
198.59 384 M
198.59 379.54 L
S
GR
GS
0.149 GC
2 setlinecap
1 LJ
0.5 LW
N
214.711 384 M
214.711 379.54 L
S
GR
GS
0.149 GC
2 setlinecap
1 LJ
0.5 LW
N
230.831 384 M
230.831 379.54 L
S
GR
GS
0.149 GC
2 setlinecap
1 LJ
0.5 LW
N
252.325 384 M
252.325 379.54 L
S
GR
GS
0.149 GC
2 setlinecap
1 LJ
0.5 LW
N
268.446 384 M
268.446 379.54 L
S
GR
GS
0.149 GC
2 setlinecap
1 LJ
0.5 LW
N
284.566 384 M
284.566 379.54 L
S
GR
GS
0.149 GC
2 setlinecap
1 LJ
0.5 LW
N
306.06 384 M
306.06 379.54 L
S
GR
GS
0.149 GC
2 setlinecap
1 LJ
0.5 LW
N
322.181 384 M
322.181 379.54 L
S
GR
GS
0.149 GC
2 setlinecap
1 LJ
0.5 LW
N
338.301 384 M
338.301 379.54 L
S
GR
GS
0.149 GC
2 setlinecap
1 LJ
0.5 LW
N
359.795 384 M
359.795 379.54 L
S
GR
GS
0.149 GC
2 setlinecap
1 LJ
0.5 LW
N
375.916 384 M
375.916 379.54 L
S
GR
GS
0.149 GC
2 setlinecap
1 LJ
0.5 LW
N
392.036 384 M
392.036 379.54 L
S
GR
GS
0.149 GC
2 setlinecap
1 LJ
0.5 LW
N
413.53 384 M
413.53 379.54 L
S
GR
GS
0.149 GC
2 setlinecap
1 LJ
0.5 LW
N
429.651 384 M
429.651 379.54 L
S
GR
GS
0.149 GC
2 setlinecap
1 LJ
0.5 LW
N
445.771 384 M
445.771 379.54 L
S
GR
GS
0.149 GC
2 setlinecap
1 LJ
0.5 LW
N
467.265 384 M
467.265 379.54 L
S
GR
GS
0.149 GC
2 setlinecap
1 LJ
0.5 LW
N
488.759 384 M
488.759 379.54 L
S
GR
GS
0.149 GC
2 setlinecap
1 LJ
0.5 LW
N
123.361 32 M
123.361 36.46 L
S
GR
GS
0.149 GC
2 setlinecap
1 LJ
0.5 LW
N
144.855 32 M
144.855 36.46 L
S
GR
GS
0.149 GC
2 setlinecap
1 LJ
0.5 LW
N
160.976 32 M
160.976 36.46 L
S
GR
GS
0.149 GC
2 setlinecap
1 LJ
0.5 LW
N
177.096 32 M
177.096 36.46 L
S
GR
GS
0.149 GC
2 setlinecap
1 LJ
0.5 LW
N
198.59 32 M
198.59 36.46 L
S
GR
GS
0.149 GC
2 setlinecap
1 LJ
0.5 LW
N
214.711 32 M
214.711 36.46 L
S
GR
GS
0.149 GC
2 setlinecap
1 LJ
0.5 LW
N
230.831 32 M
230.831 36.46 L
S
GR
GS
0.149 GC
2 setlinecap
1 LJ
0.5 LW
N
252.325 32 M
252.325 36.46 L
S
GR
GS
0.149 GC
2 setlinecap
1 LJ
0.5 LW
N
268.446 32 M
268.446 36.46 L
S
GR
GS
0.149 GC
2 setlinecap
1 LJ
0.5 LW
N
284.566 32 M
284.566 36.46 L
S
GR
GS
0.149 GC
2 setlinecap
1 LJ
0.5 LW
N
306.06 32 M
306.06 36.46 L
S
GR
GS
0.149 GC
2 setlinecap
1 LJ
0.5 LW
N
322.181 32 M
322.181 36.46 L
S
GR
GS
0.149 GC
2 setlinecap
1 LJ
0.5 LW
N
338.301 32 M
338.301 36.46 L
S
GR
GS
0.149 GC
2 setlinecap
1 LJ
0.5 LW
N
359.795 32 M
359.795 36.46 L
S
GR
GS
0.149 GC
2 setlinecap
1 LJ
0.5 LW
N
375.916 32 M
375.916 36.46 L
S
GR
GS
0.149 GC
2 setlinecap
1 LJ
0.5 LW
N
392.036 32 M
392.036 36.46 L
S
GR
GS
0.149 GC
2 setlinecap
1 LJ
0.5 LW
N
413.53 32 M
413.53 36.46 L
S
GR
GS
0.149 GC
2 setlinecap
1 LJ
0.5 LW
N
429.651 32 M
429.651 36.46 L
S
GR
GS
0.149 GC
2 setlinecap
1 LJ
0.5 LW
N
445.771 32 M
445.771 36.46 L
S
GR
GS
0.149 GC
2 setlinecap
1 LJ
0.5 LW
N
467.265 32 M
467.265 36.46 L
S
GR
GS
0.149 GC
2 setlinecap
1 LJ
0.5 LW
N
488.759 32 M
488.759 36.46 L
S
GR
GS
[1 0 0 1 123.36144 389.20001] CT
0.149 GC
/Helvetica 16 F
GS
[1 0 0 1 0 0] CT
-4.5 13 moveto 
1 -1 scale
(0) t 
GR
GR
GS
[1 0 0 1 144.85542 389.20001] CT
0.149 GC
/Helvetica 16 F
GS
[1 0 0 1 0 0] CT
-4.5 13 moveto 
1 -1 scale
(1) t 
GR
GR
GS
[1 0 0 1 160.97591 389.20001] CT
0.149 GC
/Helvetica 16 F
GS
[1 0 0 1 0 0] CT
-4.5 13 moveto 
1 -1 scale
(2) t 
GR
GR
GS
[1 0 0 1 177.09639 389.20001] CT
0.149 GC
/Helvetica 16 F
GS
[1 0 0 1 0 0] CT
-4.5 13 moveto 
1 -1 scale
(3) t 
GR
GR
GS
[1 0 0 1 198.59036 389.20001] CT
0.149 GC
/Helvetica 16 F
GS
[1 0 0 1 0 0] CT
-4.5 13 moveto 
1 -1 scale
(1) t 
GR
GR
GS
[1 0 0 1 214.71085 389.20001] CT
0.149 GC
/Helvetica 16 F
GS
[1 0 0 1 0 0] CT
-4.5 13 moveto 
1 -1 scale
(2) t 
GR
GR
GS
[1 0 0 1 230.83133 389.20001] CT
0.149 GC
/Helvetica 16 F
GS
[1 0 0 1 0 0] CT
-4.5 13 moveto 
1 -1 scale
(3) t 
GR
GR
GS
[1 0 0 1 252.3253 389.20001] CT
0.149 GC
/Helvetica 16 F
GS
[1 0 0 1 0 0] CT
-4.5 13 moveto 
1 -1 scale
(1) t 
GR
GR
GS
[1 0 0 1 268.44577 389.20001] CT
0.149 GC
/Helvetica 16 F
GS
[1 0 0 1 0 0] CT
-4.5 13 moveto 
1 -1 scale
(2) t 
GR
GR
GS
[1 0 0 1 284.56628 389.20001] CT
0.149 GC
/Helvetica 16 F
GS
[1 0 0 1 0 0] CT
-4.5 13 moveto 
1 -1 scale
(3) t 
GR
GR
GS
[1 0 0 1 306.06024 389.20001] CT
0.149 GC
/Helvetica 16 F
GS
[1 0 0 1 0 0] CT
-4.5 13 moveto 
1 -1 scale
(1) t 
GR
GR
GS
[1 0 0 1 322.18073 389.20001] CT
0.149 GC
/Helvetica 16 F
GS
[1 0 0 1 0 0] CT
-4.5 13 moveto 
1 -1 scale
(2) t 
GR
GR
GS
[1 0 0 1 338.30121 389.20001] CT
0.149 GC
/Helvetica 16 F
GS
[1 0 0 1 0 0] CT
-4.5 13 moveto 
1 -1 scale
(3) t 
GR
GR
GS
[1 0 0 1 359.79517 389.20001] CT
0.149 GC
/Helvetica 16 F
GS
[1 0 0 1 0 0] CT
-4.5 13 moveto 
1 -1 scale
(1) t 
GR
GR
GS
[1 0 0 1 375.91565 389.20001] CT
0.149 GC
/Helvetica 16 F
GS
[1 0 0 1 0 0] CT
-4.5 13 moveto 
1 -1 scale
(2) t 
GR
GR
GS
[1 0 0 1 392.03616 389.20001] CT
0.149 GC
/Helvetica 16 F
GS
[1 0 0 1 0 0] CT
-4.5 13 moveto 
1 -1 scale
(3) t 
GR
GR
GS
[1 0 0 1 413.53012 389.20001] CT
0.149 GC
/Helvetica 16 F
GS
[1 0 0 1 0 0] CT
-4.5 13 moveto 
1 -1 scale
(1) t 
GR
GR
GS
[1 0 0 1 429.6506 389.20001] CT
0.149 GC
/Helvetica 16 F
GS
[1 0 0 1 0 0] CT
-4.5 13 moveto 
1 -1 scale
(2) t 
GR
GR
GS
[1 0 0 1 445.77109 389.20001] CT
0.149 GC
/Helvetica 16 F
GS
[1 0 0 1 0 0] CT
-4.5 13 moveto 
1 -1 scale
(3) t 
GR
GR
GS
[1 0 0 1 467.26505 389.20001] CT
0.149 GC
/Helvetica 16 F
GS
[1 0 0 1 0 0] CT
-4.5 13 moveto 
1 -1 scale
(3) t 
GR
GR
GS
[1 0 0 1 488.75906 389.20001] CT
0.149 GC
/Helvetica 16 F
GS
[1 0 0 1 0 0] CT
-9 13 moveto 
1 -1 scale
(All) t 
GR
GR
GS
0.149 GC
2 setlinecap
1 LJ
0.5 LW
N
75 384 M
75 32 L
S
GR
GS
0.149 GC
2 setlinecap
1 LJ
0.5 LW
N
521 384 M
521 32 L
S
GR
GS
0.149 GC
2 setlinecap
1 LJ
0.5 LW
N
75 384 M
79.46 384 L
S
GR
GS
0.149 GC
2 setlinecap
1 LJ
0.5 LW
N
75 347.333 M
79.46 347.333 L
S
GR
GS
0.149 GC
2 setlinecap
1 LJ
0.5 LW
N
75 310.667 M
79.46 310.667 L
S
GR
GS
0.149 GC
2 setlinecap
1 LJ
0.5 LW
N
75 274 M
79.46 274 L
S
GR
GS
0.149 GC
2 setlinecap
1 LJ
0.5 LW
N
75 237.333 M
79.46 237.333 L
S
GR
GS
0.149 GC
2 setlinecap
1 LJ
0.5 LW
N
75 200.667 M
79.46 200.667 L
S
GR
GS
0.149 GC
2 setlinecap
1 LJ
0.5 LW
N
75 164 M
79.46 164 L
S
GR
GS
0.149 GC
2 setlinecap
1 LJ
0.5 LW
N
75 127.333 M
79.46 127.333 L
S
GR
GS
0.149 GC
2 setlinecap
1 LJ
0.5 LW
N
75 90.667 M
79.46 90.667 L
S
GR
GS
0.149 GC
2 setlinecap
1 LJ
0.5 LW
N
75 54 M
79.46 54 L
S
GR
GS
0.149 GC
2 setlinecap
1 LJ
0.5 LW
N
521 384 M
516.54 384 L
S
GR
GS
0.149 GC
2 setlinecap
1 LJ
0.5 LW
N
521 347.333 M
516.54 347.333 L
S
GR
GS
0.149 GC
2 setlinecap
1 LJ
0.5 LW
N
521 310.667 M
516.54 310.667 L
S
GR
GS
0.149 GC
2 setlinecap
1 LJ
0.5 LW
N
521 274 M
516.54 274 L
S
GR
GS
0.149 GC
2 setlinecap
1 LJ
0.5 LW
N
521 237.333 M
516.54 237.333 L
S
GR
GS
0.149 GC
2 setlinecap
1 LJ
0.5 LW
N
521 200.667 M
516.54 200.667 L
S
GR
GS
0.149 GC
2 setlinecap
1 LJ
0.5 LW
N
521 164 M
516.54 164 L
S
GR
GS
0.149 GC
2 setlinecap
1 LJ
0.5 LW
N
521 127.333 M
516.54 127.333 L
S
GR
GS
0.149 GC
2 setlinecap
1 LJ
0.5 LW
N
521 90.667 M
516.54 90.667 L
S
GR
GS
0.149 GC
2 setlinecap
1 LJ
0.5 LW
N
521 54 M
516.54 54 L
S
GR
GS
[1 0 0 1 69.8 384] CT
0.149 GC
/Helvetica 16 F
GS
[1 0 0 1 0 0] CT
-9 4.5 moveto 
1 -1 scale
(0) t 
GR
GR
GS
[1 0 0 1 69.8 347.33334] CT
0.149 GC
/Helvetica 16 F
GS
[1 0 0 1 0 0] CT
-9 4.5 moveto 
1 -1 scale
(5) t 
GR
GR
GS
[1 0 0 1 69.8 310.66666] CT
0.149 GC
/Helvetica 16 F
GS
[1 0 0 1 0 0] CT
-18 4.5 moveto 
1 -1 scale
(10) t 
GR
GR
GS
[1 0 0 1 69.8 274] CT
0.149 GC
/Helvetica 16 F
GS
[1 0 0 1 0 0] CT
-18 4.5 moveto 
1 -1 scale
(15) t 
GR
GR
GS
[1 0 0 1 69.8 237.33333] CT
0.149 GC
/Helvetica 16 F
GS
[1 0 0 1 0 0] CT
-18 4.5 moveto 
1 -1 scale
(20) t 
GR
GR
GS
[1 0 0 1 69.8 200.66667] CT
0.149 GC
/Helvetica 16 F
GS
[1 0 0 1 0 0] CT
-18 4.5 moveto 
1 -1 scale
(25) t 
GR
GR
GS
[1 0 0 1 69.8 164] CT
0.149 GC
/Helvetica 16 F
GS
[1 0 0 1 0 0] CT
-18 4.5 moveto 
1 -1 scale
(30) t 
GR
GR
GS
[1 0 0 1 69.8 127.33334] CT
0.149 GC
/Helvetica 16 F
GS
[1 0 0 1 0 0] CT
-18 4.5 moveto 
1 -1 scale
(35) t 
GR
GR
GS
[1 0 0 1 69.8 90.66666] CT
0.149 GC
/Helvetica 16 F
GS
[1 0 0 1 0 0] CT
-18 4.5 moveto 
1 -1 scale
(40) t 
GR
GR
GS
[1 0 0 1 69.8 54] CT
0.149 GC
/Helvetica 16 F
GS
[1 0 0 1 0 0] CT
-18 4.5 moveto 
1 -1 scale
(45) t 
GR
GR
GS
[0 -1 1 0 48.8 207.99983] CT
0.149 GC
/Helvetica 18 F
GS
[1 0 0 1 0 0] CT
-82.5 -5 moveto 
1 -1 scale
(Frame error rate \(%\)) t 
GR
GR
GS
0.149 GC
1 LJ
0.5 LW
N
75 384 M
521 384 L
S
GR
GS
1 1 0 RC
N
116.197 384 M
130.526 384 L
130.526 128.268 L
116.197 128.268 L
cp
f
GR
GS
10.0 ML
0.5 LW
N
116.197 384 M
116.197 128.268 L
130.526 128.268 L
130.526 384 L
cp
S
GR
GS
1 LJ
2 LW
N
123.361 176.656 M
123.361 79.881 L
S
GR
GS
1 LJ
2 LW
N
122.663 176.656 M
124.06 176.656 L
S
GR
GS
1 LJ
2 LW
N
122.663 79.881 M
124.06 79.881 L
S
GR
GS
[1 0 0 1 123.36144 128.26826] CT
N
1 0 M
1 0.552 0.552 1 0 1 C
-0.552 1 -1 0.552 -1 0 C
-1 -0.552 -0.552 -1 0 -1 C
0.552 -1 1 -0.552 1 0 C
cp
f
GR
GS
0.502 0.502 0 RC
N
138.407 384 M
151.304 384 L
151.304 178.944 L
138.407 178.944 L
cp
f
GR
GS
0.502 0.502 0 RC
N
154.528 384 M
167.424 384 L
167.424 205.31 L
154.528 205.31 L
cp
f
GR
GS
0.502 0.502 0 RC
N
170.648 384 M
183.545 384 L
183.545 217.272 L
170.648 217.272 L
cp
f
GR
GS
10.0 ML
0.5 LW
N
138.407 384 M
138.407 178.944 L
151.304 178.944 L
151.304 384 L
cp
S
GR
GS
10.0 ML
0.5 LW
N
154.528 384 M
154.528 205.31 L
167.424 205.31 L
167.424 384 L
cp
S
GR
GS
10.0 ML
0.5 LW
N
170.648 384 M
170.648 217.272 L
183.545 217.272 L
183.545 384 L
cp
S
GR
GS
1 LJ
2 LW
N
144.855 216.637 M
144.855 141.25 L
S
GR
GS
1 LJ
2 LW
N
160.976 233.627 M
160.976 176.992 L
S
GR
GS
1 LJ
2 LW
N
177.096 240.033 M
177.096 194.512 L
S
GR
GS
1 LJ
2 LW
N
144.533 216.637 M
145.178 216.637 L
S
GR
GS
1 LJ
2 LW
N
160.653 233.627 M
161.298 233.627 L
S
GR
GS
1 LJ
2 LW
N
176.774 240.033 M
177.419 240.033 L
S
GR
GS
1 LJ
2 LW
N
144.533 141.25 M
145.178 141.25 L
S
GR
GS
1 LJ
2 LW
N
160.653 176.992 M
161.298 176.992 L
S
GR
GS
1 LJ
2 LW
N
176.774 194.512 M
177.419 194.512 L
S
GR
GS
[1 0 0 1 144.85542 178.94351] CT
N
1 0 M
1 0.552 0.552 1 0 1 C
-0.552 1 -1 0.552 -1 0 C
-1 -0.552 -0.552 -1 0 -1 C
0.552 -1 1 -0.552 1 0 C
cp
f
GR
GS
[1 0 0 1 160.97591 205.30991] CT
N
1 0 M
1 0.552 0.552 1 0 1 C
-0.552 1 -1 0.552 -1 0 C
-1 -0.552 -0.552 -1 0 -1 C
0.552 -1 1 -0.552 1 0 C
cp
f
GR
GS
[1 0 0 1 177.09639 217.27249] CT
N
1 0 M
1 0.552 0.552 1 0 1 C
-0.552 1 -1 0.552 -1 0 C
-1 -0.552 -0.552 -1 0 -1 C
0.552 -1 1 -0.552 1 0 C
cp
f
GR
GS
0 0 1 RC
N
192.142 384 M
205.039 384 L
205.039 188.807 L
192.142 188.807 L
cp
f
GR
GS
0 0 1 RC
N
208.263 384 M
221.159 384 L
221.159 219.228 L
208.263 219.228 L
cp
f
GR
GS
0 0 1 RC
N
224.383 384 M
237.28 384 L
237.28 227.123 L
224.383 227.123 L
cp
f
GR
GS
10.0 ML
0.5 LW
N
192.142 384 M
192.142 188.807 L
205.039 188.807 L
205.039 384 L
cp
S
GR
GS
10.0 ML
0.5 LW
N
208.263 384 M
208.263 219.228 L
221.159 219.228 L
221.159 384 L
cp
S
GR
GS
10.0 ML
0.5 LW
N
224.383 384 M
224.383 227.123 L
237.28 227.123 L
237.28 384 L
cp
S
GR
GS
1 LJ
2 LW
N
198.59 225.896 M
198.59 151.717 L
S
GR
GS
1 LJ
2 LW
N
214.711 242.316 M
214.711 196.141 L
S
GR
GS
1 LJ
2 LW
N
230.831 250.648 M
230.831 203.598 L
S
GR
GS
1 LJ
2 LW
N
198.268 225.896 M
198.913 225.896 L
S
GR
GS
1 LJ
2 LW
N
214.388 242.316 M
215.033 242.316 L
S
GR
GS
1 LJ
2 LW
N
230.509 250.648 M
231.154 250.648 L
S
GR
GS
1 LJ
2 LW
N
198.268 151.717 M
198.913 151.717 L
S
GR
GS
1 LJ
2 LW
N
214.388 196.141 M
215.033 196.141 L
S
GR
GS
1 LJ
2 LW
N
230.509 203.598 M
231.154 203.598 L
S
GR
GS
[1 0 0 1 198.59036 188.80678] CT
N
1 0 M
1 0.552 0.552 1 0 1 C
-0.552 1 -1 0.552 -1 0 C
-1 -0.552 -0.552 -1 0 -1 C
0.552 -1 1 -0.552 1 0 C
cp
f
GR
GS
[1 0 0 1 214.71085 219.22832] CT
N
1 0 M
1 0.552 0.552 1 0 1 C
-0.552 1 -1 0.552 -1 0 C
-1 -0.552 -0.552 -1 0 -1 C
0.552 -1 1 -0.552 1 0 C
cp
f
GR
GS
[1 0 0 1 230.83133 227.1232] CT
N
1 0 M
1 0.552 0.552 1 0 1 C
-0.552 1 -1 0.552 -1 0 C
-1 -0.552 -0.552 -1 0 -1 C
0.552 -1 1 -0.552 1 0 C
cp
f
GR
GS
1 0.502 0 RC
N
245.877 384 M
258.773 384 L
258.773 202.975 L
245.877 202.975 L
cp
f
GR
GS
1 0.502 0 RC
N
261.998 384 M
274.894 384 L
274.894 233.872 L
261.998 233.872 L
cp
f
GR
GS
1 0.502 0 RC
N
278.118 384 M
291.014 384 L
291.014 240.878 L
278.118 240.878 L
cp
f
GR
GS
10.0 ML
0.5 LW
N
245.877 384 M
245.877 202.975 L
258.773 202.975 L
258.773 384 L
cp
S
GR
GS
10.0 ML
0.5 LW
N
261.998 384 M
261.998 233.872 L
274.894 233.872 L
274.894 384 L
cp
S
GR
GS
10.0 ML
0.5 LW
N
278.118 384 M
278.118 240.878 L
291.014 240.878 L
291.014 384 L
cp
S
GR
GS
1 LJ
2 LW
N
252.325 247.773 M
252.325 158.176 L
S
GR
GS
1 LJ
2 LW
N
268.446 259.049 M
268.446 208.695 L
S
GR
GS
1 LJ
2 LW
N
284.566 262.118 M
284.566 219.638 L
S
GR
GS
1 LJ
2 LW
N
252.003 247.773 M
252.648 247.773 L
S
GR
GS
1 LJ
2 LW
N
268.123 259.049 M
268.768 259.049 L
S
GR
GS
1 LJ
2 LW
N
284.244 262.118 M
284.889 262.118 L
S
GR
GS
1 LJ
2 LW
N
252.003 158.176 M
252.648 158.176 L
S
GR
GS
1 LJ
2 LW
N
268.123 208.695 M
268.768 208.695 L
S
GR
GS
1 LJ
2 LW
N
284.244 219.638 M
284.889 219.638 L
S
GR
GS
[1 0 0 1 252.3253 202.97478] CT
N
1 0 M
1 0.552 0.552 1 0 1 C
-0.552 1 -1 0.552 -1 0 C
-1 -0.552 -0.552 -1 0 -1 C
0.552 -1 1 -0.552 1 0 C
cp
f
GR
GS
[1 0 0 1 268.44577 233.87231] CT
N
1 0 M
1 0.552 0.552 1 0 1 C
-0.552 1 -1 0.552 -1 0 C
-1 -0.552 -0.552 -1 0 -1 C
0.552 -1 1 -0.552 1 0 C
cp
f
GR
GS
[1 0 0 1 284.56628 240.87817] CT
N
1 0 M
1 0.552 0.552 1 0 1 C
-0.552 1 -1 0.552 -1 0 C
-1 -0.552 -0.552 -1 0 -1 C
0.552 -1 1 -0.552 1 0 C
cp
f
GR
GS
1 0 0 RC
N
299.612 384 M
312.508 384 L
312.508 217.106 L
299.612 217.106 L
cp
f
GR
GS
1 0 0 RC
N
315.733 384 M
328.629 384 L
328.629 243.377 L
315.733 243.377 L
cp
f
GR
GS
1 0 0 RC
N
331.853 384 M
344.749 384 L
344.749 261.991 L
331.853 261.991 L
cp
f
GR
GS
10.0 ML
0.5 LW
N
299.612 384 M
299.612 217.106 L
312.508 217.106 L
312.508 384 L
cp
S
GR
GS
10.0 ML
0.5 LW
N
315.733 384 M
315.733 243.377 L
328.629 243.377 L
328.629 384 L
cp
S
GR
GS
10.0 ML
0.5 LW
N
331.853 384 M
331.853 261.991 L
344.749 261.991 L
344.749 384 L
cp
S
GR
GS
1 LJ
2 LW
N
306.06 246.168 M
306.06 188.043 L
S
GR
GS
1 LJ
2 LW
N
322.181 268.1 M
322.181 218.653 L
S
GR
GS
1 LJ
2 LW
N
338.301 282.465 M
338.301 241.516 L
S
GR
GS
1 LJ
2 LW
N
305.738 246.168 M
306.383 246.168 L
S
GR
GS
1 LJ
2 LW
N
321.858 268.1 M
322.503 268.1 L
S
GR
GS
1 LJ
2 LW
N
337.979 282.465 M
338.624 282.465 L
S
GR
GS
1 LJ
2 LW
N
305.738 188.043 M
306.383 188.043 L
S
GR
GS
1 LJ
2 LW
N
321.858 218.653 M
322.503 218.653 L
S
GR
GS
1 LJ
2 LW
N
337.979 241.516 M
338.624 241.516 L
S
GR
GS
[1 0 0 1 306.06024 217.10559] CT
N
1 0 M
1 0.552 0.552 1 0 1 C
-0.552 1 -1 0.552 -1 0 C
-1 -0.552 -0.552 -1 0 -1 C
0.552 -1 1 -0.552 1 0 C
cp
f
GR
GS
[1 0 0 1 322.18073 243.37654] CT
N
1 0 M
1 0.552 0.552 1 0 1 C
-0.552 1 -1 0.552 -1 0 C
-1 -0.552 -0.552 -1 0 -1 C
0.552 -1 1 -0.552 1 0 C
cp
f
GR
GS
[1 0 0 1 338.30121 261.99054] CT
N
1 0 M
1 0.552 0.552 1 0 1 C
-0.552 1 -1 0.552 -1 0 C
-1 -0.552 -0.552 -1 0 -1 C
0.552 -1 1 -0.552 1 0 C
cp
f
GR
GS
0 1 0 RC
N
353.347 384 M
366.243 384 L
366.243 223.78 L
353.347 223.78 L
cp
f
GR
GS
0 1 0 RC
N
369.467 384 M
382.364 384 L
382.364 252.612 L
369.467 252.612 L
cp
f
GR
GS
0 1 0 RC
N
385.588 384 M
398.484 384 L
398.484 275.525 L
385.588 275.525 L
cp
f
GR
GS
10.0 ML
0.5 LW
N
353.347 384 M
353.347 223.78 L
366.243 223.78 L
366.243 384 L
cp
S
GR
GS
10.0 ML
0.5 LW
N
369.467 384 M
369.467 252.612 L
382.364 252.612 L
382.364 384 L
cp
S
GR
GS
10.0 ML
0.5 LW
N
385.588 384 M
385.588 275.525 L
398.484 275.525 L
398.484 384 L
cp
S
GR
GS
1 LJ
2 LW
N
359.795 255.136 M
359.795 192.424 L
S
GR
GS
1 LJ
2 LW
N
375.916 271.646 M
375.916 233.579 L
S
GR
GS
1 LJ
2 LW
N
392.036 296.076 M
392.036 254.974 L
S
GR
GS
1 LJ
2 LW
N
359.473 255.136 M
360.118 255.136 L
S
GR
GS
1 LJ
2 LW
N
375.593 271.646 M
376.238 271.646 L
S
GR
GS
1 LJ
2 LW
N
391.714 296.076 M
392.359 296.076 L
S
GR
GS
1 LJ
2 LW
N
359.473 192.424 M
360.118 192.424 L
S
GR
GS
1 LJ
2 LW
N
375.593 233.579 M
376.238 233.579 L
S
GR
GS
1 LJ
2 LW
N
391.714 254.974 M
392.359 254.974 L
S
GR
GS
[1 0 0 1 359.79517 223.78003] CT
N
1 0 M
1 0.552 0.552 1 0 1 C
-0.552 1 -1 0.552 -1 0 C
-1 -0.552 -0.552 -1 0 -1 C
0.552 -1 1 -0.552 1 0 C
cp
f
GR
GS
[1 0 0 1 375.91565 252.61244] CT
N
1 0 M
1 0.552 0.552 1 0 1 C
-0.552 1 -1 0.552 -1 0 C
-1 -0.552 -0.552 -1 0 -1 C
0.552 -1 1 -0.552 1 0 C
cp
f
GR
GS
[1 0 0 1 392.03616 275.52515] CT
N
1 0 M
1 0.552 0.552 1 0 1 C
-0.552 1 -1 0.552 -1 0 C
-1 -0.552 -0.552 -1 0 -1 C
0.552 -1 1 -0.552 1 0 C
cp
f
GR
GS
1 0 1 RC
N
407.082 384 M
419.978 384 L
419.978 241.119 L
407.082 241.119 L
cp
f
GR
GS
1 0 1 RC
N
423.202 384 M
436.099 384 L
436.099 269.053 L
423.202 269.053 L
cp
f
GR
GS
1 0 1 RC
N
439.323 384 M
452.219 384 L
452.219 289.688 L
439.323 289.688 L
cp
f
GR
GS
10.0 ML
0.5 LW
N
407.082 384 M
407.082 241.119 L
419.978 241.119 L
419.978 384 L
cp
S
GR
GS
10.0 ML
0.5 LW
N
423.202 384 M
423.202 269.053 L
436.099 269.053 L
436.099 384 L
cp
S
GR
GS
10.0 ML
0.5 LW
N
439.323 384 M
439.323 289.688 L
452.219 289.688 L
452.219 384 L
cp
S
GR
GS
1 LJ
2 LW
N
413.53 274.336 M
413.53 207.903 L
S
GR
GS
1 LJ
2 LW
N
429.651 288.091 M
429.651 250.016 L
S
GR
GS
1 LJ
2 LW
N
445.771 309.379 M
445.771 269.997 L
S
GR
GS
1 LJ
2 LW
N
413.208 274.336 M
413.853 274.336 L
S
GR
GS
1 LJ
2 LW
N
429.328 288.091 M
429.973 288.091 L
S
GR
GS
1 LJ
2 LW
N
445.449 309.379 M
446.094 309.379 L
S
GR
GS
1 LJ
2 LW
N
413.208 207.903 M
413.853 207.903 L
S
GR
GS
1 LJ
2 LW
N
429.328 250.016 M
429.973 250.016 L
S
GR
GS
1 LJ
2 LW
N
445.449 269.997 M
446.094 269.997 L
S
GR
GS
[1 0 0 1 413.53012 241.11931] CT
N
1 0 M
1 0.552 0.552 1 0 1 C
-0.552 1 -1 0.552 -1 0 C
-1 -0.552 -0.552 -1 0 -1 C
0.552 -1 1 -0.552 1 0 C
cp
f
GR
GS
[1 0 0 1 429.6506 269.05316] CT
N
1 0 M
1 0.552 0.552 1 0 1 C
-0.552 1 -1 0.552 -1 0 C
-1 -0.552 -0.552 -1 0 -1 C
0.552 -1 1 -0.552 1 0 C
cp
f
GR
GS
[1 0 0 1 445.77109 289.68814] CT
N
1 0 M
1 0.552 0.552 1 0 1 C
-0.552 1 -1 0.552 -1 0 C
-1 -0.552 -0.552 -1 0 -1 C
0.552 -1 1 -0.552 1 0 C
cp
f
GR
GS
0.502 0.502 1 RC
N
460.817 384 M
473.713 384 L
473.713 283.497 L
460.817 283.497 L
cp
f
GR
GS
10.0 ML
0.5 LW
N
460.817 384 M
460.817 283.497 L
473.713 283.497 L
473.713 384 L
cp
S
GR
GS
1 LJ
2 LW
N
467.265 302.676 M
467.265 264.317 L
S
GR
GS
1 LJ
2 LW
N
466.405 302.676 M
468.125 302.676 L
S
GR
GS
1 LJ
2 LW
N
466.405 264.317 M
468.125 264.317 L
S
GR
GS
[1 0 0 1 467.26505 283.49667] CT
N
1 0 M
1 0.552 0.552 1 0 1 C
-0.552 1 -1 0.552 -1 0 C
-1 -0.552 -0.552 -1 0 -1 C
0.552 -1 1 -0.552 1 0 C
cp
f
GR
GS
0 0.502 0.502 RC
N
482.311 384 M
495.207 384 L
495.207 320.952 L
482.311 320.952 L
cp
f
GR
GS
10.0 ML
0.5 LW
N
482.311 384 M
482.311 320.952 L
495.207 320.952 L
495.207 384 L
cp
S
GR
GS
1 LJ
2 LW
N
488.759 331.33 M
488.759 310.573 L
S
GR
GS
1 LJ
2 LW
N
488.114 331.33 M
489.404 331.33 L
S
GR
GS
1 LJ
2 LW
N
488.114 310.573 M
489.404 310.573 L
S
GR
GS
[1 0 0 1 488.75906 320.95166] CT
N
1 0 M
1 0.552 0.552 1 0 1 C
-0.552 1 -1 0.552 -1 0 C
-1 -0.552 -0.552 -1 0 -1 C
0.552 -1 1 -0.552 1 0 C
cp
f
GR
GS
[1 0 0 1 382 51.5] CT
/Helvetica 14 F
GS
[1 0 0 1 0 0] CT
0 3.5 moveto 
1 -1 scale
(Signer-indep.) t 
GR
GR
GS
1 1 0 RC
N
349 57.25 M
349 45.75 L
379 45.75 L
379 57.25 L
cp
f
GR
GS
10.0 ML
0.5 LW
N
349 57.25 M
349 45.75 L
379 45.75 L
379 57.25 L
cp
S
GR
GS
[1 0 0 1 382 67] CT
/Helvetica 14 F
GS
[1 0 0 1 0 0] CT
0 3.5 moveto 
1 -1 scale
(LIN+LON FA) t 
GR
GR
GS
0.502 0.502 0 RC
N
349 72.75 M
349 61.25 L
379 61.25 L
379 72.75 L
cp
f
GR
GS
10.0 ML
0.5 LW
N
349 72.75 M
349 61.25 L
379 61.25 L
379 72.75 L
cp
S
GR
GS
[1 0 0 1 382 82.5] CT
/Helvetica 14 F
GS
[1 0 0 1 0 0] CT
0 3.5 moveto 
1 -1 scale
(LIN+UP FA) t 
GR
GR
GS
0 0 1 RC
N
349 88.25 M
349 76.75 L
379 76.75 L
379 88.25 L
cp
f
GR
GS
10.0 ML
0.5 LW
N
349 88.25 M
349 76.75 L
379 76.75 L
379 88.25 L
cp
S
GR
GS
[1 0 0 1 382 98] CT
/Helvetica 14 F
GS
[1 0 0 1 0 0] CT
0 3.5 moveto 
1 -1 scale
(FT FA) t 
GR
GR
GS
1 0.502 0 RC
N
349 103.75 M
349 92.25 L
379 92.25 L
379 103.75 L
cp
f
GR
GS
10.0 ML
0.5 LW
N
349 103.75 M
349 92.25 L
379 92.25 L
379 103.75 L
cp
S
GR
GS
[1 0 0 1 382 113.5] CT
/Helvetica 14 F
GS
[1 0 0 1 0 0] CT
0 3.5 moveto 
1 -1 scale
(LIN+LON GT) t 
GR
GR
GS
1 0 0 RC
N
349 119.25 M
349 107.75 L
379 107.75 L
379 119.25 L
cp
f
GR
GS
10.0 ML
0.5 LW
N
349 119.25 M
349 107.75 L
379 107.75 L
379 119.25 L
cp
S
GR
GS
[1 0 0 1 382 129] CT
/Helvetica 14 F
GS
[1 0 0 1 0 0] CT
0 3.5 moveto 
1 -1 scale
(LIN+UP GT) t 
GR
GR
GS
0 1 0 RC
N
349 134.75 M
349 123.25 L
379 123.25 L
379 134.75 L
cp
f
GR
GS
10.0 ML
0.5 LW
N
349 134.75 M
349 123.25 L
379 123.25 L
379 134.75 L
cp
S
GR
GS
[1 0 0 1 382 144.5] CT
/Helvetica 14 F
GS
[1 0 0 1 0 0] CT
0 3.5 moveto 
1 -1 scale
(FT GT) t 
GR
GR
GS
1 0 1 RC
N
349 150.25 M
349 138.75 L
379 138.75 L
379 150.25 L
cp
f
GR
GS
10.0 ML
0.5 LW
N
349 150.25 M
349 138.75 L
379 138.75 L
379 150.25 L
cp
S
GR
GS
[1 0 0 1 382 160] CT
/Helvetica 14 F
GS
[1 0 0 1 0 0] CT
0 3.5 moveto 
1 -1 scale
(Train on adapt. data) t 
GR
GR
GS
0.502 0.502 1 RC
N
349 165.75 M
349 154.25 L
379 154.25 L
379 165.75 L
cp
f
GR
GS
10.0 ML
0.5 LW
N
349 165.75 M
349 154.25 L
379 154.25 L
379 165.75 L
cp
S
GR
GS
[1 0 0 1 382 175.5] CT
/Helvetica 14 F
GS
[1 0 0 1 0 0] CT
0 3.5 moveto 
1 -1 scale
(Signer-dep.) t 
GR
GR
GS
0 0.502 0.502 RC
N
349 181.25 M
349 169.75 L
379 169.75 L
379 181.25 L
cp
f
GR
GS
10.0 ML
0.5 LW
N
349 181.25 M
349 169.75 L
379 169.75 L
379 181.25 L
cp
S
GR
%%Trailer
%%Pages: 1
%%EOF
