%!PS-Adobe-3.0 EPSF-3.0
%%Creator: (MATLAB, The Mathworks, Inc. Version 8.6.0.267246 \(R2015b\). Operating System: Mac OS X)
%%Title: ./adapt_fer.eps
%%CreationDate: 2016-04-19T22:45:28
%%Pages: (atend)
%%BoundingBox:    29    26   522   401
%%LanguageLevel: 3
%%EndComments
%%BeginProlog
%%BeginResource: procset (Apache XML Graphics Std ProcSet) 1.2 0
%%Version: 1.2 0
%%Copyright: (Copyright 2001-2003,2010 The Apache Software Foundation. License terms: http://www.apache.org/licenses/LICENSE-2.0)
/bd{bind def}bind def
/ld{load def}bd
/GR/grestore ld
/M/moveto ld
/LJ/setlinejoin ld
/C/curveto ld
/f/fill ld
/LW/setlinewidth ld
/GC/setgray ld
/t/show ld
/N/newpath ld
/CT/concat ld
/cp/closepath ld
/S/stroke ld
/L/lineto ld
/CC/setcmykcolor ld
/A/ashow ld
/GS/gsave ld
/RC/setrgbcolor ld
/RM/rmoveto ld
/ML/setmiterlimit ld
/re {4 2 roll M
1 index 0 rlineto
0 exch rlineto
neg 0 rlineto
cp } bd
/_ctm matrix def
/_tm matrix def
/BT { _ctm currentmatrix pop matrix _tm copy pop 0 0 moveto } bd
/ET { _ctm setmatrix } bd
/iTm { _ctm setmatrix _tm concat } bd
/Tm { _tm astore pop iTm 0 0 moveto } bd
/ux 0.0 def
/uy 0.0 def
/F {
  /Tp exch def
  /Tf exch def
  Tf findfont Tp scalefont setfont
  /cf Tf def  /cs Tp def
} bd
/ULS {currentpoint /uy exch def /ux exch def} bd
/ULE {
  /Tcx currentpoint pop def
  gsave
  newpath
  cf findfont cs scalefont dup
  /FontMatrix get 0 get /Ts exch def /FontInfo get dup
  /UnderlinePosition get Ts mul /To exch def
  /UnderlineThickness get Ts mul /Tt exch def
  ux uy To add moveto  Tcx uy To add lineto
  Tt setlinewidth stroke
  grestore
} bd
/OLE {
  /Tcx currentpoint pop def
  gsave
  newpath
  cf findfont cs scalefont dup
  /FontMatrix get 0 get /Ts exch def /FontInfo get dup
  /UnderlinePosition get Ts mul /To exch def
  /UnderlineThickness get Ts mul /Tt exch def
  ux uy To add cs add moveto Tcx uy To add cs add lineto
  Tt setlinewidth stroke
  grestore
} bd
/SOE {
  /Tcx currentpoint pop def
  gsave
  newpath
  cf findfont cs scalefont dup
  /FontMatrix get 0 get /Ts exch def /FontInfo get dup
  /UnderlinePosition get Ts mul /To exch def
  /UnderlineThickness get Ts mul /Tt exch def
  ux uy To add cs 10 mul 26 idiv add moveto Tcx uy To add cs 10 mul 26 idiv add lineto
  Tt setlinewidth stroke
  grestore
} bd
/QT {
/Y22 exch store
/X22 exch store
/Y21 exch store
/X21 exch store
currentpoint
/Y21 load 2 mul add 3 div exch
/X21 load 2 mul add 3 div exch
/X21 load 2 mul /X22 load add 3 div
/Y21 load 2 mul /Y22 load add 3 div
/X22 load /Y22 load curveto
} bd
/SSPD {
dup length /d exch dict def
{
/v exch def
/k exch def
currentpagedevice k known {
/cpdv currentpagedevice k get def
v cpdv ne {
/upd false def
/nullv v type /nulltype eq def
/nullcpdv cpdv type /nulltype eq def
nullv nullcpdv or
{
/upd true def
} {
/sametype v type cpdv type eq def
sametype {
v type /arraytype eq {
/vlen v length def
/cpdvlen cpdv length def
vlen cpdvlen eq {
0 1 vlen 1 sub {
/i exch def
/obj v i get def
/cpdobj cpdv i get def
obj cpdobj ne {
/upd true def
exit
} if
} for
} {
/upd true def
} ifelse
} {
v type /dicttype eq {
v {
/dv exch def
/dk exch def
/cpddv cpdv dk get def
dv cpddv ne {
/upd true def
exit
} if
} forall
} {
/upd true def
} ifelse
} ifelse
} if
} ifelse
upd true eq {
d k v put
} if
} if
} if
} forall
d length 0 gt {
d setpagedevice
} if
} bd
%%EndResource
%%BeginResource: procset (Apache XML Graphics EPS ProcSet) 1.0 0
%%Version: 1.0 0
%%Copyright: (Copyright 2002-2003 The Apache Software Foundation. License terms: http://www.apache.org/licenses/LICENSE-2.0)
/BeginEPSF { %def
/b4_Inc_state save def         % Save state for cleanup
/dict_count countdictstack def % Count objects on dict stack
/op_count count 1 sub def      % Count objects on operand stack
userdict begin                 % Push userdict on dict stack
/showpage { } def              % Redefine showpage, { } = null proc
0 setgray 0 setlinecap         % Prepare graphics state
1 setlinewidth 0 setlinejoin
10 setmiterlimit [ ] 0 setdash newpath
/languagelevel where           % If level not equal to 1 then
{pop languagelevel             % set strokeadjust and
1 ne                           % overprint to their defaults.
{false setstrokeadjust false setoverprint
} if
} if
} bd
/EndEPSF { %def
count op_count sub {pop} repeat            % Clean up stacks
countdictstack dict_count sub {end} repeat
b4_Inc_state restore
} bd
%%EndResource
%FOPBeginFontDict
%%IncludeResource: font Courier-Bold
%%IncludeResource: font Helvetica
%%IncludeResource: font Courier-BoldOblique
%%IncludeResource: font Courier-Oblique
%%IncludeResource: font Times-Roman
%%IncludeResource: font Helvetica-BoldOblique
%%IncludeResource: font Helvetica-Bold
%%IncludeResource: font Helvetica-Oblique
%%IncludeResource: font Times-BoldItalic
%%IncludeResource: font Courier
%%IncludeResource: font Times-Italic
%%IncludeResource: font Times-Bold
%%IncludeResource: font Symbol
%%IncludeResource: font ZapfDingbats
%FOPEndFontDict
%%BeginResource: encoding WinAnsiEncoding
/WinAnsiEncoding [
/.notdef /.notdef /.notdef /.notdef /.notdef
/.notdef /.notdef /.notdef /.notdef /.notdef
/.notdef /.notdef /.notdef /.notdef /.notdef
/.notdef /.notdef /.notdef /.notdef /.notdef
/.notdef /.notdef /.notdef /.notdef /.notdef
/.notdef /.notdef /.notdef /.notdef /.notdef
/.notdef /.notdef /space /exclam /quotedbl
/numbersign /dollar /percent /ampersand /quotesingle
/parenleft /parenright /asterisk /plus /comma
/hyphen /period /slash /zero /one
/two /three /four /five /six
/seven /eight /nine /colon /semicolon
/less /equal /greater /question /at
/A /B /C /D /E
/F /G /H /I /J
/K /L /M /N /O
/P /Q /R /S /T
/U /V /W /X /Y
/Z /bracketleft /backslash /bracketright /asciicircum
/underscore /quoteleft /a /b /c
/d /e /f /g /h
/i /j /k /l /m
/n /o /p /q /r
/s /t /u /v /w
/x /y /z /braceleft /bar
/braceright /asciitilde /bullet /Euro /bullet
/quotesinglbase /florin /quotedblbase /ellipsis /dagger
/daggerdbl /circumflex /perthousand /Scaron /guilsinglleft
/OE /bullet /Zcaron /bullet /bullet
/quoteleft /quoteright /quotedblleft /quotedblright /bullet
/endash /emdash /asciitilde /trademark /scaron
/guilsinglright /oe /bullet /zcaron /Ydieresis
/space /exclamdown /cent /sterling /currency
/yen /brokenbar /section /dieresis /copyright
/ordfeminine /guillemotleft /logicalnot /sfthyphen /registered
/macron /degree /plusminus /twosuperior /threesuperior
/acute /mu /paragraph /middot /cedilla
/onesuperior /ordmasculine /guillemotright /onequarter /onehalf
/threequarters /questiondown /Agrave /Aacute /Acircumflex
/Atilde /Adieresis /Aring /AE /Ccedilla
/Egrave /Eacute /Ecircumflex /Edieresis /Igrave
/Iacute /Icircumflex /Idieresis /Eth /Ntilde
/Ograve /Oacute /Ocircumflex /Otilde /Odieresis
/multiply /Oslash /Ugrave /Uacute /Ucircumflex
/Udieresis /Yacute /Thorn /germandbls /agrave
/aacute /acircumflex /atilde /adieresis /aring
/ae /ccedilla /egrave /eacute /ecircumflex
/edieresis /igrave /iacute /icircumflex /idieresis
/eth /ntilde /ograve /oacute /ocircumflex
/otilde /odieresis /divide /oslash /ugrave
/uacute /ucircumflex /udieresis /yacute /thorn
/ydieresis
] def
%%EndResource
%FOPBeginFontReencode
/Courier-Bold findfont
dup length dict begin
  {1 index /FID ne {def} {pop pop} ifelse} forall
  /Encoding WinAnsiEncoding def
  currentdict
end
/Courier-Bold exch definefont pop
/Helvetica findfont
dup length dict begin
  {1 index /FID ne {def} {pop pop} ifelse} forall
  /Encoding WinAnsiEncoding def
  currentdict
end
/Helvetica exch definefont pop
/Courier-BoldOblique findfont
dup length dict begin
  {1 index /FID ne {def} {pop pop} ifelse} forall
  /Encoding WinAnsiEncoding def
  currentdict
end
/Courier-BoldOblique exch definefont pop
/Courier-Oblique findfont
dup length dict begin
  {1 index /FID ne {def} {pop pop} ifelse} forall
  /Encoding WinAnsiEncoding def
  currentdict
end
/Courier-Oblique exch definefont pop
/Times-Roman findfont
dup length dict begin
  {1 index /FID ne {def} {pop pop} ifelse} forall
  /Encoding WinAnsiEncoding def
  currentdict
end
/Times-Roman exch definefont pop
/Helvetica-BoldOblique findfont
dup length dict begin
  {1 index /FID ne {def} {pop pop} ifelse} forall
  /Encoding WinAnsiEncoding def
  currentdict
end
/Helvetica-BoldOblique exch definefont pop
/Helvetica-Bold findfont
dup length dict begin
  {1 index /FID ne {def} {pop pop} ifelse} forall
  /Encoding WinAnsiEncoding def
  currentdict
end
/Helvetica-Bold exch definefont pop
/Helvetica-Oblique findfont
dup length dict begin
  {1 index /FID ne {def} {pop pop} ifelse} forall
  /Encoding WinAnsiEncoding def
  currentdict
end
/Helvetica-Oblique exch definefont pop
/Times-BoldItalic findfont
dup length dict begin
  {1 index /FID ne {def} {pop pop} ifelse} forall
  /Encoding WinAnsiEncoding def
  currentdict
end
/Times-BoldItalic exch definefont pop
/Courier findfont
dup length dict begin
  {1 index /FID ne {def} {pop pop} ifelse} forall
  /Encoding WinAnsiEncoding def
  currentdict
end
/Courier exch definefont pop
/Times-Italic findfont
dup length dict begin
  {1 index /FID ne {def} {pop pop} ifelse} forall
  /Encoding WinAnsiEncoding def
  currentdict
end
/Times-Italic exch definefont pop
/Times-Bold findfont
dup length dict begin
  {1 index /FID ne {def} {pop pop} ifelse} forall
  /Encoding WinAnsiEncoding def
  currentdict
end
/Times-Bold exch definefont pop
%FOPEndFontReencode
%%EndProlog
%%Page: 1 1
%%PageBoundingBox: 0 0 576 432
%%BeginPageSetup
[1 0 0 -1 0 432] CT
%%EndPageSetup
GS
1 GC
N
0 0 576 432 re
f
GR
GS
1 GC
N
0 0 576 432 re
f
GR
GS
1 GC
N
75 384 M
521 384 L
521 32 L
75 32 L
cp
f
GR
GS
0.149 GC
2 setlinecap
1 LJ
0.5 LW
N
75 384 M
521 384 L
S
GR
GS
0.149 GC
2 setlinecap
1 LJ
0.5 LW
N
75 32 M
521 32 L
S
GR
GS
0.149 GC
2 setlinecap
1 LJ
0.5 LW
N
138.714 384 M
138.714 379.54 L
S
GR
GS
0.149 GC
2 setlinecap
1 LJ
0.5 LW
N
167.032 384 M
167.032 379.54 L
S
GR
GS
0.149 GC
2 setlinecap
1 LJ
0.5 LW
N
188.27 384 M
188.27 379.54 L
S
GR
GS
0.149 GC
2 setlinecap
1 LJ
0.5 LW
N
209.508 384 M
209.508 379.54 L
S
GR
GS
0.149 GC
2 setlinecap
1 LJ
0.5 LW
N
237.825 384 M
237.825 379.54 L
S
GR
GS
0.149 GC
2 setlinecap
1 LJ
0.5 LW
N
259.064 384 M
259.064 379.54 L
S
GR
GS
0.149 GC
2 setlinecap
1 LJ
0.5 LW
N
280.302 384 M
280.302 379.54 L
S
GR
GS
0.149 GC
2 setlinecap
1 LJ
0.5 LW
N
351.095 384 M
351.095 379.54 L
S
GR
GS
0.149 GC
2 setlinecap
1 LJ
0.5 LW
N
379.413 384 M
379.413 379.54 L
S
GR
GS
0.149 GC
2 setlinecap
1 LJ
0.5 LW
N
400.651 384 M
400.651 379.54 L
S
GR
GS
0.149 GC
2 setlinecap
1 LJ
0.5 LW
N
421.889 384 M
421.889 379.54 L
S
GR
GS
0.149 GC
2 setlinecap
1 LJ
0.5 LW
N
450.206 384 M
450.206 379.54 L
S
GR
GS
0.149 GC
2 setlinecap
1 LJ
0.5 LW
N
471.444 384 M
471.444 379.54 L
S
GR
GS
0.149 GC
2 setlinecap
1 LJ
0.5 LW
N
492.683 384 M
492.683 379.54 L
S
GR
GS
0.149 GC
2 setlinecap
1 LJ
0.5 LW
N
138.714 32 M
138.714 36.46 L
S
GR
GS
0.149 GC
2 setlinecap
1 LJ
0.5 LW
N
167.032 32 M
167.032 36.46 L
S
GR
GS
0.149 GC
2 setlinecap
1 LJ
0.5 LW
N
188.27 32 M
188.27 36.46 L
S
GR
GS
0.149 GC
2 setlinecap
1 LJ
0.5 LW
N
209.508 32 M
209.508 36.46 L
S
GR
GS
0.149 GC
2 setlinecap
1 LJ
0.5 LW
N
237.825 32 M
237.825 36.46 L
S
GR
GS
0.149 GC
2 setlinecap
1 LJ
0.5 LW
N
259.064 32 M
259.064 36.46 L
S
GR
GS
0.149 GC
2 setlinecap
1 LJ
0.5 LW
N
280.302 32 M
280.302 36.46 L
S
GR
GS
0.149 GC
2 setlinecap
1 LJ
0.5 LW
N
351.095 32 M
351.095 36.46 L
S
GR
GS
0.149 GC
2 setlinecap
1 LJ
0.5 LW
N
379.413 32 M
379.413 36.46 L
S
GR
GS
0.149 GC
2 setlinecap
1 LJ
0.5 LW
N
400.651 32 M
400.651 36.46 L
S
GR
GS
0.149 GC
2 setlinecap
1 LJ
0.5 LW
N
421.889 32 M
421.889 36.46 L
S
GR
GS
0.149 GC
2 setlinecap
1 LJ
0.5 LW
N
450.206 32 M
450.206 36.46 L
S
GR
GS
0.149 GC
2 setlinecap
1 LJ
0.5 LW
N
471.444 32 M
471.444 36.46 L
S
GR
GS
0.149 GC
2 setlinecap
1 LJ
0.5 LW
N
492.683 32 M
492.683 36.46 L
S
GR
GS
[1 0 0 1 138.71428 389.20001] CT
0.149 GC
/Helvetica 16 F
GS
[1 0 0 1 0 0] CT
-4.5 13 moveto 
1 -1 scale
(0) t 
GR
GR
GS
[1 0 0 1 167.03175 389.20001] CT
0.149 GC
/Helvetica 16 F
GS
[1 0 0 1 0 0] CT
-4.5 13 moveto 
1 -1 scale
(1) t 
GR
GR
GS
[1 0 0 1 188.26984 389.20001] CT
0.149 GC
/Helvetica 16 F
GS
[1 0 0 1 0 0] CT
-4.5 13 moveto 
1 -1 scale
(2) t 
GR
GR
GS
[1 0 0 1 209.50793 389.20001] CT
0.149 GC
/Helvetica 16 F
GS
[1 0 0 1 0 0] CT
-4.5 13 moveto 
1 -1 scale
(3) t 
GR
GR
GS
[1 0 0 1 237.82539 389.20001] CT
0.149 GC
/Helvetica 16 F
GS
[1 0 0 1 0 0] CT
-4.5 13 moveto 
1 -1 scale
(1) t 
GR
GR
GS
[1 0 0 1 259.06351 389.20001] CT
0.149 GC
/Helvetica 16 F
GS
[1 0 0 1 0 0] CT
-4.5 13 moveto 
1 -1 scale
(2) t 
GR
GR
GS
[1 0 0 1 280.30157 389.20001] CT
0.149 GC
/Helvetica 16 F
GS
[1 0 0 1 0 0] CT
-4.5 13 moveto 
1 -1 scale
(3) t 
GR
GR
GS
[1 0 0 1 351.09525 389.20001] CT
0.149 GC
/Helvetica 16 F
GS
[1 0 0 1 0 0] CT
-4.5 13 moveto 
1 -1 scale
(0) t 
GR
GR
GS
[1 0 0 1 379.41269 389.20001] CT
0.149 GC
/Helvetica 16 F
GS
[1 0 0 1 0 0] CT
-4.5 13 moveto 
1 -1 scale
(1) t 
GR
GR
GS
[1 0 0 1 400.65079 389.20001] CT
0.149 GC
/Helvetica 16 F
GS
[1 0 0 1 0 0] CT
-4.5 13 moveto 
1 -1 scale
(2) t 
GR
GR
GS
[1 0 0 1 421.88892 389.20001] CT
0.149 GC
/Helvetica 16 F
GS
[1 0 0 1 0 0] CT
-4.5 13 moveto 
1 -1 scale
(3) t 
GR
GR
GS
[1 0 0 1 450.20633 389.20001] CT
0.149 GC
/Helvetica 16 F
GS
[1 0 0 1 0 0] CT
-4.5 13 moveto 
1 -1 scale
(1) t 
GR
GR
GS
[1 0 0 1 471.44446 389.20001] CT
0.149 GC
/Helvetica 16 F
GS
[1 0 0 1 0 0] CT
-4.5 13 moveto 
1 -1 scale
(2) t 
GR
GR
GS
[1 0 0 1 492.68256 389.20001] CT
0.149 GC
/Helvetica 16 F
GS
[1 0 0 1 0 0] CT
-4.5 13 moveto 
1 -1 scale
(3) t 
GR
GR
GS
0.149 GC
2 setlinecap
1 LJ
0.5 LW
N
75 384 M
75 32 L
S
GR
GS
0.149 GC
2 setlinecap
1 LJ
0.5 LW
N
521 384 M
521 32 L
S
GR
GS
0.149 GC
2 setlinecap
1 LJ
0.5 LW
N
75 384 M
79.46 384 L
S
GR
GS
0.149 GC
2 setlinecap
1 LJ
0.5 LW
N
75 343.07 M
79.46 343.07 L
S
GR
GS
0.149 GC
2 setlinecap
1 LJ
0.5 LW
N
75 302.14 M
79.46 302.14 L
S
GR
GS
0.149 GC
2 setlinecap
1 LJ
0.5 LW
N
75 261.209 M
79.46 261.209 L
S
GR
GS
0.149 GC
2 setlinecap
1 LJ
0.5 LW
N
75 220.279 M
79.46 220.279 L
S
GR
GS
0.149 GC
2 setlinecap
1 LJ
0.5 LW
N
75 179.349 M
79.46 179.349 L
S
GR
GS
0.149 GC
2 setlinecap
1 LJ
0.5 LW
N
75 138.419 M
79.46 138.419 L
S
GR
GS
0.149 GC
2 setlinecap
1 LJ
0.5 LW
N
75 97.488 M
79.46 97.488 L
S
GR
GS
0.149 GC
2 setlinecap
1 LJ
0.5 LW
N
75 56.558 M
79.46 56.558 L
S
GR
GS
0.149 GC
2 setlinecap
1 LJ
0.5 LW
N
521 384 M
516.54 384 L
S
GR
GS
0.149 GC
2 setlinecap
1 LJ
0.5 LW
N
521 343.07 M
516.54 343.07 L
S
GR
GS
0.149 GC
2 setlinecap
1 LJ
0.5 LW
N
521 302.14 M
516.54 302.14 L
S
GR
GS
0.149 GC
2 setlinecap
1 LJ
0.5 LW
N
521 261.209 M
516.54 261.209 L
S
GR
GS
0.149 GC
2 setlinecap
1 LJ
0.5 LW
N
521 220.279 M
516.54 220.279 L
S
GR
GS
0.149 GC
2 setlinecap
1 LJ
0.5 LW
N
521 179.349 M
516.54 179.349 L
S
GR
GS
0.149 GC
2 setlinecap
1 LJ
0.5 LW
N
521 138.419 M
516.54 138.419 L
S
GR
GS
0.149 GC
2 setlinecap
1 LJ
0.5 LW
N
521 97.488 M
516.54 97.488 L
S
GR
GS
0.149 GC
2 setlinecap
1 LJ
0.5 LW
N
521 56.558 M
516.54 56.558 L
S
GR
GS
[1 0 0 1 69.8 384] CT
0.149 GC
/Helvetica 16 F
GS
[1 0 0 1 0 0] CT
-9 4.5 moveto 
1 -1 scale
(0) t 
GR
GR
GS
[1 0 0 1 69.8 343.06976] CT
0.149 GC
/Helvetica 16 F
GS
[1 0 0 1 0 0] CT
-9 4.5 moveto 
1 -1 scale
(5) t 
GR
GR
GS
[1 0 0 1 69.8 302.13953] CT
0.149 GC
/Helvetica 16 F
GS
[1 0 0 1 0 0] CT
-18 4.5 moveto 
1 -1 scale
(10) t 
GR
GR
GS
[1 0 0 1 69.8 261.20929] CT
0.149 GC
/Helvetica 16 F
GS
[1 0 0 1 0 0] CT
-18 4.5 moveto 
1 -1 scale
(15) t 
GR
GR
GS
[1 0 0 1 69.8 220.27907] CT
0.149 GC
/Helvetica 16 F
GS
[1 0 0 1 0 0] CT
-18 4.5 moveto 
1 -1 scale
(20) t 
GR
GR
GS
[1 0 0 1 69.8 179.34883] CT
0.149 GC
/Helvetica 16 F
GS
[1 0 0 1 0 0] CT
-18 4.5 moveto 
1 -1 scale
(25) t 
GR
GR
GS
[1 0 0 1 69.8 138.41861] CT
0.149 GC
/Helvetica 16 F
GS
[1 0 0 1 0 0] CT
-18 4.5 moveto 
1 -1 scale
(30) t 
GR
GR
GS
[1 0 0 1 69.8 97.48837] CT
0.149 GC
/Helvetica 16 F
GS
[1 0 0 1 0 0] CT
-18 4.5 moveto 
1 -1 scale
(35) t 
GR
GR
GS
[1 0 0 1 69.8 56.55814] CT
0.149 GC
/Helvetica 16 F
GS
[1 0 0 1 0 0] CT
-18 4.5 moveto 
1 -1 scale
(40) t 
GR
GR
GS
[0 -1 1 0 48.8 207.99983] CT
0.149 GC
/Helvetica 18 F
GS
[1 0 0 1 0 0] CT
-82.5 -5 moveto 
1 -1 scale
(Frame error rate \(%\)) t 
GR
GR
GS
0.149 GC
1 LJ
0.5 LW
N
75 384 M
521 384 L
S
GR
GS
1 1 0 RC
N
129.275 384 M
148.153 384 L
148.153 98.532 L
129.275 98.532 L
cp
f
GR
GS
10.0 ML
0.5 LW
N
129.275 384 M
129.275 98.532 L
148.153 98.532 L
148.153 384 L
cp
S
GR
GS
1 LJ
2 LW
N
138.714 152.546 M
138.714 44.518 L
S
GR
GS
1 LJ
2 LW
N
137.794 152.546 M
139.635 152.546 L
S
GR
GS
1 LJ
2 LW
N
137.794 44.518 M
139.635 44.518 L
S
GR
GS
[1 0 0 1 138.71428 98.53202] CT
N
1 0 M
1 0.552 0.552 1 0 1 C
-0.552 1 -1 0.552 -1 0 C
-1 -0.552 -0.552 -1 0 -1 C
0.552 -1 1 -0.552 1 0 C
cp
f
GR
GS
1 0 0 RC
N
158.537 384 M
175.527 384 L
175.527 181.925 L
158.537 181.925 L
cp
f
GR
GS
1 0 0 RC
N
179.775 384 M
196.765 384 L
196.765 216.416 L
179.775 216.416 L
cp
f
GR
GS
1 0 0 RC
N
201.013 384 M
218.003 384 L
218.003 224.236 L
201.013 224.236 L
cp
f
GR
GS
10.0 ML
0.5 LW
N
158.537 384 M
158.537 181.925 L
175.527 181.925 L
175.527 384 L
cp
S
GR
GS
10.0 ML
0.5 LW
N
179.775 384 M
179.775 216.416 L
196.765 216.416 L
196.765 384 L
cp
S
GR
GS
10.0 ML
0.5 LW
N
201.013 384 M
201.013 224.236 L
218.003 224.236 L
218.003 384 L
cp
S
GR
GS
1 LJ
2 LW
N
167.032 231.933 M
167.032 131.917 L
S
GR
GS
1 LJ
2 LW
N
188.27 244.52 M
188.27 188.311 L
S
GR
GS
1 LJ
2 LW
N
209.508 247.946 M
209.508 200.526 L
S
GR
GS
1 LJ
2 LW
N
166.607 231.933 M
167.457 231.933 L
S
GR
GS
1 LJ
2 LW
N
187.845 244.52 M
188.695 244.52 L
S
GR
GS
1 LJ
2 LW
N
209.083 247.946 M
209.933 247.946 L
S
GR
GS
1 LJ
2 LW
N
166.607 131.917 M
167.457 131.917 L
S
GR
GS
1 LJ
2 LW
N
187.845 188.311 M
188.695 188.311 L
S
GR
GS
1 LJ
2 LW
N
209.083 200.526 M
209.933 200.526 L
S
GR
GS
[1 0 0 1 167.03175 181.92534] CT
N
1 0 M
1 0.552 0.552 1 0 1 C
-0.552 1 -1 0.552 -1 0 C
-1 -0.552 -0.552 -1 0 -1 C
0.552 -1 1 -0.552 1 0 C
cp
f
GR
GS
[1 0 0 1 188.26984 216.4156] CT
N
1 0 M
1 0.552 0.552 1 0 1 C
-0.552 1 -1 0.552 -1 0 C
-1 -0.552 -0.552 -1 0 -1 C
0.552 -1 1 -0.552 1 0 C
cp
f
GR
GS
[1 0 0 1 209.50793 224.2361] CT
N
1 0 M
1 0.552 0.552 1 0 1 C
-0.552 1 -1 0.552 -1 0 C
-1 -0.552 -0.552 -1 0 -1 C
0.552 -1 1 -0.552 1 0 C
cp
f
GR
GS
0 0 1 RC
N
229.33 384 M
246.321 384 L
246.321 224.505 L
229.33 224.505 L
cp
f
GR
GS
0 0 1 RC
N
250.568 384 M
267.559 384 L
267.559 255.687 L
250.568 255.687 L
cp
f
GR
GS
0 0 1 RC
N
271.806 384 M
288.797 384 L
288.797 278.722 L
271.806 278.722 L
cp
f
GR
GS
10.0 ML
0.5 LW
N
229.33 384 M
229.33 224.505 L
246.321 224.505 L
246.321 384 L
cp
S
GR
GS
10.0 ML
0.5 LW
N
250.568 384 M
250.568 255.687 L
267.559 255.687 L
267.559 384 L
cp
S
GR
GS
10.0 ML
0.5 LW
N
271.806 384 M
271.806 278.722 L
288.797 278.722 L
288.797 384 L
cp
S
GR
GS
1 LJ
2 LW
N
237.825 261.584 M
237.825 187.426 L
S
GR
GS
1 LJ
2 LW
N
259.064 276.938 M
259.064 234.436 L
S
GR
GS
1 LJ
2 LW
N
280.302 300.702 M
280.302 256.741 L
S
GR
GS
1 LJ
2 LW
N
237.401 261.584 M
238.25 261.584 L
S
GR
GS
1 LJ
2 LW
N
258.639 276.938 M
259.488 276.938 L
S
GR
GS
1 LJ
2 LW
N
279.877 300.702 M
280.726 300.702 L
S
GR
GS
1 LJ
2 LW
N
237.401 187.426 M
238.25 187.426 L
S
GR
GS
1 LJ
2 LW
N
258.639 234.436 M
259.488 234.436 L
S
GR
GS
1 LJ
2 LW
N
279.877 256.741 M
280.726 256.741 L
S
GR
GS
[1 0 0 1 237.82539 224.50528] CT
N
1 0 M
1 0.552 0.552 1 0 1 C
-0.552 1 -1 0.552 -1 0 C
-1 -0.552 -0.552 -1 0 -1 C
0.552 -1 1 -0.552 1 0 C
cp
f
GR
GS
[1 0 0 1 259.06351 255.68727] CT
N
1 0 M
1 0.552 0.552 1 0 1 C
-0.552 1 -1 0.552 -1 0 C
-1 -0.552 -0.552 -1 0 -1 C
0.552 -1 1 -0.552 1 0 C
cp
f
GR
GS
[1 0 0 1 280.30157 278.72165] CT
N
1 0 M
1 0.552 0.552 1 0 1 C
-0.552 1 -1 0.552 -1 0 C
-1 -0.552 -0.552 -1 0 -1 C
0.552 -1 1 -0.552 1 0 C
cp
f
GR
GS
1 1 0 RC
N
341.656 384 M
360.534 384 L
360.534 213.383 L
341.656 213.383 L
cp
f
GR
GS
10.0 ML
0.5 LW
N
341.656 384 M
341.656 213.383 L
360.534 213.383 L
360.534 384 L
cp
S
GR
GS
1 LJ
2 LW
N
351.095 232.242 M
351.095 194.524 L
S
GR
GS
1 LJ
2 LW
N
348.051 232.242 M
354.139 232.242 L
S
GR
GS
1 LJ
2 LW
N
348.051 194.524 M
354.139 194.524 L
S
GR
GS
[1 0 0 1 351.09525 213.38277] CT
N
1 0 M
1 0.552 0.552 1 0 1 C
-0.552 1 -1 0.552 -1 0 C
-1 -0.552 -0.552 -1 0 -1 C
0.552 -1 1 -0.552 1 0 C
cp
f
GR
GS
1 0 0 RC
N
370.917 384 M
387.908 384 L
387.908 258.463 L
370.917 258.463 L
cp
f
GR
GS
1 0 0 RC
N
392.156 384 M
409.146 384 L
409.146 279.109 L
392.156 279.109 L
cp
f
GR
GS
1 0 0 RC
N
413.394 384 M
430.384 384 L
430.384 284.95 L
413.394 284.95 L
cp
f
GR
GS
10.0 ML
0.5 LW
N
370.917 384 M
370.917 258.463 L
387.908 258.463 L
387.908 384 L
cp
S
GR
GS
10.0 ML
0.5 LW
N
392.156 384 M
392.156 279.109 L
409.146 279.109 L
409.146 384 L
cp
S
GR
GS
10.0 ML
0.5 LW
N
413.394 384 M
413.394 284.95 L
430.384 284.95 L
430.384 384 L
cp
S
GR
GS
1 LJ
2 LW
N
379.413 293.94 M
379.413 222.986 L
S
GR
GS
1 LJ
2 LW
N
400.651 305.191 M
400.651 253.027 L
S
GR
GS
1 LJ
2 LW
N
421.889 310.222 M
421.889 259.678 L
S
GR
GS
1 LJ
2 LW
N
378.988 293.94 M
379.837 293.94 L
S
GR
GS
1 LJ
2 LW
N
400.226 305.191 M
401.076 305.191 L
S
GR
GS
1 LJ
2 LW
N
421.464 310.222 M
422.314 310.222 L
S
GR
GS
1 LJ
2 LW
N
378.988 222.986 M
379.837 222.986 L
S
GR
GS
1 LJ
2 LW
N
400.226 253.027 M
401.076 253.027 L
S
GR
GS
1 LJ
2 LW
N
421.464 259.678 M
422.314 259.678 L
S
GR
GS
[1 0 0 1 379.41269 258.46307] CT
N
1 0 M
1 0.552 0.552 1 0 1 C
-0.552 1 -1 0.552 -1 0 C
-1 -0.552 -0.552 -1 0 -1 C
0.552 -1 1 -0.552 1 0 C
cp
f
GR
GS
[1 0 0 1 400.65079 279.1088] CT
N
1 0 M
1 0.552 0.552 1 0 1 C
-0.552 1 -1 0.552 -1 0 C
-1 -0.552 -0.552 -1 0 -1 C
0.552 -1 1 -0.552 1 0 C
cp
f
GR
GS
[1 0 0 1 421.88892 284.9501] CT
N
1 0 M
1 0.552 0.552 1 0 1 C
-0.552 1 -1 0.552 -1 0 C
-1 -0.552 -0.552 -1 0 -1 C
0.552 -1 1 -0.552 1 0 C
cp
f
GR
GS
0 0 1 RC
N
441.711 384 M
458.702 384 L
458.702 286.258 L
441.711 286.258 L
cp
f
GR
GS
0 0 1 RC
N
462.949 384 M
479.94 384 L
479.94 305.273 L
462.949 305.273 L
cp
f
GR
GS
0 0 1 RC
N
484.187 384 M
501.178 384 L
501.178 321.624 L
484.187 321.624 L
cp
f
GR
GS
10.0 ML
0.5 LW
N
441.711 384 M
441.711 286.258 L
458.702 286.258 L
458.702 384 L
cp
S
GR
GS
10.0 ML
0.5 LW
N
462.949 384 M
462.949 305.273 L
479.94 305.273 L
479.94 384 L
cp
S
GR
GS
10.0 ML
0.5 LW
N
484.187 384 M
484.187 321.624 L
501.178 321.624 L
501.178 384 L
cp
S
GR
GS
1 LJ
2 LW
N
450.206 313.713 M
450.206 258.803 L
S
GR
GS
1 LJ
2 LW
N
471.444 326.376 M
471.444 284.169 L
S
GR
GS
1 LJ
2 LW
N
492.683 338.006 M
492.683 305.241 L
S
GR
GS
1 LJ
2 LW
N
449.782 313.713 M
450.631 313.713 L
S
GR
GS
1 LJ
2 LW
N
471.02 326.376 M
471.869 326.376 L
S
GR
GS
1 LJ
2 LW
N
492.258 338.006 M
493.107 338.006 L
S
GR
GS
1 LJ
2 LW
N
449.782 258.803 M
450.631 258.803 L
S
GR
GS
1 LJ
2 LW
N
471.02 284.169 M
471.869 284.169 L
S
GR
GS
1 LJ
2 LW
N
492.258 305.241 M
493.107 305.241 L
S
GR
GS
[1 0 0 1 450.20633 286.25769] CT
N
1 0 M
1 0.552 0.552 1 0 1 C
-0.552 1 -1 0.552 -1 0 C
-1 -0.552 -0.552 -1 0 -1 C
0.552 -1 1 -0.552 1 0 C
cp
f
GR
GS
[1 0 0 1 471.44446 305.27286] CT
N
1 0 M
1 0.552 0.552 1 0 1 C
-0.552 1 -1 0.552 -1 0 C
-1 -0.552 -0.552 -1 0 -1 C
0.552 -1 1 -0.552 1 0 C
cp
f
GR
GS
[1 0 0 1 492.68256 321.62381] CT
N
1 0 M
1 0.552 0.552 1 0 1 C
-0.552 1 -1 0.552 -1 0 C
-1 -0.552 -0.552 -1 0 -1 C
0.552 -1 1 -0.552 1 0 C
cp
f
GR
GS
[1 0 0 1 188.26984 113.86047] CT
/Helvetica 18 F
GS
[1 0 0 1 0 0] CT
0 4.5 moveto 
1 -1 scale
(letter DNN) t 
GR
GR
GS
[1 0 0 1 329.85715 162.97675] CT
/Helvetica 18 F
GS
[1 0 0 1 0 0] CT
0 4.5 moveto 
1 -1 scale
(phon. feature DNN) t 
GR
GR
GS
[1 0 0 1 445 51.5] CT
/Helvetica 14 F
GS
[1 0 0 1 0 0] CT
0 3.5 moveto 
1 -1 scale
(No Adapt.) t 
GR
GR
GS
1 1 0 RC
N
412 57.25 M
412 45.75 L
442 45.75 L
442 57.25 L
cp
f
GR
GS
10.0 ML
0.5 LW
N
412 57.25 M
412 45.75 L
442 45.75 L
442 57.25 L
cp
S
GR
GS
[1 0 0 1 445 67] CT
/Helvetica 14 F
GS
[1 0 0 1 0 0] CT
0 3.5 moveto 
1 -1 scale
(FT FA) t 
GR
GR
GS
1 0 0 RC
N
412 72.75 M
412 61.25 L
442 61.25 L
442 72.75 L
cp
f
GR
GS
10.0 ML
0.5 LW
N
412 72.75 M
412 61.25 L
442 61.25 L
442 72.75 L
cp
S
GR
GS
[1 0 0 1 445 82.5] CT
/Helvetica 14 F
GS
[1 0 0 1 0 0] CT
0 3.5 moveto 
1 -1 scale
(FT GT) t 
GR
GR
GS
0 0 1 RC
N
412 88.25 M
412 76.75 L
442 76.75 L
442 88.25 L
cp
f
GR
GS
10.0 ML
0.5 LW
N
412 88.25 M
412 76.75 L
442 76.75 L
442 88.25 L
cp
S
GR
%%Trailer
%%Pages: 1
%%EOF
