%!PS-Adobe-3.0 EPSF-3.0
%%Creator: (MATLAB, The Mathworks, Inc. Version 8.6.0.267246 \(R2015b\). Operating System: Mac OS X)
%%Title: ./ling_fe_indep_adapt.eps
%%CreationDate: 2016-05-11T22:57:39
%%Pages: (atend)
%%BoundingBox:    44    20   522   406
%%LanguageLevel: 3
%%EndComments
%%BeginProlog
%%BeginResource: procset (Apache XML Graphics Std ProcSet) 1.2 0
%%Version: 1.2 0
%%Copyright: (Copyright 2001-2003,2010 The Apache Software Foundation. License terms: http://www.apache.org/licenses/LICENSE-2.0)
/bd{bind def}bind def
/ld{load def}bd
/GR/grestore ld
/M/moveto ld
/LJ/setlinejoin ld
/C/curveto ld
/f/fill ld
/LW/setlinewidth ld
/GC/setgray ld
/t/show ld
/N/newpath ld
/CT/concat ld
/cp/closepath ld
/S/stroke ld
/L/lineto ld
/CC/setcmykcolor ld
/A/ashow ld
/GS/gsave ld
/RC/setrgbcolor ld
/RM/rmoveto ld
/ML/setmiterlimit ld
/re {4 2 roll M
1 index 0 rlineto
0 exch rlineto
neg 0 rlineto
cp } bd
/_ctm matrix def
/_tm matrix def
/BT { _ctm currentmatrix pop matrix _tm copy pop 0 0 moveto } bd
/ET { _ctm setmatrix } bd
/iTm { _ctm setmatrix _tm concat } bd
/Tm { _tm astore pop iTm 0 0 moveto } bd
/ux 0.0 def
/uy 0.0 def
/F {
  /Tp exch def
  /Tf exch def
  Tf findfont Tp scalefont setfont
  /cf Tf def  /cs Tp def
} bd
/ULS {currentpoint /uy exch def /ux exch def} bd
/ULE {
  /Tcx currentpoint pop def
  gsave
  newpath
  cf findfont cs scalefont dup
  /FontMatrix get 0 get /Ts exch def /FontInfo get dup
  /UnderlinePosition get Ts mul /To exch def
  /UnderlineThickness get Ts mul /Tt exch def
  ux uy To add moveto  Tcx uy To add lineto
  Tt setlinewidth stroke
  grestore
} bd
/OLE {
  /Tcx currentpoint pop def
  gsave
  newpath
  cf findfont cs scalefont dup
  /FontMatrix get 0 get /Ts exch def /FontInfo get dup
  /UnderlinePosition get Ts mul /To exch def
  /UnderlineThickness get Ts mul /Tt exch def
  ux uy To add cs add moveto Tcx uy To add cs add lineto
  Tt setlinewidth stroke
  grestore
} bd
/SOE {
  /Tcx currentpoint pop def
  gsave
  newpath
  cf findfont cs scalefont dup
  /FontMatrix get 0 get /Ts exch def /FontInfo get dup
  /UnderlinePosition get Ts mul /To exch def
  /UnderlineThickness get Ts mul /Tt exch def
  ux uy To add cs 10 mul 26 idiv add moveto Tcx uy To add cs 10 mul 26 idiv add lineto
  Tt setlinewidth stroke
  grestore
} bd
/QT {
/Y22 exch store
/X22 exch store
/Y21 exch store
/X21 exch store
currentpoint
/Y21 load 2 mul add 3 div exch
/X21 load 2 mul add 3 div exch
/X21 load 2 mul /X22 load add 3 div
/Y21 load 2 mul /Y22 load add 3 div
/X22 load /Y22 load curveto
} bd
/SSPD {
dup length /d exch dict def
{
/v exch def
/k exch def
currentpagedevice k known {
/cpdv currentpagedevice k get def
v cpdv ne {
/upd false def
/nullv v type /nulltype eq def
/nullcpdv cpdv type /nulltype eq def
nullv nullcpdv or
{
/upd true def
} {
/sametype v type cpdv type eq def
sametype {
v type /arraytype eq {
/vlen v length def
/cpdvlen cpdv length def
vlen cpdvlen eq {
0 1 vlen 1 sub {
/i exch def
/obj v i get def
/cpdobj cpdv i get def
obj cpdobj ne {
/upd true def
exit
} if
} for
} {
/upd true def
} ifelse
} {
v type /dicttype eq {
v {
/dv exch def
/dk exch def
/cpddv cpdv dk get def
dv cpddv ne {
/upd true def
exit
} if
} forall
} {
/upd true def
} ifelse
} ifelse
} if
} ifelse
upd true eq {
d k v put
} if
} if
} if
} forall
d length 0 gt {
d setpagedevice
} if
} bd
%%EndResource
%%BeginResource: procset (Apache XML Graphics EPS ProcSet) 1.0 0
%%Version: 1.0 0
%%Copyright: (Copyright 2002-2003 The Apache Software Foundation. License terms: http://www.apache.org/licenses/LICENSE-2.0)
/BeginEPSF { %def
/b4_Inc_state save def         % Save state for cleanup
/dict_count countdictstack def % Count objects on dict stack
/op_count count 1 sub def      % Count objects on operand stack
userdict begin                 % Push userdict on dict stack
/showpage { } def              % Redefine showpage, { } = null proc
0 setgray 0 setlinecap         % Prepare graphics state
1 setlinewidth 0 setlinejoin
10 setmiterlimit [ ] 0 setdash newpath
/languagelevel where           % If level not equal to 1 then
{pop languagelevel             % set strokeadjust and
1 ne                           % overprint to their defaults.
{false setstrokeadjust false setoverprint
} if
} if
} bd
/EndEPSF { %def
count op_count sub {pop} repeat            % Clean up stacks
countdictstack dict_count sub {end} repeat
b4_Inc_state restore
} bd
%%EndResource
%FOPBeginFontDict
%%IncludeResource: font Courier-Bold
%%IncludeResource: font Helvetica
%%IncludeResource: font Courier-BoldOblique
%%IncludeResource: font Courier-Oblique
%%IncludeResource: font Times-Roman
%%IncludeResource: font Helvetica-BoldOblique
%%IncludeResource: font Helvetica-Bold
%%IncludeResource: font Helvetica-Oblique
%%IncludeResource: font Times-BoldItalic
%%IncludeResource: font Courier
%%IncludeResource: font Times-Italic
%%IncludeResource: font Times-Bold
%%IncludeResource: font Symbol
%%IncludeResource: font ZapfDingbats
%FOPEndFontDict
%%BeginResource: encoding WinAnsiEncoding
/WinAnsiEncoding [
/.notdef /.notdef /.notdef /.notdef /.notdef
/.notdef /.notdef /.notdef /.notdef /.notdef
/.notdef /.notdef /.notdef /.notdef /.notdef
/.notdef /.notdef /.notdef /.notdef /.notdef
/.notdef /.notdef /.notdef /.notdef /.notdef
/.notdef /.notdef /.notdef /.notdef /.notdef
/.notdef /.notdef /space /exclam /quotedbl
/numbersign /dollar /percent /ampersand /quotesingle
/parenleft /parenright /asterisk /plus /comma
/hyphen /period /slash /zero /one
/two /three /four /five /six
/seven /eight /nine /colon /semicolon
/less /equal /greater /question /at
/A /B /C /D /E
/F /G /H /I /J
/K /L /M /N /O
/P /Q /R /S /T
/U /V /W /X /Y
/Z /bracketleft /backslash /bracketright /asciicircum
/underscore /quoteleft /a /b /c
/d /e /f /g /h
/i /j /k /l /m
/n /o /p /q /r
/s /t /u /v /w
/x /y /z /braceleft /bar
/braceright /asciitilde /bullet /Euro /bullet
/quotesinglbase /florin /quotedblbase /ellipsis /dagger
/daggerdbl /circumflex /perthousand /Scaron /guilsinglleft
/OE /bullet /Zcaron /bullet /bullet
/quoteleft /quoteright /quotedblleft /quotedblright /bullet
/endash /emdash /asciitilde /trademark /scaron
/guilsinglright /oe /bullet /zcaron /Ydieresis
/space /exclamdown /cent /sterling /currency
/yen /brokenbar /section /dieresis /copyright
/ordfeminine /guillemotleft /logicalnot /sfthyphen /registered
/macron /degree /plusminus /twosuperior /threesuperior
/acute /mu /paragraph /middot /cedilla
/onesuperior /ordmasculine /guillemotright /onequarter /onehalf
/threequarters /questiondown /Agrave /Aacute /Acircumflex
/Atilde /Adieresis /Aring /AE /Ccedilla
/Egrave /Eacute /Ecircumflex /Edieresis /Igrave
/Iacute /Icircumflex /Idieresis /Eth /Ntilde
/Ograve /Oacute /Ocircumflex /Otilde /Odieresis
/multiply /Oslash /Ugrave /Uacute /Ucircumflex
/Udieresis /Yacute /Thorn /germandbls /agrave
/aacute /acircumflex /atilde /adieresis /aring
/ae /ccedilla /egrave /eacute /ecircumflex
/edieresis /igrave /iacute /icircumflex /idieresis
/eth /ntilde /ograve /oacute /ocircumflex
/otilde /odieresis /divide /oslash /ugrave
/uacute /ucircumflex /udieresis /yacute /thorn
/ydieresis
] def
%%EndResource
%FOPBeginFontReencode
/Courier-Bold findfont
dup length dict begin
  {1 index /FID ne {def} {pop pop} ifelse} forall
  /Encoding WinAnsiEncoding def
  currentdict
end
/Courier-Bold exch definefont pop
/Helvetica findfont
dup length dict begin
  {1 index /FID ne {def} {pop pop} ifelse} forall
  /Encoding WinAnsiEncoding def
  currentdict
end
/Helvetica exch definefont pop
/Courier-BoldOblique findfont
dup length dict begin
  {1 index /FID ne {def} {pop pop} ifelse} forall
  /Encoding WinAnsiEncoding def
  currentdict
end
/Courier-BoldOblique exch definefont pop
/Courier-Oblique findfont
dup length dict begin
  {1 index /FID ne {def} {pop pop} ifelse} forall
  /Encoding WinAnsiEncoding def
  currentdict
end
/Courier-Oblique exch definefont pop
/Times-Roman findfont
dup length dict begin
  {1 index /FID ne {def} {pop pop} ifelse} forall
  /Encoding WinAnsiEncoding def
  currentdict
end
/Times-Roman exch definefont pop
/Helvetica-BoldOblique findfont
dup length dict begin
  {1 index /FID ne {def} {pop pop} ifelse} forall
  /Encoding WinAnsiEncoding def
  currentdict
end
/Helvetica-BoldOblique exch definefont pop
/Helvetica-Bold findfont
dup length dict begin
  {1 index /FID ne {def} {pop pop} ifelse} forall
  /Encoding WinAnsiEncoding def
  currentdict
end
/Helvetica-Bold exch definefont pop
/Helvetica-Oblique findfont
dup length dict begin
  {1 index /FID ne {def} {pop pop} ifelse} forall
  /Encoding WinAnsiEncoding def
  currentdict
end
/Helvetica-Oblique exch definefont pop
/Times-BoldItalic findfont
dup length dict begin
  {1 index /FID ne {def} {pop pop} ifelse} forall
  /Encoding WinAnsiEncoding def
  currentdict
end
/Times-BoldItalic exch definefont pop
/Courier findfont
dup length dict begin
  {1 index /FID ne {def} {pop pop} ifelse} forall
  /Encoding WinAnsiEncoding def
  currentdict
end
/Courier exch definefont pop
/Times-Italic findfont
dup length dict begin
  {1 index /FID ne {def} {pop pop} ifelse} forall
  /Encoding WinAnsiEncoding def
  currentdict
end
/Times-Italic exch definefont pop
/Times-Bold findfont
dup length dict begin
  {1 index /FID ne {def} {pop pop} ifelse} forall
  /Encoding WinAnsiEncoding def
  currentdict
end
/Times-Bold exch definefont pop
%FOPEndFontReencode
%%EndProlog
%%Page: 1 1
%%PageBoundingBox: 0 0 576 432
%%BeginPageSetup
[1 0 0 -1 0 432] CT
%%EndPageSetup
GS
1 GC
N
0 0 576 432 re
f
GR
GS
1 GC
N
0 0 576 432 re
f
GR
GS
1 GC
N
75 384 M
521 384 L
521 32 L
75 32 L
cp
f
GR
GS
0.149 GC
2 setlinecap
1 LJ
0.5 LW
N
75 384 M
521 384 L
S
GR
GS
0.149 GC
2 setlinecap
1 LJ
0.5 LW
N
75 384 M
75 379.54 L
S
GR
GS
0.149 GC
2 setlinecap
1 LJ
0.5 LW
N
119.6 384 M
119.6 379.54 L
S
GR
GS
0.149 GC
2 setlinecap
1 LJ
0.5 LW
N
164.2 384 M
164.2 379.54 L
S
GR
GS
0.149 GC
2 setlinecap
1 LJ
0.5 LW
N
208.8 384 M
208.8 379.54 L
S
GR
GS
0.149 GC
2 setlinecap
1 LJ
0.5 LW
N
253.4 384 M
253.4 379.54 L
S
GR
GS
0.149 GC
2 setlinecap
1 LJ
0.5 LW
N
298 384 M
298 379.54 L
S
GR
GS
0.149 GC
2 setlinecap
1 LJ
0.5 LW
N
342.6 384 M
342.6 379.54 L
S
GR
GS
0.149 GC
2 setlinecap
1 LJ
0.5 LW
N
387.2 384 M
387.2 379.54 L
S
GR
GS
0.149 GC
2 setlinecap
1 LJ
0.5 LW
N
431.8 384 M
431.8 379.54 L
S
GR
GS
0.149 GC
2 setlinecap
1 LJ
0.5 LW
N
476.4 384 M
476.4 379.54 L
S
GR
GS
0.149 GC
2 setlinecap
1 LJ
0.5 LW
N
521 384 M
521 379.54 L
S
GR
GS
[1 0 0 1 119.6 388] CT
0.149 GC
/Helvetica 10 F
GS
[1 0 0 1 0 0] CT
-3 8 moveto 
1 -1 scale
(1) t 
GR
GR
GS
[1 0 0 1 208.8 388] CT
0.149 GC
/Helvetica 10 F
GS
[1 0 0 1 0 0] CT
-3 8 moveto 
1 -1 scale
(2) t 
GR
GR
GS
[1 0 0 1 298 388] CT
0.149 GC
/Helvetica 10 F
GS
[1 0 0 1 0 0] CT
-3 8 moveto 
1 -1 scale
(3) t 
GR
GR
GS
[1 0 0 1 387.20001 388] CT
0.149 GC
/Helvetica 10 F
GS
[1 0 0 1 0 0] CT
-3 8 moveto 
1 -1 scale
(4) t 
GR
GR
GS
[1 0 0 1 476.39999 388] CT
0.149 GC
/Helvetica 10 F
GS
[1 0 0 1 0 0] CT
-13 8 moveto 
1 -1 scale
(mean) t 
GR
GR
GS
[1 0 0 1 298.00021 400] CT
0.149 GC
/Helvetica 11 F
GS
[1 0 0 1 0 0] CT
-18 9 moveto 
1 -1 scale
(signers) t 
GR
GR
GS
0.149 GC
2 setlinecap
1 LJ
0.5 LW
N
75 384 M
75 32 L
S
GR
GS
0.149 GC
2 setlinecap
1 LJ
0.5 LW
N
75 384 M
79.46 384 L
S
GR
GS
0.149 GC
2 setlinecap
1 LJ
0.5 LW
N
75 325.333 M
79.46 325.333 L
S
GR
GS
0.149 GC
2 setlinecap
1 LJ
0.5 LW
N
75 266.667 M
79.46 266.667 L
S
GR
GS
0.149 GC
2 setlinecap
1 LJ
0.5 LW
N
75 208 M
79.46 208 L
S
GR
GS
0.149 GC
2 setlinecap
1 LJ
0.5 LW
N
75 149.333 M
79.46 149.333 L
S
GR
GS
0.149 GC
2 setlinecap
1 LJ
0.5 LW
N
75 90.667 M
79.46 90.667 L
S
GR
GS
0.149 GC
2 setlinecap
1 LJ
0.5 LW
N
75 32 M
79.46 32 L
S
GR
GS
[1 0 0 1 71 384] CT
0.149 GC
/Helvetica 10 F
GS
[1 0 0 1 0 0] CT
-6 2.5 moveto 
1 -1 scale
(0) t 
GR
GR
GS
[1 0 0 1 71 325.33334] CT
0.149 GC
/Helvetica 10 F
GS
[1 0 0 1 0 0] CT
-6 2.5 moveto 
1 -1 scale
(5) t 
GR
GR
GS
[1 0 0 1 71 266.66666] CT
0.149 GC
/Helvetica 10 F
GS
[1 0 0 1 0 0] CT
-12 2.5 moveto 
1 -1 scale
(10) t 
GR
GR
GS
[1 0 0 1 71 208] CT
0.149 GC
/Helvetica 10 F
GS
[1 0 0 1 0 0] CT
-12 2.5 moveto 
1 -1 scale
(15) t 
GR
GR
GS
[1 0 0 1 71 149.33333] CT
0.149 GC
/Helvetica 10 F
GS
[1 0 0 1 0 0] CT
-12 2.5 moveto 
1 -1 scale
(20) t 
GR
GR
GS
[1 0 0 1 71 90.66666] CT
0.149 GC
/Helvetica 10 F
GS
[1 0 0 1 0 0] CT
-12 2.5 moveto 
1 -1 scale
(25) t 
GR
GR
GS
[1 0 0 1 71 32] CT
0.149 GC
/Helvetica 10 F
GS
[1 0 0 1 0 0] CT
-12 2.5 moveto 
1 -1 scale
(30) t 
GR
GR
GS
[0 -1 1 0 56 207.99983] CT
0.149 GC
/Helvetica 11 F
GS
[1 0 0 1 0 0] CT
-51.5 -3 moveto 
1 -1 scale
(Letter Error Rate \(%\)) t 
GR
GR
GS
0.149 GC
1 LJ
0.5 LW
N
75 384 M
521 384 L
S
GR
GS
1 0 0 RC
N
88.785 384 M
101.76 384 L
101.76 231.613 L
88.785 231.613 L
cp
f
GR
GS
1 0 0 RC
N
177.985 384 M
190.96 384 L
190.96 245.341 L
177.985 245.341 L
cp
f
GR
GS
1 0 0 RC
N
267.185 384 M
280.16 384 L
280.16 112.344 L
267.185 112.344 L
cp
f
GR
GS
1 0 0 RC
N
356.385 384 M
369.36 384 L
369.36 165.701 L
356.385 165.701 L
cp
f
GR
GS
1 0 0 RC
N
445.585 384 M
458.56 384 L
458.56 188.75 L
445.585 188.75 L
cp
f
GR
GS
10.0 ML
0.5 LW
N
88.785 384 M
88.785 231.613 L
101.76 231.613 L
101.76 384 L
cp
S
GR
GS
10.0 ML
0.5 LW
N
177.985 384 M
177.985 245.341 L
190.96 245.341 L
190.96 384 L
cp
S
GR
GS
10.0 ML
0.5 LW
N
267.185 384 M
267.185 112.344 L
280.16 112.344 L
280.16 384 L
cp
S
GR
GS
10.0 ML
0.5 LW
N
356.385 384 M
356.385 165.701 L
369.36 165.701 L
369.36 384 L
cp
S
GR
GS
10.0 ML
0.5 LW
N
445.585 384 M
445.585 188.75 L
458.56 188.75 L
458.56 384 L
cp
S
GR
GS
1 1 0 RC
N
105.004 384 M
117.978 384 L
117.978 173.9 L
105.004 173.9 L
cp
f
GR
GS
1 1 0 RC
N
194.204 384 M
207.178 384 L
207.178 215.011 L
194.204 215.011 L
cp
f
GR
GS
1 1 0 RC
N
283.404 384 M
296.378 384 L
296.378 65.719 L
283.404 65.719 L
cp
f
GR
GS
1 1 0 RC
N
372.604 384 M
385.578 384 L
385.578 142.249 L
372.604 142.249 L
cp
f
GR
GS
1 1 0 RC
N
461.804 384 M
474.778 384 L
474.778 149.22 L
461.804 149.22 L
cp
f
GR
GS
10.0 ML
0.5 LW
N
105.004 384 M
105.004 173.9 L
117.978 173.9 L
117.978 384 L
cp
S
GR
GS
10.0 ML
0.5 LW
N
194.204 384 M
194.204 215.011 L
207.178 215.011 L
207.178 384 L
cp
S
GR
GS
10.0 ML
0.5 LW
N
283.404 384 M
283.404 65.719 L
296.378 65.719 L
296.378 384 L
cp
S
GR
GS
10.0 ML
0.5 LW
N
372.604 384 M
372.604 142.249 L
385.578 142.249 L
385.578 384 L
cp
S
GR
GS
10.0 ML
0.5 LW
N
461.804 384 M
461.804 149.22 L
474.778 149.22 L
474.778 384 L
cp
S
GR
GS
0 1 0 RC
N
121.222 384 M
134.196 384 L
134.196 206.035 L
121.222 206.035 L
cp
f
GR
GS
0 1 0 RC
N
210.422 384 M
223.396 384 L
223.396 259.451 L
210.422 259.451 L
cp
f
GR
GS
0 1 0 RC
N
299.622 384 M
312.596 384 L
312.596 91.532 L
299.622 91.532 L
cp
f
GR
GS
0 1 0 RC
N
388.822 384 M
401.796 384 L
401.796 168.356 L
388.822 168.356 L
cp
f
GR
GS
0 1 0 RC
N
478.022 384 M
490.996 384 L
490.996 181.343 L
478.022 181.343 L
cp
f
GR
GS
10.0 ML
0.5 LW
N
121.222 384 M
121.222 206.035 L
134.196 206.035 L
134.196 384 L
cp
S
GR
GS
10.0 ML
0.5 LW
N
210.422 384 M
210.422 259.451 L
223.396 259.451 L
223.396 384 L
cp
S
GR
GS
10.0 ML
0.5 LW
N
299.622 384 M
299.622 91.532 L
312.596 91.532 L
312.596 384 L
cp
S
GR
GS
10.0 ML
0.5 LW
N
388.822 384 M
388.822 168.356 L
401.796 168.356 L
401.796 384 L
cp
S
GR
GS
10.0 ML
0.5 LW
N
478.022 384 M
478.022 181.343 L
490.996 181.343 L
490.996 384 L
cp
S
GR
GS
0 0 1 RC
N
137.44 384 M
150.415 384 L
150.415 208.572 L
137.44 208.572 L
cp
f
GR
GS
0 0 1 RC
N
226.64 384 M
239.615 384 L
239.615 260.844 L
226.64 260.844 L
cp
f
GR
GS
0 0 1 RC
N
315.84 384 M
328.815 384 L
328.815 71.615 L
315.84 71.615 L
cp
f
GR
GS
0 0 1 RC
N
405.04 384 M
418.015 384 L
418.015 173.137 L
405.04 173.137 L
cp
f
GR
GS
0 0 1 RC
N
494.24 384 M
507.215 384 L
507.215 178.542 L
494.24 178.542 L
cp
f
GR
GS
10.0 ML
0.5 LW
N
137.44 384 M
137.44 208.572 L
150.415 208.572 L
150.415 384 L
cp
S
GR
GS
10.0 ML
0.5 LW
N
226.64 384 M
226.64 260.844 L
239.615 260.844 L
239.615 384 L
cp
S
GR
GS
10.0 ML
0.5 LW
N
315.84 384 M
315.84 71.615 L
328.815 71.615 L
328.815 384 L
cp
S
GR
GS
10.0 ML
0.5 LW
N
405.04 384 M
405.04 173.137 L
418.015 173.137 L
418.015 384 L
cp
S
GR
GS
10.0 ML
0.5 LW
N
494.24 384 M
494.24 178.542 L
507.215 178.542 L
507.215 384 L
cp
S
GR
GS
[1 0 0 1 441 49.07692] CT
/Helvetica 9 F
GS
[1 0 0 1 0 0] CT
0 2 moveto 
1 -1 scale
(letter only) t 
GR
GR
GS
1 0 0 RC
N
408 52.868 M
408 45.286 L
438 45.286 L
438 52.868 L
cp
f
GR
GS
10.0 ML
0.5 LW
N
408 52.868 M
408 45.286 L
438 45.286 L
438 52.868 L
cp
S
GR
GS
[1 0 0 1 441 59.69231] CT
/Helvetica 9 F
GS
[1 0 0 1 0 0] CT
0 2 moveto 
1 -1 scale
(phonetic only) t 
GR
GR
GS
1 1 0 RC
N
408 63.484 M
408 55.901 L
438 55.901 L
438 63.484 L
cp
f
GR
GS
10.0 ML
0.5 LW
N
408 63.484 M
408 55.901 L
438 55.901 L
438 63.484 L
cp
S
GR
GS
[1 0 0 1 441 70.30769] CT
/Helvetica 9 F
GS
[1 0 0 1 0 0] CT
0 2 moveto 
1 -1 scale
(letter+phonology) t 
GR
GR
GS
0 1 0 RC
N
408 74.099 M
408 66.516 L
438 66.516 L
438 74.099 L
cp
f
GR
GS
10.0 ML
0.5 LW
N
408 74.099 M
408 66.516 L
438 66.516 L
438 74.099 L
cp
S
GR
GS
[1 0 0 1 441 80.92308] CT
/Helvetica 9 F
GS
[1 0 0 1 0 0] CT
0 2 moveto 
1 -1 scale
(letter+phonetic) t 
GR
GR
GS
0 0 1 RC
N
408 84.714 M
408 77.132 L
438 77.132 L
438 84.714 L
cp
f
GR
GS
10.0 ML
0.5 LW
N
408 84.714 M
408 77.132 L
438 77.132 L
438 84.714 L
cp
S
GR
%%Trailer
%%Pages: 1
%%EOF
